<?xml version="1.0" standalone="no"?>
<!DOCTYPE svg PUBLIC "-//W3C//DTD SVG 1.1//EN" "http://www.w3.org/Graphics/SVG/1.1/DTD/svg11.dtd" >
<svg xmlns="http://www.w3.org/2000/svg">
<metadata></metadata>
<defs>
<font id="caviar_dreamsregular" horiz-adv-x="1250" >
<font-face units-per-em="2048" ascent="1638" descent="-410" />
<missing-glyph horiz-adv-x="708" />
<glyph horiz-adv-x="2048" />
<glyph horiz-adv-x="2048" />
<glyph unicode="&#xd;" horiz-adv-x="708" />
<glyph unicode=" "  horiz-adv-x="708" />
<glyph unicode="&#x09;" horiz-adv-x="708" />
<glyph unicode="&#xa0;" horiz-adv-x="708" />
<glyph unicode="!" horiz-adv-x="430" d="M278.5 139q26.5 -26 26.5 -63q0 -38 -26.5 -64t-63.5 -26t-63.5 26t-26.5 64q0 37 26.5 63t63.5 26t63.5 -26zM258 1600v-1324h-90v1324h90z" />
<glyph unicode="&#x22;" horiz-adv-x="575" d="M125 997v600h90v-600h-90zM360 997v600h90v-600h-90z" />
<glyph unicode="#" horiz-adv-x="1653" d="M763 985h230l111 445h90l-111 -445h445l-23 -90h-445l-57 -230h445l-23 -90h-445l-111 -445h-90l111 445h-230l-111 -445h-90l111 445h-445l23 90h445l57 230h-445l23 90h445l111 445h90zM970 895h-230l-57 -230h230z" />
<glyph unicode="$" horiz-adv-x="1011" d="M556 856v-667q100 15 176 91q94 94 94 228q0 133 -94 227q-74 74 -176 121zM466 1413q-62 -10 -108 -57q-61 -60 -61 -146t60 -146q42 -42 109 -79v428zM466 891q-104 45 -170 112q-86 85 -86 207q0 119 86 205q72 73 170 84v163h90v-165q88 -15 155 -81q47 -46 67 -108 l-78 -31q-17 46 -51 80q-41 40 -93 53v-464q137 -53 236 -151q119 -119 119 -287q0 -170 -119 -289q-101 -101 -236 -117v-140h-90v139q-144 11 -251 118q-95 96 -115 226l82 30q12 -115 94 -196q81 -81 190 -92v704z" />
<glyph unicode="%" horiz-adv-x="1221" d="M1107 1314l-918 -1311l-74 51l918 1311zM474.5 1147.5q67.5 -67.5 67.5 -163.5t-67.5 -163.5t-163.5 -67.5t-163.5 67.5t-67.5 163.5t67.5 163.5t163.5 67.5t163.5 -67.5zM311 1128q-60 0 -102 -42t-42 -102t42 -102t102 -42q59 0 101.5 42t42.5 102t-42.5 102t-101.5 42 zM1074.5 547.5q67.5 -67.5 67.5 -163.5t-67.5 -163.5t-163.5 -67.5t-163.5 67.5t-67.5 163.5t67.5 163.5t163.5 67.5t163.5 -67.5zM911 528q-60 0 -102 -42t-42 -102t42 -102t102 -42q59 0 101.5 42t42.5 102t-42.5 102t-101.5 42z" />
<glyph unicode="&#x26;" horiz-adv-x="1304" d="M915 331q-13 5 -25 12q-48 27 -120 102q-48 44 -68 55q-22 12 -44 12q-13 0 -25 -3q-36 -10 -54 -42q-13 -22 -13 -44q0 -12 4 -25q10 -36 39 -52q19 -10 52 -10q18 0 41 3l-9 -82q-25 -7 -50 -7q-40 0 -78 21q-60 33 -79 104q-7 25 -7 48q0 44 24 86q37 64 107 83 q25 7 49 7q44 0 85 -24q40 -22 104 -89q58 -53 85 -68q30 -17 62 -17q18 0 36 5q52 14 79 61q17 31 17 63q0 17 -5 35q-14 51 -60 78q-28 16 -63 16q-25 0 -54 -8l-1 89q28 8 56 8q53 0 104 -29q78 -44 102 -131q8 -30 8 -58q0 -55 -29 -105q-44 -78 -132 -102 q-26 -7 -50 -8q-33 -108 -119 -194q-139 -140 -335 -140t-335 139t-139 336q0 196 137 342q94 101 244 151q-72 31 -147.5 111.5t-75.5 221.5q0 138 99 237.5t240 99.5q140 0 240 -99q55 -53 76 -119l-81 -32q-18 49 -59 90q-73 72 -176 72t-176 -72.5t-73 -176.5 q0 -103 70.5 -178t130.5 -98t150 -24v-84l-72 -2q-219 -41 -329 -161t-110 -279q0 -160 113 -273t273 -113q159 0 272 113q66 66 94 148z" />
<glyph unicode="'" horiz-adv-x="340" d="M125 997v600h90v-600h-90z" />
<glyph unicode="(" horiz-adv-x="703" d="M603 1628q-135 -62 -244 -199q-181 -228 -181 -629q0 -402 181 -630q109 -137 244 -202v-85q-168 58 -299 223q-204 254 -204 694q0 439 204 694q131 165 299 223v-89z" />
<glyph unicode=")" horiz-adv-x="703" d="M100 1717q168 -58 299 -223q204 -255 204 -694q0 -440 -204 -694q-131 -165 -299 -223v85q135 65 244 202q181 228 181 630q0 401 -181 629q-109 137 -244 199v89z" />
<glyph unicode="*" horiz-adv-x="800" d="M445 1384l174 122l52 -74l-193 -135l193 -135l-52 -74l-174 122v-213h-90v214l-175 -123l-52 74l193 135l-193 135l52 74l175 -123v214h90v-213z" />
<glyph unicode="+" horiz-adv-x="1050" d="M480 547h-355v90h355v355h90v-355h355v-90h-355v-355h-90v355z" />
<glyph unicode="," horiz-adv-x="379" d="M279 166l-185 -385h-84l103 385h166z" />
<glyph unicode="-" horiz-adv-x="840" d="M125 637h590v-90h-590v90z" />
<glyph unicode="." horiz-adv-x="380" d="M253.5 139q26.5 -26 26.5 -63q0 -38 -26.5 -64t-63.5 -26t-63.5 26t-26.5 64q0 37 26.5 63t63.5 26t63.5 -26z" />
<glyph unicode="/" horiz-adv-x="727" d="M674 1600h103l-725 -1600h-102z" />
<glyph unicode="0" d="M1079 1051q0 188 -133 320.5t-321 132.5t-321 -132.5t-133 -320.5v-530q0 -188 133 -320.5t321 -132.5t321 132.5t133 320.5v530zM1174 521q0 -227 -160.5 -388t-388.5 -161q-227 0 -388 161t-161 388v530q0 227 161 388t388 161q228 0 388.5 -161t160.5 -388v-530z" />
<glyph unicode="1" d="M717 1600v-1600h-90v1442h-95l123 158h62z" />
<glyph unicode="2" d="M367.5 433.5q165.5 123.5 292.5 219t236 214.5t109 277q0 159 -112 271t-271 112q-157 0 -270 -112q-96 -96 -110 -229l-91 33q23 150 134 262q140 141 337 141q198 0 337.5 -140t139.5 -338q0 -197 -137 -344q-93 -101 -220 -196t-286 -214t-198 -300h841v-90h-943 q46 310 211.5 433.5z" />
<glyph unicode="3" d="M569 893l-75 2v90q93 1 152.5 24t129 97t69.5 176q0 103 -72 174.5t-174 71.5q-101 0 -174 -71q-40 -41 -59 -92l-86 34q22 70 77 123q101 100 242 100q143 0 242.5 -100.5t99.5 -239.5q0 -142 -76 -223.5t-142 -108.5q144 -48 239 -150q137 -147 137 -344 q0 -198 -139.5 -338t-337.5 -140q-197 0 -337 141q-111 112 -134 262l91 33q14 -133 110 -229q113 -112 270 -112q159 0 271 112t112 271q0 158 -109 277t-327 160z" />
<glyph unicode="4" d="M833 1600h90v-1042h153v-90h-153v-468h-90v468h-660zM833 1406l-505 -848h505v848z" />
<glyph unicode="5" d="M282 1103q50 16 112 30q64 11 124 11q110 0 211 -35q226 -77 336 -284q69 -129 69 -264q0 -84 -26 -169q-69 -225 -276 -336q-126 -67 -260 -67q-85 0 -173 27q-180 55 -282 194l64 71q85 -126 246 -175q72 -22 142 -22q112 0 218 56q173 92 231 280q22 72 22 142 q0 112 -57 219q-92 172 -280 238q-81 28 -178 28q-127 0 -282 -49l-72 63l184 507v32h500v-90h-425z" />
<glyph unicode="6" d="M174 521q0 -188 133 -320.5t321 -132.5t321 132.5t133 320.5t-133 321t-321 133t-321 -133t-133 -321zM272 940q151 131 356 131q228 0 388.5 -161t160.5 -389q0 -227 -160.5 -388t-388.5 -161q-227 0 -388 161q-155 155 -161 371h-6q10 353 170 577t396 488q14 16 27 31 h124q-20 -25 -42 -50q-263 -294 -417 -513q-33 -46 -59 -97z" />
<glyph unicode="7" d="M827.5 1046q-262.5 -294 -416.5 -513t-164 -533h-94q10 353 170 577t396 488t275 445h-841v90h943q-6 -260 -268.5 -554z" />
<glyph unicode="8" d="M624 75h2q20 -2 40 -2q159 0 271 112t112 271q0 158 -109 277q-106 116 -315 158q-209 -42 -315 -158q-109 -119 -109 -277q0 -159 112 -271t271 -112q20 0 40 2zM625 -20q-20 -2 -41 -2q-198 0 -337.5 140t-139.5 338q0 197 137 344q95 102 239 150q-66 27 -142 108.5 t-76 223.5q0 139 99.5 239.5t242.5 100.5h36q143 0 242.5 -100.5t99.5 -239.5q0 -142 -76 -223.5t-142 -108.5q144 -48 239 -150q137 -147 137 -344q0 -198 -139.5 -338t-337.5 -140q-20 0 -41 2zM624 1527q-8 1 -17 1q-102 0 -174 -71.5t-72 -174.5q0 -102 69.5 -176 t128.5 -97q30 -11 66 -17q36 6 66 17q59 23 128.5 97t69.5 176q0 103 -72 174.5t-174 71.5q-9 0 -17 -1h-2z" />
<glyph unicode="9" d="M1076 1051q0 188 -133 320.5t-321 132.5t-321 -132.5t-133 -320.5t133 -321t321 -133t321 133t133 321zM978 632q-151 -131 -356 -131q-228 0 -388.5 161t-160.5 389q0 227 160.5 388t388.5 161q227 0 388 -161q155 -155 161 -371h6q-10 -353 -170 -577t-396 -488 q-14 -16 -27 -31h-124q20 25 42 50q263 294 417 513q33 46 59 97z" />
<glyph unicode=":" horiz-adv-x="430" d="M278.5 139q26.5 -26 26.5 -63q0 -38 -26.5 -64t-63.5 -26t-63.5 26t-26.5 64q0 37 26.5 63t63.5 26t63.5 -26zM278.5 756q26.5 -26 26.5 -63q0 -38 -26.5 -64t-63.5 -26t-63.5 26t-26.5 64q0 37 26.5 63t63.5 26t63.5 -26z" />
<glyph unicode=";" horiz-adv-x="477" d="M352 166l-185 -385h-84l103 385h166zM278.5 756q26.5 -26 26.5 -63q0 -38 -26.5 -64t-63.5 -26t-63.5 26t-26.5 64q0 37 26.5 63t63.5 26t63.5 -26z" />
<glyph unicode="&#x3c;" horiz-adv-x="1349" d="M1249 145l-1149 418l1149 418v-96l-886 -322l886 -322v-96z" />
<glyph unicode="=" horiz-adv-x="1050" d="M125 797h800v-90h-800v90zM125 477h800v-90h-800v90z" />
<glyph unicode="&#x3e;" horiz-adv-x="1349" d="M100 241l886 322l-886 322v96l1149 -418l-1149 -418v96z" />
<glyph unicode="?" horiz-adv-x="956" d="M390 589q-40 -82 -40 -166q0 -64 23 -129l-83 -29q-28 80 -28 158q0 104 49 204q80 167 241 289q95 92 136 178q26 53 26 108q0 41 -14 82q-35 98 -128 143q-53 25 -107 25q-41 0 -83 -15q-97 -34 -142 -126q-25 -52 -25 -105l-88 4v8q0 65 32 129q62 127 194 173 q58 20 114 20q74 0 146 -34q126 -61 172 -192q20 -57 20 -113q0 -74 -35 -146q-61 -127 -203 -237q-117 -103 -177 -229zM389.5 139q26.5 -26 26.5 -63q0 -38 -26.5 -64t-63.5 -26t-63.5 26t-26.5 64q0 37 26.5 63t63.5 26t63.5 -26z" />
<glyph unicode="@" horiz-adv-x="1626" d="M1088 483v132q-17 75 -74 132q-82 83 -198 83t-197.5 -82.5t-81.5 -199.5q0 -115 81.5 -197t197.5 -82t198 82q57 57 74 132zM1086 313q-121 -127 -272 -127q-150 0 -257 107t-107 255q0 151 107 258t257 107q151 0 272 -127v114h81v-648q18 -43 55 -43q44 0 122 110.5 t78 227.5q0 251 -178.5 429.5t-429.5 178.5t-428.5 -178.5t-177.5 -429.5t177.5 -428.5t428.5 -177.5q172 0 251 49l57 -60q-120 -70 -308 -70q-284 0 -486.5 202t-202.5 485q0 284 202.5 486.5t486.5 202.5q285 0 486 -202.5t201 -486.5q0 -127 -92.5 -272t-204.5 -145 q-13 0 -25 2q-86 18 -93 100v81z" />
<glyph unicode="A" horiz-adv-x="1291" d="M890 703l-244 671l-244 -671h488zM923 613h-554l-223 -613h-96l596 1637l595 -1637h-95z" />
<glyph unicode="B" horiz-adv-x="1066" d="M434 1600q123 0 210.5 -87t87.5 -210q0 -124 -127 -231q112 -23 211 -132q160 -161 160 -389q0 -227 -160 -393q-149 -154 -356 -157v-1h-310v1600h284zM240 1005v-915h220v-1q167 11 288 137q133 137 133 325t-133 321t-321 133h-187zM240 1510v-409h217q75 7 128 56 q61 56 61 146t-61 148.5t-151 58.5h-194z" />
<glyph unicode="C" horiz-adv-x="1595" d="M1427 255l68 -61q-234 -213 -551 -213q-340 0 -579.5 239.5t-239.5 579.5q0 339 239.5 579t579.5 240q317 0 551 -213l-68 -62q-206 183 -483 183q-301 0 -514 -213t-213 -514q0 -302 213 -515t514 -213q277 0 483 183z" />
<glyph unicode="D" horiz-adv-x="1199" d="M240 1506v-1413h7q356 0 547 192q213 213 213 515q0 301 -213 515q-191 191 -547 191h-7zM240 1598h7q395 0 612 -218q240 -241 240 -580q0 -340 -240 -580q-217 -218 -612 -218h-7v-2h-90v1600h90v-2z" />
<glyph unicode="E" horiz-adv-x="1075" d="M950 1600v-90h-710v-665h710v-90h-710v-665h710v-90h-800v1600h800z" />
<glyph unicode="F" horiz-adv-x="975" d="M850 1600v-90h-610v-665h610v-90h-610v-755h-90v1600h700z" />
<glyph unicode="G" horiz-adv-x="1620" d="M1489 199q-228 -218 -545 -218q-340 0 -579.5 239.5t-239.5 579.5q0 339 239.5 579t579.5 240q317 0 551 -213l-68 -62q-206 183 -483 183q-301 0 -514 -213t-213 -514q0 -302 213 -515t514 -213q258 0 455 159v488h90v-520z" />
<glyph unicode="H" horiz-adv-x="1150" d="M240 717v-717h-90v1600h90v-793h670v793h90v-1600h-90v717h-670z" />
<glyph unicode="I" horiz-adv-x="430" d="M260 1600v-1600h-90v1600h90z" />
<glyph unicode="J" horiz-adv-x="857" d="M702 304q0 -152 -80 -232q-85 -86 -206 -86t-206 85.5t-85 187.5l59 23q20 -108 85 -162q54 -46 122 -46q12 0 25 2q83 0 143 59q53 53 53 179v1286h90v-1296z" />
<glyph unicode="K" horiz-adv-x="1097" d="M240 775v-775h-90v1600h90v-681l511 681h116l-480 -644l620 -956h-111l-568 884z" />
<glyph unicode="L" horiz-adv-x="950" d="M150 0v1600h90v-1510h620v-90h-710z" />
<glyph unicode="M" horiz-adv-x="1707" d="M253 1600l601 -1040l600 1040h103l-4 -7v-1593h-90v1437l-609 -1054l-610 1054v-1437h-90v1593l-4 7h103z" />
<glyph unicode="N" horiz-adv-x="1311" d="M150 1600h99l822 -1423v1423h90v-1600h-90l-831 1437v-1437h-90v1600z" />
<glyph unicode="O" horiz-adv-x="1892" d="M1526.5 1382.5q240.5 -240.5 240.5 -580.5t-240.5 -580.5t-580.5 -240.5t-580.5 240.5t-240.5 580.5t240.5 580.5t580.5 240.5t580.5 -240.5zM946 1531q-302 0 -515.5 -213.5t-213.5 -515.5t213.5 -516t515.5 -214t515.5 214t213.5 516t-213.5 515.5t-515.5 213.5z" />
<glyph unicode="P" horiz-adv-x="1089" d="M240 555v-555h-90v1600h420q183 -25 311 -153q153 -153 153 -369q0 -217 -153 -370t-369 -153h-272zM240 1509v-863h272q178 0 304.5 126.5t126.5 305.5t-126.5 305t-304.5 126h-272z" />
<glyph unicode="Q" horiz-adv-x="1892" d="M946 1531q-302 0 -515.5 -213.5t-213.5 -515.5t213.5 -516t515.5 -214t515.5 214t213.5 516t-213.5 515.5t-515.5 213.5zM937 -19q-334 3 -571 241q-241 240 -241 580t240.5 580.5t580.5 240.5t580.5 -240.5t240.5 -580.5t-240 -580q-174 -174 -399 -222q5 -2 10 -3 q73 -20 197 -98q84 -45 118 -55q21 -6 41 -6q36 0 70 19q53 30 69 88q5 16 6 32h91q-2 -27 -10 -55q-27 -94 -112 -142q-54 -31 -112 -31q-33 0 -67 10q-60 16 -170 86q-102 54 -145 66q-29 8 -57 8q-50 0 -96 -26q-74 -42 -96 -123q-4 -12 -5 -24h-91q2 24 9 49 q33 116 139 176z" />
<glyph unicode="R" horiz-adv-x="1089" d="M240 1509v-863h272q178 0 304.5 126.5t126.5 305.5t-126.5 305t-304.5 126h-272zM539 556q-13 -1 -27 -1h-272v-555h-90v1600h420q183 -25 311 -153q153 -153 153 -369q0 -217 -153 -370q-106 -106 -243 -139l369 -569h-111z" />
<glyph unicode="S" horiz-adv-x="1042" d="M548 886q-171 57 -270 156t-99 240q0 138 99 237.5t240 99.5q140 0 240 -99q55 -53 76 -119l-81 -32q-18 49 -59 90q-73 72 -176 72t-176 -72.5t-73 -176.5q0 -103 73 -176q68 -67 188 -123q192 -62 323 -193q139 -138 139 -334q0 -197 -139 -336t-335 -139t-335 140 q-111 111 -133 258l85 31q14 -130 111 -227q113 -113 272 -113q160 0 273 113t113 273q0 159 -113 272q-99 99 -243 158z" />
<glyph unicode="T" horiz-adv-x="1000" d="M545 1510v-1510h-90v1510h-405v90h900v-90h-405z" />
<glyph unicode="U" horiz-adv-x="1345" d="M1104 1600h91v-1150q-25 -183 -153 -311q-153 -153 -369 -153q-217 0 -370 153t-153 369v1092h91v-1092q0 -178 126.5 -304.5t305.5 -126.5t305 126.5t126 304.5v1092z" />
<glyph unicode="V" horiz-adv-x="1291" d="M145 1600l500 -1374l500 1374h96l-596 -1637l-595 1637h95z" />
<glyph unicode="W" horiz-adv-x="1672" d="M791 240v1360h90v-1360q23 -43 57 -77q90 -87 214 -87t214.5 88.5t90.5 213.5v1222h90v-1230q-3 -156 -115 -268q-116 -116 -280 -116q-163 0 -279 115q-21 20 -37 41q-16 -21 -37 -41q-116 -115 -279 -115q-164 0 -279 116q-113 112 -116 268v1230h90v-1222 q0 -125 90.5 -213.5t214.5 -88.5t214 87q34 34 57 77z" />
<glyph unicode="X" horiz-adv-x="1218" d="M50 0l507 879l-416 721h103l364 -632l366 632h103l-418 -721l509 -879h-103l-457 790l-456 -790h-102z" />
<glyph unicode="Y" horiz-adv-x="1291" d="M600 647l-550 953h103l492 -853l493 853h103l-551 -953v-647h-90v647z" />
<glyph unicode="Z" horiz-adv-x="1327" d="M1022 1510h-872v90h1027l-873 -1510h873v-90h-1027z" />
<glyph unicode="[" horiz-adv-x="560" d="M215 -285h220v-90h-310v1975h310v-90h-220v-1795z" />
<glyph unicode="\" horiz-adv-x="727" d="M777 0h-102l-725 1600h103z" />
<glyph unicode="]" horiz-adv-x="560" d="M345 1510h-220v90h310v-1975h-310v90h220v1795z" />
<glyph unicode="^" horiz-adv-x="921" d="M513 1600l308 -534h-104l-256 443l-256 -443h-105l309 534h104z" />
<glyph unicode="_" horiz-adv-x="1050" d="M25 -30h1000v-90h-1000v90z" />
<glyph unicode="`" horiz-adv-x="629" d="M316 1387l163 -187h-84l-245 187h166z" />
<glyph unicode="a" horiz-adv-x="1360" d="M1210 0h-90v200q-26 -35 -57 -67q-161 -161 -389 -161q-227 0 -388 161t-161 388q0 228 161 389t388 161q228 0 389 -161q31 -32 57 -67v139h90v-982zM1120 432v178q-25 132 -125 232q-133 133 -321 133t-321 -133t-133 -321t133 -320.5t321 -132.5t321 133 q100 100 125 231z" />
<glyph unicode="b" horiz-adv-x="1359" d="M150 1600h90v-756q25 34 57 66q161 161 388 161q228 0 388.5 -161t160.5 -389q0 -227 -160.5 -388t-388.5 -161q-227 0 -388 161q-32 32 -57 66v-199h-90v1600zM240 615v-188q26 -128 124 -226q133 -133 321 -133t321 132.5t133 320.5t-133 321t-321 133t-321 -133 q-98 -98 -124 -227z" />
<glyph unicode="c" horiz-adv-x="1177" d="M992 236l95 -34q-26 -36 -59 -69q-161 -161 -389 -161q-227 0 -388 161t-161 389q0 227 161 388t388 161q228 0 389 -161q33 -33 59 -68l-95 -35q-15 18 -32 36q-133 132 -321 132q-187 0 -320 -132.5t-133 -320.5t133 -321t320 -133q188 0 321 133q17 17 32 35z" />
<glyph unicode="d" horiz-adv-x="1360" d="M1210 0h-90v200q-26 -35 -57 -67q-161 -161 -389 -161q-227 0 -388 161t-161 388q0 228 161 389t388 161q228 0 389 -161q31 -32 57 -67v757h90v-1600zM1120 432v178q-25 132 -125 232q-133 133 -321 133t-321 -133t-133 -321t133 -320.5t321 -132.5t321 133 q100 100 125 231z" />
<glyph unicode="e" horiz-adv-x="1177" d="M337 184q127 -116 302 -116q188 0 321 133q17 17 32 35l95 -34q-26 -36 -59 -69q-161 -161 -389 -161q-227 0 -388 161t-161 389q0 227 161 388t388 161q195 0 341 -117q24 -20 48 -44q9 -9 17 -18l-68 -68zM911 885q-117 90 -272 90q-187 0 -320 -132.5t-133 -320.5 q0 -155 90 -272z" />
<glyph unicode="f" horiz-adv-x="523" d="M280 892v-892h-90v892h-100v90h100v266q6 111 85 191q82 76 189 76q56 0 118 -21l-28 -80q-42 18 -81 18q-71 0 -134 -57q-56 -55 -59 -133v-260h200v-90h-200z" />
<glyph unicode="g" horiz-adv-x="1364" d="M1119 615q-26 129 -124 227q-133 133 -321 133t-321 -133t-133 -321t133 -321t321 -133t321 133q97 97 124 225v190zM1117 195q-25 -32 -54 -62q-161 -161 -389 -161q-227 0 -388 161t-161 388q0 228 161 388.5t388 160.5q228 0 389 -160q31 -32 57 -67v139h90v-763 q0 -221 -157 -378q-161 -161 -388 -161q-228 0 -389 161q-33 33 -59 69l95 34q15 -18 32 -35q133 -133 321 -133q187 0 320 133q121 121 132 286z" />
<glyph unicode="h" horiz-adv-x="1059" d="M150 1600h90v-669q114 110 274 110q174 0 283 -109t112 -275v-657h-90v649q0 125 -90.5 213.5t-214.5 88.5t-214 -87q-40 -40 -60 -83v-781h-90v1600z" />
<glyph unicode="i" horiz-adv-x="430" d="M260 982v-982h-90v982h90zM278.5 1304q26.5 -26 26.5 -63q0 -38 -26.5 -64t-63.5 -26t-63.5 26t-26.5 64q0 37 26.5 63t63.5 26t63.5 -26z" />
<glyph unicode="j" horiz-adv-x="455" d="M49 -138q121 14 121 136v984h90v-982q0 -211 -211 -228v90zM278.5 1304q26.5 -26 26.5 -63q0 -38 -26.5 -64t-63.5 -26t-63.5 26t-26.5 64q0 37 26.5 63t63.5 26t63.5 -26z" />
<glyph unicode="k" horiz-adv-x="823" d="M629 982l-242 -300l386 -682h-112l-333 610l-88 -109v-501h-90v1400h90v-755l273 337h116z" />
<glyph unicode="l" horiz-adv-x="390" d="M240 1600v-1600h-90v1600h90z" />
<glyph unicode="m" horiz-adv-x="1375" d="M150 982h90v-23q84 81 201 81q121 0 206 -85q23 -23 40 -50q17 26 41 50q85 85 206 85t206 -85q81 -82 85 -197v-758h-90v758h1q-4 78 -59 133q-60 59 -143 59t-142.5 -59t-59.5 -147v-744h-90v758h1q-4 78 -59 133q-60 59 -143 59t-142 -59q-52 -51 -59 -125v-766h-90 v982z" />
<glyph unicode="n" horiz-adv-x="1071" d="M240 763v-763h-90v982h90v-63q123 122 286 122q174 0 283 -109t112 -275v-657h-90v649q0 125 -90.5 213.5t-214.5 88.5t-214 -87q-49 -49 -72 -101z" />
<glyph unicode="o" horiz-adv-x="1278" d="M639 1071q228 0 388.5 -161t160.5 -389q0 -227 -160.5 -388t-388.5 -161q-227 0 -388 161t-161 388q0 228 161 389t388 161zM318 842q-133 -133 -133 -321t133 -320.5t321 -132.5t321 132.5t133 320.5t-133 321t-321 133t-321 -133z" />
<glyph unicode="p" horiz-adv-x="1334" d="M150 982h90v-138q25 34 57 66q161 160 388 160q228 0 388.5 -160.5t160.5 -388.5q0 -227 -160.5 -388t-388.5 -161q-227 0 -388 161q-32 32 -57 66v-574h-90v1357zM240 615v-188q26 -129 124 -227q133 -133 321 -133t321 133t133 321t-133 321t-321 133t-321 -133 q-98 -98 -124 -227z" />
<glyph unicode="q" horiz-adv-x="1335" d="M1185 -375h-90v575q-26 -35 -57 -67q-161 -161 -389 -161q-227 0 -388 161t-161 388q0 228 161 388.5t388 160.5q228 0 389 -160q31 -32 57 -67v139h90v-1357zM1095 432v178q-25 132 -125 232q-133 133 -321 133t-321 -133t-133 -321t133 -321t321 -133t321 133 q100 100 125 232z" />
<glyph unicode="r" horiz-adv-x="599" d="M150 982h90v-179q28 40 65 77q119 119 244 125v-98q-85 -4 -176 -95q-128 -127 -133 -305v-507h-90v982z" />
<glyph unicode="s" horiz-adv-x="802" d="M420 505q-115 62 -159 106q-69 69 -69 166q0 98 69 167.5t166 69.5q98 0 162 -64q62 -63 62 -143v-5l-78 -31q-10 76 -47.5 114t-98.5 38q-60 0 -103 -42.5t-43 -103.5q0 -60 43 -103q25 -25 106 -76q128 -70 182 -124q85 -86 85 -205q0 -122 -85 -207.5t-206 -85.5 t-206 85.5t-85 187.5l89 23q0 -88 59.5 -147t142.5 -59t142.5 59t59.5 144q0 83 -59 142q-32 32 -129 94z" />
<glyph unicode="t" horiz-adv-x="670" d="M290 982v418h90v-418h200v-90h-200v-892h-90v892h-200v90h200z" />
<glyph unicode="u" horiz-adv-x="1099" d="M555 -14q-184 0 -293 109t-112 275v612h90v-604q0 -125 91 -213q90 -89 223 -89q124 0 214.5 88.5t90.5 213.5v604h90v-612q-3 -166 -112 -275t-282 -109z" />
<glyph unicode="v" horiz-adv-x="1064" d="M532 164l378 818h104l-482 -1009l-482 1009h104z" />
<glyph unicode="w" horiz-adv-x="1375" d="M642 260v722h90v-700q0 -88 59.5 -147t142.5 -59t143 59q55 55 59 133h-1v714h90v-714q-4 -115 -85 -196q-85 -86 -206 -86t-206 86q-23 23 -40 48q-17 -25 -41 -48q-85 -86 -206 -86t-206 86q-81 81 -85 196v714h90v-714h-1q4 -78 60 -133q59 -59 142 -59t143 59 q51 51 58 125z" />
<glyph unicode="x" horiz-adv-x="871" d="M741 982l-253 -438l-3 -5l3 -5l308 -534h-104l-256 443l-256 -443h-105l309 534l3 5l-3 5l-253 438h104l201 -347l200 347h105z" />
<glyph unicode="y" horiz-adv-x="1005" d="M503 88l-222 -463h-88l265 556l-383 801h102l326 -704l326 704h101l-427 -895v1z" />
<glyph unicode="z" horiz-adv-x="1000" d="M657 892h-507v90h662l-508 -892h546v-90h-700z" />
<glyph unicode="{" horiz-adv-x="866" d="M125 653q9 -3 20 -3q46 0 123 44q115 66 151 195q19 72 19 152q0 44 -6 90q-14 72 -14 135q0 67 16 126q30 112 133 170q65 38 136 38q19 0 38 -3v-75q-18 3 -36 3q-52 0 -101 -27q-75 -43 -97 -126q-15 -55 -15 -125q0 -30 3 -64q16 -76 16 -149q0 -85 -21 -165 q-44 -158 -185 -239q-17 -9 -35 -17q18 -9 35 -18q141 -81 185 -239q21 -80 21 -165q0 -73 -16 -149q-3 -34 -3 -64q0 -70 15 -125q22 -83 97 -125q51 -28 104 -28q16 0 33 2v-74q-19 -3 -38 -3q-71 0 -136 38q-103 58 -133 171q-16 59 -16 126q0 63 14 134q6 46 6 90 q0 80 -19 152q-36 129 -151 195q-77 44 -123 44q-11 0 -20 -3v81z" />
<glyph unicode="|" horiz-adv-x="390" d="M240 1600v-1975h-90v1975h90z" />
<glyph unicode="}" horiz-adv-x="866" d="M741 572q-9 3 -20 3q-46 0 -123 -44q-115 -66 -151 -195q-19 -72 -19 -152q0 -44 6 -90q14 -71 14 -134q0 -67 -16 -126q-30 -113 -133 -171q-65 -38 -136 -38q-19 0 -38 3v74q17 -2 33 -2q53 0 104 28q75 42 97 125q15 55 15 125q0 30 -3 64q-16 76 -16 149q0 85 21 165 q44 158 185 239q17 9 35 18q-18 8 -35 17q-141 81 -185 239q-21 80 -21 165q0 73 16 149q3 34 3 64q0 70 -15 125q-22 83 -97 126q-49 27 -101 27q-18 0 -36 -3v75q19 3 38 3q71 0 136 -38q103 -58 133 -170q16 -59 16 -126q0 -63 -14 -135q-6 -46 -6 -90q0 -80 19 -152 q36 -129 151 -195q77 -44 123 -44q11 0 20 3v-81z" />
<glyph unicode="~" horiz-adv-x="1277" d="M638 861q188 -109 273 -109q15 0 27 3q77 23 108 100q15 38 15 77l91 -14q-4 -48 -23 -97q-46 -111 -156 -148q-25 -8 -56 -8q-105 0 -278 99q-190 109 -274 109q-14 0 -26 -3q-77 -23 -108 -100q-15 -39 -16 -77l-90 14q2 48 22 97q46 111 157 148q25 8 55 8 q106 0 279 -99z" />
<glyph unicode="&#xa2;" horiz-adv-x="1013" d="M551 705q143 2 246 105q13 13 28 31l87 -32q-26 -35 -52 -62q-129 -129 -309 -131v-154h-90v161q-131 23 -231 124q-131 130 -131 315q0 184 131 315q100 100 231 124v161h90v-154q180 -2 309 -131q26 -27 52 -61l-87 -33q-15 18 -28 32q-103 102 -246 104v-714z M461 1410q-95 -22 -168 -95q-105 -105 -105 -253t105 -252q73 -74 168 -96v696z" />
<glyph unicode="&#xa3;" horiz-adv-x="1130" d="M448 555q3 -21 5 -43t2 -44q0 -204 -170 -405q125 45 246 45q72 0 143 -16q99 -23 188 -23q80 0 151 18l17 -89q-81 -20 -168 -20q-89 0 -183 22q-98 21 -173 21q-68 0 -117 -17q-104 -38 -202 -87l-87 103q124 110 156 149q108 128 108 292q0 22 -2 44q-2 25 -6 50h-228 v90h209q-26 95 -75 189q-111 180 -125 343q-2 19 -2 38q0 139 92 249q103 123 266 138q19 1 38 1q139 0 250 -92q124 -105 139 -267q3 -23 3 -44q0 -63 -22 -114l-86 29q15 43 15 95q0 14 -1 28q-12 123 -107 203q-84 70 -190 70q-14 0 -28 -1q-124 -11 -204 -106 q-70 -84 -70 -189q0 -15 1 -30q10 -113 78 -256q86 -138 122 -284h197v-90h-180z" />
<glyph unicode="&#xa5;" horiz-adv-x="1291" d="M650 755l488 845h103l-489 -845h294v-90h-346l-10 -18v-102h356v-90h-356v-455h-90v455h-354v90h354v102l-10 18h-344v90h292l-488 845h103l487 -845h10z" />
<glyph unicode="&#xa8;" horiz-adv-x="730" d="M278.5 1304q26.5 -26 26.5 -63q0 -38 -26.5 -64t-63.5 -26t-63.5 26t-26.5 64q0 37 26.5 63t63.5 26t63.5 -26zM578.5 1304q26.5 -26 26.5 -63q0 -38 -26.5 -64t-63.5 -26t-63.5 26t-26.5 64q0 37 26.5 63t63.5 26t63.5 -26z" />
<glyph unicode="&#xa9;" horiz-adv-x="1405" d="M917 442l68 -25q-20 -28 -40 -48q-97 -97 -234 -97t-234 97t-97 234t97 234t234 97t234 -97q20 -20 40 -48l-68 -25q-11 14 -21 25q-77 76 -185 76t-185 -76.5t-77 -185.5q0 -108 77 -185t185 -77t185 77q10 10 21 24zM1124 1028q176 -176 176 -425t-176 -425t-424 -176 q-249 0 -425 176t-176 425t176 425t425 176q248 0 424 -176zM700 1133q-220 0 -375 -155t-155 -375q0 -219 155 -374.5t375 -155.5q219 0 374 155.5t155 374.5q0 220 -155 375t-374 155z" />
<glyph unicode="&#xab;" horiz-adv-x="980" d="M444 462l436 460v-104l-331 -356l331 -356v-105zM100 462l429 460v-104l-331 -356l331 -356v-105z" />
<glyph unicode="&#xad;" horiz-adv-x="840" d="M125 637h590v-90h-590v90z" />
<glyph unicode="&#xae;" horiz-adv-x="1161" d="M467 1371v-378h116q78 0 133.5 55.5t55.5 133.5t-55.5 133.5t-133.5 55.5h-116zM730 721l-138 215h-125v-155h-55v644h198q86 -12 146 -72q71 -71 71 -172q0 -102 -71 -174q-50 -49 -104 -62l130 -200q53 30 98 74q124 125 124 300q0 176 -124 300t-299 124 q-176 0 -300 -124t-124 -300q0 -175 124 -300q59 -58 129 -89q28 -13 58 -21q53 -14 113 -14q78 0 149 26zM581 638q-200 0 -340.5 141t-140.5 340t140.5 340t340.5 141q198 0 339 -141t141 -340t-141 -340q-49 -49 -137.5 -95t-201.5 -46z" />
<glyph unicode="&#xb4;" horiz-adv-x="629" d="M479 1387l-245 -187h-84l163 187h166z" />
<glyph unicode="&#xb8;" horiz-adv-x="257" d="M156 0l-3 -29l-1 -6h1l-3 -40q14 -7 28 -15q60 -39 68 -94q1 -7 1 -14q0 -45 -43 -78q-51 -39 -130 -39q-34 0 -64 7l11 55q21 -7 46 -7q45 0 74 23q25 19 25 46v7q-5 32 -40 55q-35 21 -77 22l43 107h64z" />
<glyph unicode="&#xbb;" horiz-adv-x="980" d="M100 1v105l331 356l-331 356v104l436 -460zM451 1v105l331 356l-331 356v104l429 -460z" />
<glyph unicode="&#xd3;" horiz-adv-x="1892" d="M125 0zM1526.5 1382.5q240.5 -240.5 240.5 -580.5t-240.5 -580.5t-580.5 -240.5t-580.5 240.5t-240.5 580.5t240.5 580.5t580.5 240.5t580.5 -240.5zM946 1531q-302 0 -515.5 -213.5t-213.5 -515.5t213.5 -516t515.5 -214t515.5 214t213.5 516t-213.5 515.5t-515.5 213.5 zM1165 2005l-245 -187h-84l163 187h166z" />
<glyph unicode="&#xf3;" horiz-adv-x="1278" d="M90 0zM639 1071q228 0 388.5 -161t160.5 -389q0 -227 -160.5 -388t-388.5 -161q-227 0 -388 161t-161 388q0 228 161 389t388 161zM318 842q-133 -133 -133 -321t133 -320.5t321 -132.5t321 132.5t133 320.5t-133 321t-321 133t-321 -133zM858 1387l-245 -187h-84 l163 187h166z" />
<glyph unicode="&#x104;" horiz-adv-x="1291" d="M890 703l-244 671l-244 -671h488zM1131 41l-208 572h-554l-223 -613h-96l596 1637l595 -1637h-95q-75 -38 -85 -102q-2 -18 -2 -34q0 -48 22 -74q30 -36 80 -36q30 0 58 14l22 -50q-56 -23 -111 -23q-73 0 -117 49q-35 39 -35 96q0 14 2 29q14 99 151 172z" />
<glyph unicode="&#x105;" horiz-adv-x="1360" d="M1120 432v178q-25 132 -125 232q-133 133 -321 133t-321 -133t-133 -321t133 -320.5t321 -132.5t321 133q100 100 125 231zM1120 46v154q-26 -35 -57 -67q-161 -161 -389 -161q-227 0 -388 161t-161 388q0 228 161 389t388 161q228 0 389 -161q31 -32 57 -67v139h90v-982 h-90q-71 -39 -80 -102q-2 -18 -2 -34q0 -48 22 -74q30 -36 80 -36q30 0 58 14l22 -50q-56 -23 -111 -23q-73 0 -117 49q-35 39 -35 96q0 14 2 29q15 103 161 177z" />
<glyph unicode="&#x106;" horiz-adv-x="1595" d="M1427 255l68 -61q-234 -213 -551 -213q-340 0 -579.5 239.5t-239.5 579.5q0 339 239.5 579t579.5 240q317 0 551 -213l-68 -62q-206 183 -483 183q-301 0 -514 -213t-213 -514q0 -302 213 -515t514 -213q277 0 483 183zM1129 2005l-245 -187h-84l163 187h166z" />
<glyph unicode="&#x107;" horiz-adv-x="1177" d="M992 236l95 -34q-26 -36 -59 -69q-161 -161 -389 -161q-227 0 -388 161t-161 389q0 227 161 388t388 161q228 0 389 -161q33 -33 59 -68l-95 -35q-15 18 -32 36q-133 132 -321 132q-187 0 -320 -132.5t-133 -320.5t133 -321t320 -133q188 0 321 133q17 17 32 35z M858 1387l-245 -187h-84l163 187h166z" />
<glyph unicode="&#x118;" horiz-adv-x="1075" d="M776 0h-626v1600h800v-90h-710v-665h710v-90h-710v-665h710v-90h-107q-64 -42 -73 -102q-2 -18 -2 -34q0 -48 22 -74q30 -36 80 -36q30 0 58 14l22 -50q-56 -23 -111 -23q-73 0 -117 49q-35 39 -35 96q0 14 2 29q10 73 87 131z" />
<glyph unicode="&#x119;" horiz-adv-x="1177" d="M911 885q-117 90 -272 90q-187 0 -320 -132.5t-133 -320.5q0 -155 90 -272zM894 28q-133 -56 -255 -56q-227 0 -388 161t-161 389q0 227 161 388t388 161q195 0 341 -117q24 -20 48 -44q9 -9 17 -18l-68 -68l-640 -640q127 -116 302 -116q188 0 321 133q17 17 32 35 l95 -34q-26 -36 -59 -69q-36 -36 -74 -63q-67 -108 -77 -173q-2 -18 -2 -34q0 -48 22 -74q30 -36 80 -36q30 0 58 14l22 -50q-56 -23 -111 -23q-73 0 -117 49q-35 39 -35 96q0 14 2 29q9 65 98 160z" />
<glyph unicode="&#x141;" horiz-adv-x="986" d="M319 787l455 370v-106l-455 -370v-591h610v-90h-700v606l-229 -185v106l229 186v887h90v-813z" />
<glyph unicode="&#x142;" horiz-adv-x="425" d="M167 805v795h91v-721l167 137v-106l-167 -137v-773h-91v699l-167 -137v107z" />
<glyph unicode="&#x143;" horiz-adv-x="1311" d="M150 0zM150 1600h99l822 -1423v1423h90v-1600h-90l-831 1437v-1437h-90v1600zM875 2005l-245 -187h-84l163 187h166z" />
<glyph unicode="&#x144;" horiz-adv-x="1071" d="M150 0zM240 763v-763h-90v982h90v-63q123 122 286 122q174 0 283 -109t112 -275v-657h-90v649q0 125 -90.5 213.5t-214.5 88.5t-214 -87q-49 -49 -72 -101zM755 1387l-245 -187h-84l163 187h166z" />
<glyph unicode="&#x15a;" horiz-adv-x="1042" d="M50 0zM548 886q-171 57 -270 156t-99 240q0 138 99 237.5t240 99.5q140 0 240 -99q55 -53 76 -119l-81 -32q-18 49 -59 90q-73 72 -176 72t-176 -72.5t-73 -176.5q0 -103 73 -176q68 -67 188 -123q192 -62 323 -193q139 -138 139 -334q0 -197 -139 -336t-335 -139 t-335 140q-111 111 -133 258l85 31q14 -130 111 -227q113 -113 272 -113q160 0 273 113t113 273q0 159 -113 272q-99 99 -243 158zM740 2005l-245 -187h-84l163 187h166z" />
<glyph unicode="&#x15b;" horiz-adv-x="802" d="M115 0zM420 505q-115 62 -159 106q-69 69 -69 166q0 98 69 167.5t166 69.5q98 0 162 -64q62 -63 62 -143v-5l-78 -31q-10 76 -47.5 114t-98.5 38q-60 0 -103 -42.5t-43 -103.5q0 -60 43 -103q25 -25 106 -76q128 -70 182 -124q85 -86 85 -205q0 -122 -85 -207.5 t-206 -85.5t-206 85.5t-85 187.5l89 23q0 -88 59.5 -147t142.5 -59t142.5 59t59.5 144q0 83 -59 142q-32 32 -129 94zM625 1387l-245 -187h-84l163 187h166z" />
<glyph unicode="&#x179;" horiz-adv-x="1327" d="M150 0zM1022 1510h-872v90h1027l-873 -1510h873v-90h-1027zM883 2005l-245 -187h-84l163 187h166z" />
<glyph unicode="&#x17a;" horiz-adv-x="1000" d="M150 0zM657 892h-507v90h662l-508 -892h546v-90h-700zM719 1387l-245 -187h-84l163 187h166z" />
<glyph unicode="&#x17b;" horiz-adv-x="1327" d="M150 0zM1022 1510h-872v90h1027l-873 -1510h873v-90h-1027zM717.5 1899q22.5 -22 22.5 -54t-22.5 -54t-53.5 -22q-32 0 -54.5 22t-22.5 54t22.5 54t54.5 22q31 0 53.5 -22z" />
<glyph unicode="&#x17c;" horiz-adv-x="1000" d="M150 0zM657 892h-507v90h662l-508 -892h546v-90h-700zM554.5 1281q22.5 -22 22.5 -54t-22.5 -54t-53.5 -22q-32 0 -54.5 22t-22.5 54t22.5 54t54.5 22q31 0 53.5 -22z" />
<glyph unicode="&#x2c6;" horiz-adv-x="811" d="M454 1324l238 -234h-104l-186 143l-176 -143h-105l229 234h104z" />
<glyph unicode="&#x2d9;" horiz-adv-x="403" d="M255.5 1281q22.5 -22 22.5 -54t-22.5 -54t-53.5 -22q-32 0 -54.5 22t-22.5 54t22.5 54t54.5 22q31 0 53.5 -22z" />
<glyph unicode="&#x2da;" horiz-adv-x="762" d="M469 1326q36 -36 36 -87q0 -50 -36 -86t-87 -36t-87 36t-36 86q0 51 36 87t87 36t87 -36zM382 1297q-24 0 -41 -17t-17 -41q0 -23 17 -40t41 -17q23 0 40 17t17 40q0 24 -17 41t-40 17z" />
<glyph unicode="&#x2dc;" horiz-adv-x="825" d="M407 1255q75 -60 124 -60h5q50 3 70 84h69q-21 -129 -99 -152q-21 -6 -42 -6q-57 0 -115 46q-75 59 -124 59h-5q-50 -3 -70 -84h-70q22 129 100 152q21 6 42 6q57 0 115 -45z" />
<glyph unicode="&#x2000;" horiz-adv-x="1002" />
<glyph unicode="&#x2001;" horiz-adv-x="2005" />
<glyph unicode="&#x2002;" horiz-adv-x="1002" />
<glyph unicode="&#x2003;" horiz-adv-x="2005" />
<glyph unicode="&#x2004;" horiz-adv-x="668" />
<glyph unicode="&#x2005;" horiz-adv-x="501" />
<glyph unicode="&#x2006;" horiz-adv-x="334" />
<glyph unicode="&#x2007;" horiz-adv-x="334" />
<glyph unicode="&#x2008;" horiz-adv-x="250" />
<glyph unicode="&#x2009;" horiz-adv-x="401" />
<glyph unicode="&#x200a;" horiz-adv-x="111" />
<glyph unicode="&#x2010;" horiz-adv-x="840" d="M125 637h590v-90h-590v90z" />
<glyph unicode="&#x2011;" horiz-adv-x="840" d="M125 637h590v-90h-590v90z" />
<glyph unicode="&#x2012;" horiz-adv-x="840" d="M125 637h590v-90h-590v90z" />
<glyph unicode="&#x2013;" horiz-adv-x="871" d="M50 637h771v-90h-771v90z" />
<glyph unicode="&#x2014;" horiz-adv-x="1507" d="M50 637h1407v-90h-1407v90z" />
<glyph unicode="&#x2018;" horiz-adv-x="280" d="M163 1461q23 -5 41 -23q26 -26 26 -64q0 -37 -26.5 -63t-63.5 -26t-63.5 26t-26.5 63q0 21 7 39l98 198h65z" />
<glyph unicode="&#x2019;" horiz-adv-x="280" d="M117 1435q-23 5 -40 23q-27 26 -27 64q0 37 26.5 63t63.5 26t63.5 -26t26.5 -63q0 -21 -7 -39l-98 -198h-65z" />
<glyph unicode="&#x201a;" horiz-adv-x="280" d="M117 -13q-23 5 -40 23q-27 26 -27 64q0 37 26.5 63t63.5 26t63.5 -26t26.5 -63q0 -21 -7 -39l-98 -198h-65z" />
<glyph unicode="&#x201c;" horiz-adv-x="532" d="M163 1461q23 -5 41 -23q26 -26 26 -64q0 -37 -26.5 -63t-63.5 -26t-63.5 26t-26.5 63q0 21 7 39l98 198h65zM415 1461q23 -5 41 -23q26 -26 26 -64q0 -37 -26.5 -63t-63.5 -26t-63.5 26t-26.5 63q0 21 7 39l98 198h65z" />
<glyph unicode="&#x201d;" horiz-adv-x="532" d="M117 1435q-23 5 -40 23q-27 26 -27 64q0 37 26.5 63t63.5 26t63.5 -26t26.5 -63q0 -21 -7 -39l-98 -198h-65zM369 1435q-23 5 -40 23q-27 26 -27 64q0 37 26.5 63t63.5 26t63.5 -26t26.5 -63q0 -21 -7 -39l-98 -198h-65z" />
<glyph unicode="&#x201e;" horiz-adv-x="532" d="M117 -13q-23 5 -40 23q-27 26 -27 64q0 37 26.5 63t63.5 26t63.5 -26t26.5 -63q0 -21 -7 -39l-98 -198h-65zM369 -13q-23 5 -40 23q-27 26 -27 64q0 37 26.5 63t63.5 26t63.5 -26t26.5 -63q0 -21 -7 -39l-98 -198h-65z" />
<glyph unicode="&#x2026;" horiz-adv-x="2148" d="M253.5 139q26.5 -26 26.5 -63q0 -38 -26.5 -64t-63.5 -26t-63.5 26t-26.5 64q0 37 26.5 63t63.5 26t63.5 -26zM936.5 139q26.5 -26 26.5 -63q0 -38 -26.5 -64t-63.5 -26t-63.5 26t-26.5 64q0 37 26.5 63t63.5 26t63.5 -26zM1619.5 139q26.5 -26 26.5 -63q0 -38 -26.5 -64 t-63.5 -26t-63.5 26t-26.5 64q0 37 26.5 63t63.5 26t63.5 -26z" />
<glyph unicode="&#x202f;" horiz-adv-x="401" />
<glyph unicode="&#x2039;" horiz-adv-x="629" d="M100 462l429 460v-104l-331 -356l331 -356v-105z" />
<glyph unicode="&#x203a;" horiz-adv-x="629" d="M100 1v105l331 356l-331 356v104l429 -460z" />
<glyph unicode="&#x205f;" horiz-adv-x="501" />
<glyph unicode="&#x20ac;" horiz-adv-x="1450" d="M268 885v166q0 227 161 388t388 161q228 0 388 -161l-67 -67q-133 132 -321 132t-321 -132.5t-133 -320.5v-166h657l-18 -90h-639v-120h615l-18 -90h-597v-64q0 -188 133 -320.5t321 -132.5t321 133q82 82 114 185h98q-34 -142 -145 -253q-160 -161 -388 -161 q-227 0 -388 161t-161 388v64h-168l18 90h150v120h-126l18 90h108z" />
<glyph unicode="&#x2122;" horiz-adv-x="1251" d="M497 1556h-158v-604h-57v604h-182v52h453l267 -409l266 409h65l-9 -13v-643h-56v556l-266 -410l-267 410v-556h-56v604z" />
<glyph unicode="&#xe000;" horiz-adv-x="980" d="M0 980h980v-980h-980v980z" />
<glyph horiz-adv-x="943" d="M0 0z" />
<hkern u1="&#x20;" u2="&#x201c;" k="100" />
<hkern u1="&#x20;" u2="&#x2018;" k="100" />
<hkern u1="&#x20;" u2="Y" k="60" />
<hkern u1="&#x20;" u2="W" k="25" />
<hkern u1="&#x20;" u2="V" k="80" />
<hkern u1="&#x20;" u2="T" k="25" />
<hkern u1="&#x20;" u2="A" k="20" />
<hkern u1="&#x2c;" u2="&#x201d;" k="100" />
<hkern u1="&#x2c;" u2="&#x2019;" k="100" />
<hkern u1="&#x2c;" u2="&#x20;" k="70" />
<hkern u1="&#x2d;" u2="x" k="73" />
<hkern u1="&#x2d;" u2="w" k="73" />
<hkern u1="&#x2d;" u2="v" k="73" />
<hkern u1="&#x2d;" u2="t" k="36" />
<hkern u1="&#x2d;" u2="j" k="-38" />
<hkern u1="&#x2d;" u2="Y" k="112" />
<hkern u1="&#x2d;" u2="X" k="73" />
<hkern u1="&#x2d;" u2="W" k="112" />
<hkern u1="&#x2d;" u2="V" k="112" />
<hkern u1="&#x2d;" u2="T" k="112" />
<hkern u1="&#x2d;" u2="S" k="73" />
<hkern u1="&#x2d;" u2="J" k="112" />
<hkern u1="&#x2d;" u2="A" k="36" />
<hkern u1="&#x2e;" u2="&#x201d;" k="100" />
<hkern u1="&#x2e;" u2="&#x2019;" k="100" />
<hkern u1="&#x2e;" u2="&#x20;" k="70" />
<hkern u1="A" u2="&#x2039;" k="73" />
<hkern u1="A" u2="&#x201e;" k="-151" />
<hkern u1="A" u2="&#x201d;" k="159" />
<hkern u1="A" u2="&#x201c;" k="301" />
<hkern u1="A" u2="&#x201a;" k="-151" />
<hkern u1="A" u2="&#x2019;" k="159" />
<hkern u1="A" u2="&#x2018;" k="301" />
<hkern u1="A" u2="&#xab;" k="73" />
<hkern u1="A" u2="y" k="36" />
<hkern u1="A" u2="w" k="55" />
<hkern u1="A" u2="v" k="63" />
<hkern u1="A" u2="u" k="20" />
<hkern u1="A" u2="Y" k="73" />
<hkern u1="A" u2="W" k="60" />
<hkern u1="A" u2="V" k="55" />
<hkern u1="A" u2="U" k="40" />
<hkern u1="A" u2="T" k="73" />
<hkern u1="A" u2="S" k="-57" />
<hkern u1="A" u2="Q" k="40" />
<hkern u1="A" u2="O" k="50" />
<hkern u1="A" u2="G" k="40" />
<hkern u1="A" u2="C" k="40" />
<hkern u1="A" u2="&#x3b;" k="36" />
<hkern u1="A" u2="&#x3a;" k="36" />
<hkern u1="A" u2="&#x2e;" k="36" />
<hkern u1="A" u2="&#x2d;" k="36" />
<hkern u1="A" u2="&#x2c;" k="36" />
<hkern u1="B" u2="&#x201e;" k="36" />
<hkern u1="B" u2="&#x201c;" k="73" />
<hkern u1="B" u2="&#x201a;" k="36" />
<hkern u1="B" u2="&#x2018;" k="73" />
<hkern u1="B" u2="A" k="10" />
<hkern u1="B" u2="&#x3b;" k="73" />
<hkern u1="B" u2="&#x3a;" k="73" />
<hkern u1="B" u2="&#x2e;" k="73" />
<hkern u1="B" u2="&#x2c;" k="73" />
<hkern u1="C" u2="&#x201e;" k="55" />
<hkern u1="C" u2="&#x201d;" k="-114" />
<hkern u1="C" u2="&#x201c;" k="36" />
<hkern u1="C" u2="&#x201a;" k="55" />
<hkern u1="C" u2="&#x2019;" k="-114" />
<hkern u1="C" u2="&#x2018;" k="36" />
<hkern u1="C" u2="A" k="40" />
<hkern u1="C" u2="&#x3b;" k="36" />
<hkern u1="C" u2="&#x3a;" k="36" />
<hkern u1="C" u2="&#x2e;" k="36" />
<hkern u1="C" u2="&#x2c;" k="36" />
<hkern u1="D" u2="&#x201e;" k="112" />
<hkern u1="D" u2="&#x201d;" k="-57" />
<hkern u1="D" u2="&#x201c;" k="36" />
<hkern u1="D" u2="&#x201a;" k="112" />
<hkern u1="D" u2="&#x2019;" k="-57" />
<hkern u1="D" u2="&#x2018;" k="36" />
<hkern u1="D" u2="Y" k="45" />
<hkern u1="D" u2="W" k="30" />
<hkern u1="D" u2="V" k="50" />
<hkern u1="D" u2="A" k="50" />
<hkern u1="D" u2="&#x3b;" k="36" />
<hkern u1="D" u2="&#x3a;" k="36" />
<hkern u1="D" u2="&#x2e;" k="112" />
<hkern u1="D" u2="&#x2d;" k="-38" />
<hkern u1="D" u2="&#x2c;" k="112" />
<hkern u1="E" u2="&#x203a;" k="36" />
<hkern u1="E" u2="&#x2039;" k="36" />
<hkern u1="E" u2="&#xbb;" k="36" />
<hkern u1="E" u2="&#xab;" k="36" />
<hkern u1="E" u2="&#x3b;" k="73" />
<hkern u1="E" u2="&#x3a;" k="73" />
<hkern u1="E" u2="&#x2e;" k="36" />
<hkern u1="E" u2="&#x2d;" k="36" />
<hkern u1="E" u2="&#x2c;" k="36" />
<hkern u1="F" u2="&#x203a;" k="73" />
<hkern u1="F" u2="&#x2039;" k="73" />
<hkern u1="F" u2="&#x201e;" k="243" />
<hkern u1="F" u2="&#x201a;" k="243" />
<hkern u1="F" u2="&#xbb;" k="73" />
<hkern u1="F" u2="&#xab;" k="73" />
<hkern u1="F" u2="y" k="45" />
<hkern u1="F" u2="u" k="36" />
<hkern u1="F" u2="r" k="36" />
<hkern u1="F" u2="o" k="45" />
<hkern u1="F" u2="i" k="36" />
<hkern u1="F" u2="e" k="45" />
<hkern u1="F" u2="a" k="45" />
<hkern u1="F" u2="S" k="73" />
<hkern u1="F" u2="A" k="92" />
<hkern u1="F" u2="&#x3b;" k="112" />
<hkern u1="F" u2="&#x3a;" k="112" />
<hkern u1="F" u2="&#x2e;" k="264" />
<hkern u1="F" u2="&#x2d;" k="55" />
<hkern u1="F" u2="&#x2c;" k="264" />
<hkern u1="G" u2="&#x201e;" k="112" />
<hkern u1="G" u2="&#x201d;" k="-47" />
<hkern u1="G" u2="&#x201c;" k="36" />
<hkern u1="G" u2="&#x201a;" k="112" />
<hkern u1="G" u2="&#x2019;" k="-47" />
<hkern u1="G" u2="&#x2018;" k="36" />
<hkern u1="G" u2="Y" k="15" />
<hkern u1="G" u2="&#x3b;" k="36" />
<hkern u1="G" u2="&#x3a;" k="36" />
<hkern u1="G" u2="&#x2e;" k="73" />
<hkern u1="G" u2="&#x2c;" k="73" />
<hkern u1="H" u2="&#x201d;" k="-38" />
<hkern u1="H" u2="&#x2019;" k="-38" />
<hkern u1="H" u2="&#x3b;" k="36" />
<hkern u1="H" u2="&#x3a;" k="36" />
<hkern u1="H" u2="&#x2e;" k="36" />
<hkern u1="H" u2="&#x2c;" k="36" />
<hkern u1="I" u2="&#x201d;" k="-38" />
<hkern u1="I" u2="&#x2019;" k="-38" />
<hkern u1="I" u2="&#x3b;" k="36" />
<hkern u1="I" u2="&#x3a;" k="36" />
<hkern u1="I" u2="&#x2e;" k="36" />
<hkern u1="I" u2="&#x2c;" k="36" />
<hkern u1="J" u2="&#x201e;" k="55" />
<hkern u1="J" u2="&#x201d;" k="-38" />
<hkern u1="J" u2="&#x201a;" k="55" />
<hkern u1="J" u2="&#x2019;" k="-38" />
<hkern u1="J" u2="a" k="20" />
<hkern u1="J" u2="A" k="30" />
<hkern u1="J" u2="&#x3b;" k="36" />
<hkern u1="J" u2="&#x3a;" k="36" />
<hkern u1="J" u2="&#x2e;" k="73" />
<hkern u1="J" u2="&#x2c;" k="73" />
<hkern u1="K" u2="&#x203a;" k="112" />
<hkern u1="K" u2="&#x2039;" k="188" />
<hkern u1="K" u2="&#x201e;" k="-75" />
<hkern u1="K" u2="&#x201d;" k="-38" />
<hkern u1="K" u2="&#x201c;" k="-38" />
<hkern u1="K" u2="&#x201a;" k="-75" />
<hkern u1="K" u2="&#x2019;" k="-38" />
<hkern u1="K" u2="&#x2018;" k="-38" />
<hkern u1="K" u2="&#xbb;" k="112" />
<hkern u1="K" u2="&#xab;" k="188" />
<hkern u1="K" u2="y" k="73" />
<hkern u1="K" u2="u" k="55" />
<hkern u1="K" u2="o" k="73" />
<hkern u1="K" u2="e" k="73" />
<hkern u1="K" u2="a" k="73" />
<hkern u1="K" u2="Y" k="36" />
<hkern u1="K" u2="W" k="36" />
<hkern u1="K" u2="O" k="92" />
<hkern u1="K" u2="C" k="92" />
<hkern u1="K" u2="&#x3b;" k="36" />
<hkern u1="K" u2="&#x3a;" k="36" />
<hkern u1="K" u2="&#x2e;" k="36" />
<hkern u1="K" u2="&#x2d;" k="112" />
<hkern u1="K" u2="&#x2c;" k="36" />
<hkern u1="L" u2="&#x203a;" k="112" />
<hkern u1="L" u2="&#x2039;" k="188" />
<hkern u1="L" u2="&#x201e;" k="-38" />
<hkern u1="L" u2="&#x201d;" k="225" />
<hkern u1="L" u2="&#x201c;" k="225" />
<hkern u1="L" u2="&#x201a;" k="-38" />
<hkern u1="L" u2="&#x2019;" k="225" />
<hkern u1="L" u2="&#x2018;" k="225" />
<hkern u1="L" u2="&#xbb;" k="112" />
<hkern u1="L" u2="&#xab;" k="188" />
<hkern u1="L" u2="y" k="112" />
<hkern u1="L" u2="u" k="63" />
<hkern u1="L" u2="o" k="63" />
<hkern u1="L" u2="e" k="63" />
<hkern u1="L" u2="a" k="63" />
<hkern u1="L" u2="Y" k="112" />
<hkern u1="L" u2="W" k="120" />
<hkern u1="L" u2="V" k="188" />
<hkern u1="L" u2="U" k="36" />
<hkern u1="L" u2="T" k="83" />
<hkern u1="L" u2="O" k="73" />
<hkern u1="L" u2="&#x3b;" k="36" />
<hkern u1="L" u2="&#x3a;" k="36" />
<hkern u1="L" u2="&#x2e;" k="73" />
<hkern u1="L" u2="&#x2d;" k="149" />
<hkern u1="L" u2="&#x2c;" k="73" />
<hkern u1="M" u2="&#x201d;" k="-38" />
<hkern u1="M" u2="&#x2019;" k="-38" />
<hkern u1="M" u2="&#x3b;" k="36" />
<hkern u1="M" u2="&#x3a;" k="36" />
<hkern u1="M" u2="&#x2e;" k="36" />
<hkern u1="M" u2="&#x2c;" k="36" />
<hkern u1="N" u2="&#x201d;" k="-38" />
<hkern u1="N" u2="&#x2019;" k="-38" />
<hkern u1="N" u2="&#x3b;" k="36" />
<hkern u1="N" u2="&#x3a;" k="36" />
<hkern u1="N" u2="&#x2e;" k="36" />
<hkern u1="N" u2="&#x2c;" k="36" />
<hkern u1="O" u2="&#x201e;" k="112" />
<hkern u1="O" u2="&#x201d;" k="-57" />
<hkern u1="O" u2="&#x201c;" k="36" />
<hkern u1="O" u2="&#x201a;" k="112" />
<hkern u1="O" u2="&#x2019;" k="-57" />
<hkern u1="O" u2="&#x2018;" k="36" />
<hkern u1="O" u2="Y" k="40" />
<hkern u1="O" u2="X" k="55" />
<hkern u1="O" u2="W" k="20" />
<hkern u1="O" u2="V" k="45" />
<hkern u1="O" u2="T" k="73" />
<hkern u1="O" u2="A" k="60" />
<hkern u1="O" u2="&#x3b;" k="36" />
<hkern u1="O" u2="&#x3a;" k="36" />
<hkern u1="O" u2="&#x2e;" k="112" />
<hkern u1="O" u2="&#x2c;" k="112" />
<hkern u1="P" u2="&#x203a;" k="112" />
<hkern u1="P" u2="&#x2039;" k="149" />
<hkern u1="P" u2="&#x201e;" k="301" />
<hkern u1="P" u2="&#x201d;" k="-57" />
<hkern u1="P" u2="&#x201a;" k="301" />
<hkern u1="P" u2="&#x2019;" k="-57" />
<hkern u1="P" u2="&#xbb;" k="112" />
<hkern u1="P" u2="&#xab;" k="149" />
<hkern u1="P" u2="u" k="36" />
<hkern u1="P" u2="s" k="55" />
<hkern u1="P" u2="r" k="36" />
<hkern u1="P" u2="o" k="92" />
<hkern u1="P" u2="n" k="36" />
<hkern u1="P" u2="i" k="36" />
<hkern u1="P" u2="e" k="92" />
<hkern u1="P" u2="a" k="92" />
<hkern u1="P" u2="A" k="131" />
<hkern u1="P" u2="&#x3b;" k="73" />
<hkern u1="P" u2="&#x3a;" k="73" />
<hkern u1="P" u2="&#x2e;" k="452" />
<hkern u1="P" u2="&#x2d;" k="149" />
<hkern u1="P" u2="&#x2c;" k="452" />
<hkern u1="Q" u2="&#x201e;" k="-38" />
<hkern u1="Q" u2="&#x201d;" k="-57" />
<hkern u1="Q" u2="&#x201c;" k="36" />
<hkern u1="Q" u2="&#x201a;" k="-38" />
<hkern u1="Q" u2="&#x2019;" k="-57" />
<hkern u1="Q" u2="&#x2018;" k="36" />
<hkern u1="Q" u2="&#x2e;" k="36" />
<hkern u1="Q" u2="&#x2c;" k="36" />
<hkern u1="R" u2="&#x203a;" k="73" />
<hkern u1="R" u2="&#x2039;" k="112" />
<hkern u1="R" u2="&#x201d;" k="-47" />
<hkern u1="R" u2="&#x201c;" k="73" />
<hkern u1="R" u2="&#x2019;" k="-47" />
<hkern u1="R" u2="&#x2018;" k="73" />
<hkern u1="R" u2="&#xbb;" k="73" />
<hkern u1="R" u2="&#xab;" k="112" />
<hkern u1="R" u2="o" k="36" />
<hkern u1="R" u2="e" k="36" />
<hkern u1="R" u2="a" k="36" />
<hkern u1="R" u2="Y" k="10" />
<hkern u1="R" u2="W" k="-10" />
<hkern u1="R" u2="V" k="10" />
<hkern u1="R" u2="T" k="-15" />
<hkern u1="R" u2="&#x3b;" k="36" />
<hkern u1="R" u2="&#x3a;" k="36" />
<hkern u1="R" u2="&#x2e;" k="112" />
<hkern u1="R" u2="&#x2d;" k="73" />
<hkern u1="R" u2="&#x2c;" k="112" />
<hkern u1="S" u2="&#x201e;" k="36" />
<hkern u1="S" u2="&#x201d;" k="-57" />
<hkern u1="S" u2="&#x201c;" k="36" />
<hkern u1="S" u2="&#x201a;" k="36" />
<hkern u1="S" u2="&#x2019;" k="-57" />
<hkern u1="S" u2="&#x2018;" k="36" />
<hkern u1="S" u2="&#x3b;" k="36" />
<hkern u1="S" u2="&#x3a;" k="36" />
<hkern u1="S" u2="&#x2e;" k="73" />
<hkern u1="S" u2="&#x2d;" k="-38" />
<hkern u1="S" u2="&#x2c;" k="73" />
<hkern u1="T" u2="&#x203a;" k="112" />
<hkern u1="T" u2="&#x2039;" k="149" />
<hkern u1="T" u2="&#x201e;" k="73" />
<hkern u1="T" u2="&#x201d;" k="-38" />
<hkern u1="T" u2="&#x201c;" k="-75" />
<hkern u1="T" u2="&#x201a;" k="73" />
<hkern u1="T" u2="&#x2019;" k="-38" />
<hkern u1="T" u2="&#x2018;" k="-75" />
<hkern u1="T" u2="&#xbb;" k="112" />
<hkern u1="T" u2="&#xab;" k="149" />
<hkern u1="T" u2="y" k="36" />
<hkern u1="T" u2="w" k="45" />
<hkern u1="T" u2="u" k="45" />
<hkern u1="T" u2="s" k="63" />
<hkern u1="T" u2="r" k="45" />
<hkern u1="T" u2="o" k="83" />
<hkern u1="T" u2="e" k="83" />
<hkern u1="T" u2="c" k="83" />
<hkern u1="T" u2="a" k="83" />
<hkern u1="T" u2="O" k="73" />
<hkern u1="T" u2="C" k="73" />
<hkern u1="T" u2="A" k="73" />
<hkern u1="T" u2="&#x3b;" k="73" />
<hkern u1="T" u2="&#x3a;" k="73" />
<hkern u1="T" u2="&#x2e;" k="149" />
<hkern u1="T" u2="&#x2d;" k="112" />
<hkern u1="T" u2="&#x2c;" k="149" />
<hkern u1="U" u2="&#x203a;" k="55" />
<hkern u1="U" u2="&#x2039;" k="36" />
<hkern u1="U" u2="&#x201e;" k="36" />
<hkern u1="U" u2="&#x201d;" k="-38" />
<hkern u1="U" u2="&#x201a;" k="36" />
<hkern u1="U" u2="&#x2019;" k="-38" />
<hkern u1="U" u2="&#xbb;" k="55" />
<hkern u1="U" u2="&#xab;" k="36" />
<hkern u1="U" u2="A" k="40" />
<hkern u1="U" u2="&#x2e;" k="73" />
<hkern u1="U" u2="&#x2c;" k="73" />
<hkern u1="V" u2="&#x203a;" k="149" />
<hkern u1="V" u2="&#x2039;" k="188" />
<hkern u1="V" u2="&#x201e;" k="188" />
<hkern u1="V" u2="&#x201d;" k="-114" />
<hkern u1="V" u2="&#x201c;" k="-114" />
<hkern u1="V" u2="&#x201a;" k="188" />
<hkern u1="V" u2="&#x2019;" k="-114" />
<hkern u1="V" u2="&#x2018;" k="-114" />
<hkern u1="V" u2="&#xbb;" k="149" />
<hkern u1="V" u2="&#xab;" k="188" />
<hkern u1="V" u2="y" k="36" />
<hkern u1="V" u2="u" k="63" />
<hkern u1="V" u2="o" k="112" />
<hkern u1="V" u2="i" k="35" />
<hkern u1="V" u2="e" k="112" />
<hkern u1="V" u2="a" k="112" />
<hkern u1="V" u2="O" k="45" />
<hkern u1="V" u2="G" k="20" />
<hkern u1="V" u2="A" k="55" />
<hkern u1="V" u2="&#x3b;" k="73" />
<hkern u1="V" u2="&#x3a;" k="73" />
<hkern u1="V" u2="&#x2e;" k="225" />
<hkern u1="V" u2="&#x2d;" k="112" />
<hkern u1="V" u2="&#x2c;" k="225" />
<hkern u1="W" u2="&#x203a;" k="112" />
<hkern u1="W" u2="&#x2039;" k="149" />
<hkern u1="W" u2="&#x201e;" k="149" />
<hkern u1="W" u2="&#x201d;" k="-114" />
<hkern u1="W" u2="&#x201c;" k="-114" />
<hkern u1="W" u2="&#x201a;" k="149" />
<hkern u1="W" u2="&#x2019;" k="-114" />
<hkern u1="W" u2="&#x2018;" k="-114" />
<hkern u1="W" u2="&#xbb;" k="112" />
<hkern u1="W" u2="&#xab;" k="149" />
<hkern u1="W" u2="y" k="20" />
<hkern u1="W" u2="u" k="55" />
<hkern u1="W" u2="r" k="36" />
<hkern u1="W" u2="o" k="73" />
<hkern u1="W" u2="i" k="10" />
<hkern u1="W" u2="e" k="73" />
<hkern u1="W" u2="a" k="73" />
<hkern u1="W" u2="O" k="20" />
<hkern u1="W" u2="A" k="58" />
<hkern u1="W" u2="&#x3b;" k="36" />
<hkern u1="W" u2="&#x3a;" k="36" />
<hkern u1="W" u2="&#x2e;" k="149" />
<hkern u1="W" u2="&#x2d;" k="112" />
<hkern u1="W" u2="&#x2c;" k="149" />
<hkern u1="X" u2="&#x203a;" k="73" />
<hkern u1="X" u2="&#x2039;" k="188" />
<hkern u1="X" u2="&#x201e;" k="-94" />
<hkern u1="X" u2="&#x201d;" k="-38" />
<hkern u1="X" u2="&#x201c;" k="-38" />
<hkern u1="X" u2="&#x201a;" k="-94" />
<hkern u1="X" u2="&#x2019;" k="-38" />
<hkern u1="X" u2="&#x2018;" k="-38" />
<hkern u1="X" u2="&#xbb;" k="73" />
<hkern u1="X" u2="&#xab;" k="188" />
<hkern u1="X" u2="e" k="36" />
<hkern u1="X" u2="O" k="55" />
<hkern u1="X" u2="C" k="55" />
<hkern u1="X" u2="&#x3b;" k="36" />
<hkern u1="X" u2="&#x3a;" k="36" />
<hkern u1="X" u2="&#x2e;" k="36" />
<hkern u1="X" u2="&#x2d;" k="73" />
<hkern u1="X" u2="&#x2c;" k="36" />
<hkern u1="Y" u2="&#x203a;" k="149" />
<hkern u1="Y" u2="&#x2039;" k="225" />
<hkern u1="Y" u2="&#x201e;" k="149" />
<hkern u1="Y" u2="&#x201d;" k="-94" />
<hkern u1="Y" u2="&#x201c;" k="-114" />
<hkern u1="Y" u2="&#x201a;" k="149" />
<hkern u1="Y" u2="&#x2019;" k="-94" />
<hkern u1="Y" u2="&#x2018;" k="-114" />
<hkern u1="Y" u2="&#xbb;" k="149" />
<hkern u1="Y" u2="&#xab;" k="225" />
<hkern u1="Y" u2="u" k="102" />
<hkern u1="Y" u2="o" k="139" />
<hkern u1="Y" u2="i" k="15" />
<hkern u1="Y" u2="e" k="139" />
<hkern u1="Y" u2="a" k="139" />
<hkern u1="Y" u2="O" k="40" />
<hkern u1="Y" u2="A" k="73" />
<hkern u1="Y" u2="&#x3b;" k="73" />
<hkern u1="Y" u2="&#x3a;" k="73" />
<hkern u1="Y" u2="&#x2e;" k="225" />
<hkern u1="Y" u2="&#x2d;" k="112" />
<hkern u1="Y" u2="&#x2c;" k="225" />
<hkern u1="Z" u2="&#x203a;" k="73" />
<hkern u1="Z" u2="&#x2039;" k="188" />
<hkern u1="Z" u2="&#x201e;" k="-75" />
<hkern u1="Z" u2="&#x201d;" k="-57" />
<hkern u1="Z" u2="&#x201a;" k="-75" />
<hkern u1="Z" u2="&#x2019;" k="-57" />
<hkern u1="Z" u2="&#xbb;" k="73" />
<hkern u1="Z" u2="&#xab;" k="188" />
<hkern u1="Z" u2="&#x2e;" k="73" />
<hkern u1="Z" u2="&#x2d;" k="149" />
<hkern u1="Z" u2="&#x2c;" k="73" />
<hkern u1="a" u2="&#x2039;" k="36" />
<hkern u1="a" u2="&#x201d;" k="-38" />
<hkern u1="a" u2="&#x201c;" k="36" />
<hkern u1="a" u2="&#x2019;" k="-38" />
<hkern u1="a" u2="&#x2018;" k="36" />
<hkern u1="a" u2="&#xab;" k="36" />
<hkern u1="a" u2="t" k="-5" />
<hkern u1="a" u2="p" k="-20" />
<hkern u1="a" u2="b" k="-5" />
<hkern u1="a" u2="&#x2e;" k="36" />
<hkern u1="a" u2="&#x2c;" k="36" />
<hkern u1="b" u2="&#x203a;" k="36" />
<hkern u1="b" u2="&#x201c;" k="149" />
<hkern u1="b" u2="&#x2018;" k="149" />
<hkern u1="b" u2="&#xbb;" k="36" />
<hkern u1="b" u2="y" k="20" />
<hkern u1="b" u2="v" k="20" />
<hkern u1="b" u2="u" k="10" />
<hkern u1="b" u2="&#x3b;" k="36" />
<hkern u1="b" u2="&#x3a;" k="36" />
<hkern u1="b" u2="&#x2e;" k="73" />
<hkern u1="b" u2="&#x2c;" k="73" />
<hkern u1="c" u2="&#x203a;" k="36" />
<hkern u1="c" u2="&#x2039;" k="36" />
<hkern u1="c" u2="&#x201c;" k="149" />
<hkern u1="c" u2="&#x2018;" k="149" />
<hkern u1="c" u2="&#xbb;" k="36" />
<hkern u1="c" u2="&#xab;" k="36" />
<hkern u1="c" u2="y" k="20" />
<hkern u1="c" u2="k" k="15" />
<hkern u1="c" u2="&#x3b;" k="36" />
<hkern u1="c" u2="&#x3a;" k="36" />
<hkern u1="c" u2="&#x2e;" k="73" />
<hkern u1="c" u2="&#x2c;" k="73" />
<hkern u1="d" u2="&#x2039;" k="36" />
<hkern u1="d" u2="&#x201d;" k="-75" />
<hkern u1="d" u2="&#x2019;" k="-75" />
<hkern u1="d" u2="&#xab;" k="36" />
<hkern u1="d" u2="&#x2e;" k="36" />
<hkern u1="d" u2="&#x2c;" k="36" />
<hkern u1="e" u2="&#x203a;" k="36" />
<hkern u1="e" u2="&#x201c;" k="149" />
<hkern u1="e" u2="&#x2018;" k="149" />
<hkern u1="e" u2="&#xbb;" k="36" />
<hkern u1="e" u2="y" k="20" />
<hkern u1="e" u2="w" k="20" />
<hkern u1="e" u2="v" k="20" />
<hkern u1="e" u2="&#x3b;" k="36" />
<hkern u1="e" u2="&#x3a;" k="36" />
<hkern u1="e" u2="&#x2e;" k="73" />
<hkern u1="e" u2="&#x2c;" k="73" />
<hkern u1="f" u2="&#x203a;" k="73" />
<hkern u1="f" u2="&#x2039;" k="112" />
<hkern u1="f" u2="&#x201d;" k="-151" />
<hkern u1="f" u2="&#x201c;" k="-75" />
<hkern u1="f" u2="&#x2019;" k="-151" />
<hkern u1="f" u2="&#x2018;" k="-75" />
<hkern u1="f" u2="&#xbb;" k="73" />
<hkern u1="f" u2="&#xab;" k="112" />
<hkern u1="f" u2="o" k="20" />
<hkern u1="f" u2="l" k="30" />
<hkern u1="f" u2="i" k="30" />
<hkern u1="f" u2="f" k="15" />
<hkern u1="f" u2="a" k="20" />
<hkern u1="f" u2="&#x2e;" k="149" />
<hkern u1="f" u2="&#x2d;" k="36" />
<hkern u1="f" u2="&#x2c;" k="149" />
<hkern u1="g" u2="&#x2039;" k="36" />
<hkern u1="g" u2="&#x201d;" k="-38" />
<hkern u1="g" u2="&#x201c;" k="36" />
<hkern u1="g" u2="&#x2019;" k="-38" />
<hkern u1="g" u2="&#x2018;" k="36" />
<hkern u1="g" u2="&#xab;" k="36" />
<hkern u1="g" u2="a" k="15" />
<hkern u1="g" u2="&#x2e;" k="36" />
<hkern u1="g" u2="&#x2c;" k="36" />
<hkern u1="h" u2="&#x2039;" k="36" />
<hkern u1="h" u2="&#x201c;" k="112" />
<hkern u1="h" u2="&#x2018;" k="112" />
<hkern u1="h" u2="&#xab;" k="36" />
<hkern u1="h" u2="y" k="30" />
<hkern u1="h" u2="&#x2e;" k="36" />
<hkern u1="h" u2="&#x2c;" k="36" />
<hkern u1="i" u2="&#x2039;" k="36" />
<hkern u1="i" u2="&#x201d;" k="-75" />
<hkern u1="i" u2="&#x2019;" k="-75" />
<hkern u1="i" u2="&#xab;" k="36" />
<hkern u1="i" u2="&#x2e;" k="36" />
<hkern u1="i" u2="&#x2c;" k="36" />
<hkern u1="j" u2="&#x2039;" k="36" />
<hkern u1="j" u2="&#x201d;" k="-75" />
<hkern u1="j" u2="&#x2019;" k="-75" />
<hkern u1="j" u2="&#xab;" k="36" />
<hkern u1="j" u2="&#x2e;" k="36" />
<hkern u1="j" u2="&#x2c;" k="36" />
<hkern u1="k" u2="&#x203a;" k="36" />
<hkern u1="k" u2="&#x2039;" k="112" />
<hkern u1="k" u2="&#x201d;" k="-75" />
<hkern u1="k" u2="&#x201c;" k="36" />
<hkern u1="k" u2="&#x2019;" k="-75" />
<hkern u1="k" u2="&#x2018;" k="36" />
<hkern u1="k" u2="&#xbb;" k="36" />
<hkern u1="k" u2="&#xab;" k="112" />
<hkern u1="k" u2="y" k="25" />
<hkern u1="k" u2="o" k="36" />
<hkern u1="k" u2="e" k="36" />
<hkern u1="k" u2="a" k="36" />
<hkern u1="k" u2="&#x2e;" k="36" />
<hkern u1="k" u2="&#x2d;" k="73" />
<hkern u1="k" u2="&#x2c;" k="36" />
<hkern u1="l" u2="&#x2039;" k="36" />
<hkern u1="l" u2="&#x201d;" k="-75" />
<hkern u1="l" u2="&#x2019;" k="-75" />
<hkern u1="l" u2="&#xab;" k="36" />
<hkern u1="l" u2="w" k="20" />
<hkern u1="l" u2="&#x2e;" k="36" />
<hkern u1="l" u2="&#x2c;" k="36" />
<hkern u1="m" u2="&#x2039;" k="36" />
<hkern u1="m" u2="&#x201c;" k="112" />
<hkern u1="m" u2="&#x2018;" k="112" />
<hkern u1="m" u2="&#xab;" k="36" />
<hkern u1="m" u2="y" k="20" />
<hkern u1="m" u2="u" k="20" />
<hkern u1="m" u2="&#x2e;" k="36" />
<hkern u1="m" u2="&#x2c;" k="36" />
<hkern u1="n" u2="&#x2039;" k="36" />
<hkern u1="n" u2="&#x201c;" k="112" />
<hkern u1="n" u2="&#x2018;" k="112" />
<hkern u1="n" u2="&#xab;" k="36" />
<hkern u1="n" u2="y" k="15" />
<hkern u1="n" u2="v" k="30" />
<hkern u1="n" u2="u" k="15" />
<hkern u1="n" u2="&#x2e;" k="36" />
<hkern u1="n" u2="&#x2c;" k="36" />
<hkern u1="o" u2="&#x203a;" k="36" />
<hkern u1="o" u2="&#x201c;" k="149" />
<hkern u1="o" u2="&#x2018;" k="149" />
<hkern u1="o" u2="&#xbb;" k="36" />
<hkern u1="o" u2="y" k="20" />
<hkern u1="o" u2="x" k="15" />
<hkern u1="o" u2="w" k="20" />
<hkern u1="o" u2="v" k="30" />
<hkern u1="o" u2="&#x3b;" k="36" />
<hkern u1="o" u2="&#x3a;" k="36" />
<hkern u1="o" u2="&#x2e;" k="73" />
<hkern u1="o" u2="&#x2c;" k="73" />
<hkern u1="p" u2="&#x203a;" k="36" />
<hkern u1="p" u2="&#x201c;" k="149" />
<hkern u1="p" u2="&#x2018;" k="149" />
<hkern u1="p" u2="&#xbb;" k="36" />
<hkern u1="p" u2="y" k="20" />
<hkern u1="p" u2="&#x3b;" k="36" />
<hkern u1="p" u2="&#x3a;" k="36" />
<hkern u1="p" u2="&#x2e;" k="73" />
<hkern u1="p" u2="&#x2c;" k="73" />
<hkern u1="q" u2="&#x2039;" k="36" />
<hkern u1="q" u2="&#x201d;" k="-75" />
<hkern u1="q" u2="&#x201c;" k="36" />
<hkern u1="q" u2="&#x2019;" k="-75" />
<hkern u1="q" u2="&#x2018;" k="36" />
<hkern u1="q" u2="&#xab;" k="36" />
<hkern u1="q" u2="&#x2e;" k="36" />
<hkern u1="q" u2="&#x2c;" k="36" />
<hkern u1="r" u2="&#x203a;" k="36" />
<hkern u1="r" u2="&#x2039;" k="112" />
<hkern u1="r" u2="&#x201d;" k="-151" />
<hkern u1="r" u2="&#x2019;" k="-151" />
<hkern u1="r" u2="&#xbb;" k="36" />
<hkern u1="r" u2="&#xab;" k="112" />
<hkern u1="r" u2="z" k="-38" />
<hkern u1="r" u2="y" k="-114" />
<hkern u1="r" u2="x" k="-75" />
<hkern u1="r" u2="w" k="-75" />
<hkern u1="r" u2="v" k="-75" />
<hkern u1="r" u2="u" k="-20" />
<hkern u1="r" u2="t" k="-40" />
<hkern u1="r" u2="s" k="-20" />
<hkern u1="r" u2="q" k="8" />
<hkern u1="r" u2="p" k="-20" />
<hkern u1="r" u2="o" k="20" />
<hkern u1="r" u2="n" k="-21" />
<hkern u1="r" u2="m" k="-28" />
<hkern u1="r" u2="l" k="-20" />
<hkern u1="r" u2="k" k="-20" />
<hkern u1="r" u2="i" k="-20" />
<hkern u1="r" u2="g" k="-1" />
<hkern u1="r" u2="f" k="-75" />
<hkern u1="r" u2="e" k="4" />
<hkern u1="r" u2="d" k="6" />
<hkern u1="r" u2="c" k="7" />
<hkern u1="r" u2="&#x2e;" k="149" />
<hkern u1="r" u2="&#x2d;" k="36" />
<hkern u1="r" u2="&#x2c;" k="149" />
<hkern u1="s" u2="&#x201d;" k="-38" />
<hkern u1="s" u2="&#x201c;" k="112" />
<hkern u1="s" u2="&#x2019;" k="-38" />
<hkern u1="s" u2="&#x2018;" k="112" />
<hkern u1="s" u2="t" k="-15" />
<hkern u1="s" u2="&#x2e;" k="73" />
<hkern u1="s" u2="&#x2c;" k="73" />
<hkern u1="t" u2="&#x203a;" k="55" />
<hkern u1="t" u2="&#x2039;" k="73" />
<hkern u1="t" u2="&#x201d;" k="-114" />
<hkern u1="t" u2="&#x201c;" k="-38" />
<hkern u1="t" u2="&#x2019;" k="-114" />
<hkern u1="t" u2="&#x2018;" k="-38" />
<hkern u1="t" u2="&#xbb;" k="55" />
<hkern u1="t" u2="&#xab;" k="73" />
<hkern u1="t" u2="&#x2e;" k="112" />
<hkern u1="t" u2="&#x2d;" k="36" />
<hkern u1="t" u2="&#x2c;" k="112" />
<hkern u1="u" u2="&#x2039;" k="36" />
<hkern u1="u" u2="&#x201d;" k="-75" />
<hkern u1="u" u2="&#x201c;" k="73" />
<hkern u1="u" u2="&#x2019;" k="-75" />
<hkern u1="u" u2="&#x2018;" k="73" />
<hkern u1="u" u2="&#xab;" k="36" />
<hkern u1="u" u2="z" k="-15" />
<hkern u1="u" u2="&#x2e;" k="36" />
<hkern u1="u" u2="&#x2c;" k="36" />
<hkern u1="v" u2="&#x203a;" k="73" />
<hkern u1="v" u2="&#x2039;" k="112" />
<hkern u1="v" u2="&#x201d;" k="-114" />
<hkern u1="v" u2="&#x2019;" k="-114" />
<hkern u1="v" u2="&#xbb;" k="73" />
<hkern u1="v" u2="&#xab;" k="112" />
<hkern u1="v" u2="o" k="20" />
<hkern u1="v" u2="e" k="20" />
<hkern u1="v" u2="a" k="30" />
<hkern u1="v" u2="&#x3b;" k="36" />
<hkern u1="v" u2="&#x3a;" k="36" />
<hkern u1="v" u2="&#x2e;" k="225" />
<hkern u1="v" u2="&#x2d;" k="73" />
<hkern u1="v" u2="&#x2c;" k="225" />
<hkern u1="w" u2="&#x203a;" k="73" />
<hkern u1="w" u2="&#x2039;" k="112" />
<hkern u1="w" u2="&#x201d;" k="-114" />
<hkern u1="w" u2="&#x2019;" k="-114" />
<hkern u1="w" u2="&#xbb;" k="73" />
<hkern u1="w" u2="&#xab;" k="112" />
<hkern u1="w" u2="o" k="30" />
<hkern u1="w" u2="h" k="-15" />
<hkern u1="w" u2="e" k="20" />
<hkern u1="w" u2="a" k="30" />
<hkern u1="w" u2="&#x3b;" k="36" />
<hkern u1="w" u2="&#x3a;" k="36" />
<hkern u1="w" u2="&#x2e;" k="149" />
<hkern u1="w" u2="&#x2d;" k="73" />
<hkern u1="w" u2="&#x2c;" k="149" />
<hkern u1="x" u2="&#x203a;" k="73" />
<hkern u1="x" u2="&#x2039;" k="112" />
<hkern u1="x" u2="&#x201d;" k="-114" />
<hkern u1="x" u2="&#x2019;" k="-114" />
<hkern u1="x" u2="&#xbb;" k="73" />
<hkern u1="x" u2="&#xab;" k="112" />
<hkern u1="x" u2="i" k="-15" />
<hkern u1="x" u2="&#x3b;" k="36" />
<hkern u1="x" u2="&#x3a;" k="36" />
<hkern u1="x" u2="&#x2e;" k="36" />
<hkern u1="x" u2="&#x2d;" k="73" />
<hkern u1="x" u2="&#x2c;" k="36" />
<hkern u1="y" u2="&#x203a;" k="36" />
<hkern u1="y" u2="&#x2039;" k="73" />
<hkern u1="y" u2="&#x201d;" k="-151" />
<hkern u1="y" u2="&#x201c;" k="-38" />
<hkern u1="y" u2="&#x2019;" k="-151" />
<hkern u1="y" u2="&#x2018;" k="-38" />
<hkern u1="y" u2="&#xbb;" k="36" />
<hkern u1="y" u2="&#xab;" k="73" />
<hkern u1="y" u2="o" k="30" />
<hkern u1="y" u2="e" k="20" />
<hkern u1="y" u2="a" k="30" />
<hkern u1="y" u2="&#x2e;" k="188" />
<hkern u1="y" u2="&#x2d;" k="36" />
<hkern u1="y" u2="&#x2c;" k="188" />
<hkern u1="z" u2="&#x203a;" k="36" />
<hkern u1="z" u2="&#x2039;" k="149" />
<hkern u1="z" u2="&#x201d;" k="-75" />
<hkern u1="z" u2="&#x201c;" k="36" />
<hkern u1="z" u2="&#x2019;" k="-75" />
<hkern u1="z" u2="&#x2018;" k="36" />
<hkern u1="z" u2="&#xbb;" k="36" />
<hkern u1="z" u2="&#xab;" k="149" />
<hkern u1="z" u2="&#x3b;" k="36" />
<hkern u1="z" u2="&#x3a;" k="36" />
<hkern u1="z" u2="&#x2e;" k="73" />
<hkern u1="z" u2="&#x2d;" k="36" />
<hkern u1="z" u2="&#x2c;" k="73" />
<hkern u1="&#xab;" u2="x" k="73" />
<hkern u1="&#xab;" u2="w" k="73" />
<hkern u1="&#xab;" u2="v" k="73" />
<hkern u1="&#xab;" u2="t" k="55" />
<hkern u1="&#xab;" u2="o" k="36" />
<hkern u1="&#xab;" u2="j" k="-38" />
<hkern u1="&#xab;" u2="g" k="36" />
<hkern u1="&#xab;" u2="f" k="36" />
<hkern u1="&#xab;" u2="e" k="36" />
<hkern u1="&#xab;" u2="d" k="36" />
<hkern u1="&#xab;" u2="c" k="36" />
<hkern u1="&#xab;" u2="a" k="36" />
<hkern u1="&#xab;" u2="Z" k="36" />
<hkern u1="&#xab;" u2="Y" k="149" />
<hkern u1="&#xab;" u2="X" k="73" />
<hkern u1="&#xab;" u2="W" k="112" />
<hkern u1="&#xab;" u2="V" k="149" />
<hkern u1="&#xab;" u2="U" k="55" />
<hkern u1="&#xab;" u2="T" k="112" />
<hkern u1="&#xab;" u2="J" k="36" />
<hkern u1="&#xbb;" u2="z" k="73" />
<hkern u1="&#xbb;" u2="y" k="55" />
<hkern u1="&#xbb;" u2="x" k="112" />
<hkern u1="&#xbb;" u2="w" k="112" />
<hkern u1="&#xbb;" u2="v" k="112" />
<hkern u1="&#xbb;" u2="u" k="36" />
<hkern u1="&#xbb;" u2="t" k="73" />
<hkern u1="&#xbb;" u2="r" k="36" />
<hkern u1="&#xbb;" u2="p" k="36" />
<hkern u1="&#xbb;" u2="n" k="36" />
<hkern u1="&#xbb;" u2="m" k="36" />
<hkern u1="&#xbb;" u2="l" k="36" />
<hkern u1="&#xbb;" u2="k" k="36" />
<hkern u1="&#xbb;" u2="i" k="36" />
<hkern u1="&#xbb;" u2="h" k="36" />
<hkern u1="&#xbb;" u2="f" k="36" />
<hkern u1="&#xbb;" u2="b" k="36" />
<hkern u1="&#xbb;" u2="Z" k="73" />
<hkern u1="&#xbb;" u2="Y" k="225" />
<hkern u1="&#xbb;" u2="X" k="188" />
<hkern u1="&#xbb;" u2="W" k="149" />
<hkern u1="&#xbb;" u2="V" k="188" />
<hkern u1="&#xbb;" u2="U" k="36" />
<hkern u1="&#xbb;" u2="T" k="149" />
<hkern u1="&#xbb;" u2="S" k="73" />
<hkern u1="&#xbb;" u2="J" k="73" />
<hkern u1="&#xbb;" u2="A" k="73" />
<hkern u1="&#x2018;" u2="&#x2018;" k="121" />
<hkern u1="&#x2018;" u2="z" k="-75" />
<hkern u1="&#x2018;" u2="y" k="-151" />
<hkern u1="&#x2018;" u2="x" k="-75" />
<hkern u1="&#x2018;" u2="w" k="-114" />
<hkern u1="&#x2018;" u2="v" k="-114" />
<hkern u1="&#x2018;" u2="u" k="-75" />
<hkern u1="&#x2018;" u2="t" k="-114" />
<hkern u1="&#x2018;" u2="s" k="-38" />
<hkern u1="&#x2018;" u2="r" k="-75" />
<hkern u1="&#x2018;" u2="p" k="-75" />
<hkern u1="&#x2018;" u2="n" k="-75" />
<hkern u1="&#x2018;" u2="m" k="-75" />
<hkern u1="&#x2018;" u2="l" k="-75" />
<hkern u1="&#x2018;" u2="k" k="-75" />
<hkern u1="&#x2018;" u2="j" k="-75" />
<hkern u1="&#x2018;" u2="i" k="-75" />
<hkern u1="&#x2018;" u2="h" k="-75" />
<hkern u1="&#x2018;" u2="f" k="-114" />
<hkern u1="&#x2018;" u2="b" k="-75" />
<hkern u1="&#x2018;" u2="Z" k="-38" />
<hkern u1="&#x2018;" u2="Y" k="-94" />
<hkern u1="&#x2018;" u2="X" k="-38" />
<hkern u1="&#x2018;" u2="W" k="-114" />
<hkern u1="&#x2018;" u2="V" k="-114" />
<hkern u1="&#x2018;" u2="U" k="-38" />
<hkern u1="&#x2018;" u2="T" k="-38" />
<hkern u1="&#x2018;" u2="S" k="-57" />
<hkern u1="&#x2018;" u2="R" k="-38" />
<hkern u1="&#x2018;" u2="Q" k="-94" />
<hkern u1="&#x2018;" u2="P" k="-38" />
<hkern u1="&#x2018;" u2="O" k="-57" />
<hkern u1="&#x2018;" u2="N" k="-38" />
<hkern u1="&#x2018;" u2="M" k="-38" />
<hkern u1="&#x2018;" u2="L" k="-38" />
<hkern u1="&#x2018;" u2="K" k="-38" />
<hkern u1="&#x2018;" u2="J" k="264" />
<hkern u1="&#x2018;" u2="I" k="-38" />
<hkern u1="&#x2018;" u2="H" k="-38" />
<hkern u1="&#x2018;" u2="G" k="-57" />
<hkern u1="&#x2018;" u2="F" k="-38" />
<hkern u1="&#x2018;" u2="E" k="-38" />
<hkern u1="&#x2018;" u2="D" k="-38" />
<hkern u1="&#x2018;" u2="C" k="-57" />
<hkern u1="&#x2018;" u2="B" k="-38" />
<hkern u1="&#x2018;" u2="A" k="112" />
<hkern u1="&#x2019;" u2="&#x2019;" k="121" />
<hkern u1="&#x2019;" u2="v" k="20" />
<hkern u1="&#x2019;" u2="t" k="-10" />
<hkern u1="&#x2019;" u2="s" k="15" />
<hkern u1="&#x2019;" u2="r" k="20" />
<hkern u1="&#x2019;" u2="d" k="70" />
<hkern u1="&#x2019;" u2="&#x20;" k="100" />
<hkern u1="&#x201a;" u2="z" k="-57" />
<hkern u1="&#x201a;" u2="y" k="36" />
<hkern u1="&#x201a;" u2="x" k="-38" />
<hkern u1="&#x201a;" u2="w" k="73" />
<hkern u1="&#x201a;" u2="v" k="112" />
<hkern u1="&#x201a;" u2="t" k="36" />
<hkern u1="&#x201a;" u2="s" k="-57" />
<hkern u1="&#x201a;" u2="r" k="-38" />
<hkern u1="&#x201a;" u2="p" k="-75" />
<hkern u1="&#x201a;" u2="j" k="-114" />
<hkern u1="&#x201a;" u2="g" k="-38" />
<hkern u1="&#x201a;" u2="e" k="-38" />
<hkern u1="&#x201a;" u2="b" k="-38" />
<hkern u1="&#x201a;" u2="Y" k="188" />
<hkern u1="&#x201a;" u2="W" k="149" />
<hkern u1="&#x201a;" u2="V" k="149" />
<hkern u1="&#x201a;" u2="T" k="73" />
<hkern u1="&#x201a;" u2="J" k="-75" />
<hkern u1="&#x201a;" u2="A" k="-75" />
<hkern u1="&#x201c;" u2="z" k="-75" />
<hkern u1="&#x201c;" u2="y" k="-151" />
<hkern u1="&#x201c;" u2="x" k="-75" />
<hkern u1="&#x201c;" u2="w" k="-114" />
<hkern u1="&#x201c;" u2="v" k="-114" />
<hkern u1="&#x201c;" u2="u" k="-75" />
<hkern u1="&#x201c;" u2="t" k="-114" />
<hkern u1="&#x201c;" u2="s" k="-38" />
<hkern u1="&#x201c;" u2="r" k="-75" />
<hkern u1="&#x201c;" u2="p" k="-75" />
<hkern u1="&#x201c;" u2="n" k="-75" />
<hkern u1="&#x201c;" u2="m" k="-75" />
<hkern u1="&#x201c;" u2="l" k="-75" />
<hkern u1="&#x201c;" u2="k" k="-75" />
<hkern u1="&#x201c;" u2="j" k="-75" />
<hkern u1="&#x201c;" u2="i" k="-75" />
<hkern u1="&#x201c;" u2="h" k="-75" />
<hkern u1="&#x201c;" u2="f" k="-114" />
<hkern u1="&#x201c;" u2="b" k="-75" />
<hkern u1="&#x201c;" u2="Z" k="-38" />
<hkern u1="&#x201c;" u2="Y" k="-94" />
<hkern u1="&#x201c;" u2="X" k="-38" />
<hkern u1="&#x201c;" u2="W" k="-114" />
<hkern u1="&#x201c;" u2="V" k="-114" />
<hkern u1="&#x201c;" u2="U" k="-38" />
<hkern u1="&#x201c;" u2="T" k="-38" />
<hkern u1="&#x201c;" u2="S" k="-57" />
<hkern u1="&#x201c;" u2="R" k="-38" />
<hkern u1="&#x201c;" u2="Q" k="-94" />
<hkern u1="&#x201c;" u2="P" k="-38" />
<hkern u1="&#x201c;" u2="O" k="-57" />
<hkern u1="&#x201c;" u2="N" k="-38" />
<hkern u1="&#x201c;" u2="M" k="-38" />
<hkern u1="&#x201c;" u2="L" k="-38" />
<hkern u1="&#x201c;" u2="K" k="-38" />
<hkern u1="&#x201c;" u2="J" k="264" />
<hkern u1="&#x201c;" u2="I" k="-38" />
<hkern u1="&#x201c;" u2="H" k="-38" />
<hkern u1="&#x201c;" u2="G" k="-57" />
<hkern u1="&#x201c;" u2="F" k="-38" />
<hkern u1="&#x201c;" u2="E" k="-38" />
<hkern u1="&#x201c;" u2="D" k="-38" />
<hkern u1="&#x201c;" u2="C" k="-57" />
<hkern u1="&#x201c;" u2="B" k="-38" />
<hkern u1="&#x201c;" u2="A" k="112" />
<hkern u1="&#x201d;" u2="&#x20;" k="100" />
<hkern u1="&#x201e;" u2="z" k="-57" />
<hkern u1="&#x201e;" u2="y" k="36" />
<hkern u1="&#x201e;" u2="x" k="-38" />
<hkern u1="&#x201e;" u2="w" k="73" />
<hkern u1="&#x201e;" u2="v" k="112" />
<hkern u1="&#x201e;" u2="t" k="36" />
<hkern u1="&#x201e;" u2="s" k="-57" />
<hkern u1="&#x201e;" u2="r" k="-38" />
<hkern u1="&#x201e;" u2="p" k="-75" />
<hkern u1="&#x201e;" u2="j" k="-114" />
<hkern u1="&#x201e;" u2="g" k="-38" />
<hkern u1="&#x201e;" u2="e" k="-38" />
<hkern u1="&#x201e;" u2="b" k="-38" />
<hkern u1="&#x201e;" u2="Y" k="188" />
<hkern u1="&#x201e;" u2="W" k="149" />
<hkern u1="&#x201e;" u2="V" k="149" />
<hkern u1="&#x201e;" u2="T" k="73" />
<hkern u1="&#x201e;" u2="J" k="-75" />
<hkern u1="&#x201e;" u2="A" k="-75" />
<hkern u1="&#x2039;" u2="x" k="73" />
<hkern u1="&#x2039;" u2="w" k="73" />
<hkern u1="&#x2039;" u2="v" k="73" />
<hkern u1="&#x2039;" u2="t" k="55" />
<hkern u1="&#x2039;" u2="o" k="36" />
<hkern u1="&#x2039;" u2="j" k="-38" />
<hkern u1="&#x2039;" u2="g" k="36" />
<hkern u1="&#x2039;" u2="f" k="36" />
<hkern u1="&#x2039;" u2="e" k="36" />
<hkern u1="&#x2039;" u2="d" k="36" />
<hkern u1="&#x2039;" u2="c" k="36" />
<hkern u1="&#x2039;" u2="a" k="36" />
<hkern u1="&#x2039;" u2="Z" k="36" />
<hkern u1="&#x2039;" u2="Y" k="149" />
<hkern u1="&#x2039;" u2="X" k="73" />
<hkern u1="&#x2039;" u2="W" k="112" />
<hkern u1="&#x2039;" u2="V" k="149" />
<hkern u1="&#x2039;" u2="U" k="55" />
<hkern u1="&#x2039;" u2="T" k="112" />
<hkern u1="&#x2039;" u2="J" k="36" />
<hkern u1="&#x203a;" u2="z" k="73" />
<hkern u1="&#x203a;" u2="y" k="55" />
<hkern u1="&#x203a;" u2="x" k="112" />
<hkern u1="&#x203a;" u2="w" k="112" />
<hkern u1="&#x203a;" u2="v" k="112" />
<hkern u1="&#x203a;" u2="u" k="36" />
<hkern u1="&#x203a;" u2="t" k="73" />
<hkern u1="&#x203a;" u2="r" k="36" />
<hkern u1="&#x203a;" u2="p" k="36" />
<hkern u1="&#x203a;" u2="n" k="36" />
<hkern u1="&#x203a;" u2="m" k="36" />
<hkern u1="&#x203a;" u2="l" k="36" />
<hkern u1="&#x203a;" u2="k" k="36" />
<hkern u1="&#x203a;" u2="i" k="36" />
<hkern u1="&#x203a;" u2="h" k="36" />
<hkern u1="&#x203a;" u2="f" k="36" />
<hkern u1="&#x203a;" u2="b" k="36" />
<hkern u1="&#x203a;" u2="Z" k="73" />
<hkern u1="&#x203a;" u2="Y" k="225" />
<hkern u1="&#x203a;" u2="X" k="188" />
<hkern u1="&#x203a;" u2="W" k="149" />
<hkern u1="&#x203a;" u2="V" k="188" />
<hkern u1="&#x203a;" u2="U" k="36" />
<hkern u1="&#x203a;" u2="T" k="149" />
<hkern u1="&#x203a;" u2="S" k="73" />
<hkern u1="&#x203a;" u2="J" k="73" />
<hkern u1="&#x203a;" u2="A" k="73" />
</font>
</defs></svg> 