<?xml version="1.0" standalone="no"?>
<!DOCTYPE svg PUBLIC "-//W3C//DTD SVG 1.1//EN" "http://www.w3.org/Graphics/SVG/1.1/DTD/svg11.dtd" >
<svg xmlns="http://www.w3.org/2000/svg">
<metadata></metadata>
<defs>
<font id="caviar_dreamsitalic" horiz-adv-x="1250" >
<font-face units-per-em="2048" ascent="1638" descent="-410" />
<missing-glyph horiz-adv-x="708" />
<glyph horiz-adv-x="2048" />
<glyph horiz-adv-x="2048" />
<glyph unicode="&#xd;" horiz-adv-x="708" />
<glyph unicode=" "  horiz-adv-x="708" />
<glyph unicode="&#x09;" horiz-adv-x="708" />
<glyph unicode="&#xa0;" horiz-adv-x="708" />
<glyph unicode="!" horiz-adv-x="430" d="M303 139q22 -26 16 -63q-7 -38 -38 -64t-68 -26t-59 26t-15 64q6 37 37 63t68 26t59 -26zM540 1600l-233 -1324h-90l233 1324h90z" />
<glyph unicode="&#x22;" horiz-adv-x="575" d="M301 997l106 600h90l-106 -600h-90zM536 997l106 600h90l-106 -600h-90z" />
<glyph unicode="#" horiz-adv-x="1653" d="M936 985h230l190 445h90l-190 -445h445l-39 -90h-445l-97 -230h445l-39 -90h-445l-189 -445h-90l189 445h-230l-189 -445h-90l189 445h-445l39 90h445l97 230h-445l39 90h445l190 445h90zM1127 895h-230l-97 -230h230z" />
<glyph unicode="$" horiz-adv-x="1011" d="M707 856l-117 -667q102 15 192 91q110 94 134 228q23 133 -54 227q-61 74 -155 121zM716 1413q-64 -10 -118 -57q-72 -60 -87 -146t34 -146q35 -42 95 -79zM624 891q-97 45 -151 112q-71 85 -49 207q21 119 122 205q85 73 185 84l29 163h90l-30 -165q86 -15 141 -81 q39 -46 48 -108l-83 -31q-9 46 -37 80q-34 40 -84 53l-82 -464q128 -53 210 -151q98 -119 68 -287q-30 -170 -170 -289q-119 -101 -257 -117l-24 -140h-90l24 139q-142 11 -230 118q-78 96 -75 226l87 30q-8 -115 60 -196q66 -81 173 -92z" />
<glyph unicode="%" horiz-adv-x="1221" d="M1339 1314l-1149 -1311l-65 51l1149 1311zM677.5 1147.5q55.5 -67.5 38.5 -163.5t-96.5 -163.5t-175.5 -67.5t-151.5 67.5t-38.5 163.5t96.5 163.5t175.5 67.5t151.5 -67.5zM510 1128q-60 0 -109 -42t-60 -102t24 -102t95 -42q59 0 108.5 42t60.5 102t-24.5 102t-94.5 42 zM1171.5 547.5q55.5 -67.5 38.5 -163.5t-96.5 -163.5t-175.5 -67.5t-151.5 67.5t-38.5 163.5t96.5 163.5t175.5 67.5t151.5 -67.5zM1005 528q-60 0 -109.5 -42t-60.5 -102q-10 -60 24.5 -102t94.5 -42q59 0 109 42t60 102q11 60 -24 102t-94 42z" />
<glyph unicode="&#x26;" horiz-adv-x="1304" d="M974 331q-12 5 -23 12q-43 27 -102 102q-40 44 -59 55q-19 12 -41 12q-13 0 -26 -3q-38 -10 -61 -42q-17 -22 -21 -44q-2 -12 0 -25q3 -36 29 -52q18 -10 51 -10q18 0 41 3l-23 -82q-27 -7 -52 -7q-40 0 -74 21q-54 33 -61 104q-2 25 2 48q8 44 39 86q48 64 122 83 q26 7 50 7q44 0 81 -24q36 -22 88 -89q49 -53 73 -68q27 -17 59 -17q18 0 37 5q54 14 90 61q22 31 28 63q3 17 1 35q-5 51 -46 78q-25 16 -60 16q-25 0 -56 -8l15 89q29 8 57 8q53 0 99 -29q70 -44 79 -131q3 -30 -2 -58q-10 -55 -48 -105q-57 -78 -150 -102q-27 -7 -51 -8 q-52 -108 -153 -194q-164 -140 -360 -140t-310.5 139t-79.5 336q34 196 197 342q112 101 271 151q-67 31 -128 111.5t-37 221.5q25 138 141.5 237.5t257.5 99.5q140 0 222 -99q46 -53 55 -119l-86 -32q-10 49 -43 90q-61 72 -164 72t-188.5 -72.5t-104.5 -176.5 q-18 -103 39.5 -178t113.5 -98t145 -24l-14 -84l-73 -2q-226 -41 -357 -161t-159 -279q-28 -160 65 -273t253 -113q159 0 292 113q77 66 120 148z" />
<glyph unicode="'" horiz-adv-x="340" d="M301 997l106 600h90l-106 -600h-90z" />
<glyph unicode="(" horiz-adv-x="703" d="M890 1628q-146 -62 -280 -199q-221 -228 -291 -629q-71 -402 69 -630q85 -137 209 -202l-15 -85q-158 58 -260 223q-159 254 -81 694q77 439 326 694q160 165 338 223z" />
<glyph unicode=")" horiz-adv-x="703" d="M402 1717q158 -58 260 -223q159 -255 82 -694q-78 -440 -327 -694q-160 -165 -338 -223l15 85q146 65 280 202q221 228 292 630q70 401 -70 629q-85 137 -209 199z" />
<glyph unicode="*" horiz-adv-x="800" d="M689 1384l196 122l39 -74l-217 -135l169 -135l-65 -74l-153 122l-37 -213h-90l38 214l-197 -123l-39 74l217 135l-169 135l65 74l153 -123l38 214h90z" />
<glyph unicode="+" horiz-adv-x="1050" d="M480 547h-355v90h355v355h90v-355h355v-90h-355v-355h-90v355z" />
<glyph unicode="," horiz-adv-x="379" d="M308 166l-253 -385h-84l171 385h166z" />
<glyph unicode="-" horiz-adv-x="840" d="M237 637h590l-16 -90h-590z" />
<glyph unicode="." horiz-adv-x="380" d="M278 139q22 -26 16 -63q-7 -38 -38 -64t-68 -26t-59 26t-15 64q6 37 37 63t68 26t59 -26z" />
<glyph unicode="/" horiz-adv-x="727" d="M956 1600h103l-1007 -1600h-102z" />
<glyph unicode="0" d="M1264 1051q34 188 -76 320.5t-298 132.5t-344 -132.5t-190 -320.5l-93 -530q-33 -188 76.5 -320.5t297.5 -132.5t344.5 132.5t189.5 320.5zM1266 521q-40 -227 -229 -388t-417 -161q-227 0 -359.5 161t-92.5 388l93 530q41 227 230 388t416 161q228 0 360.5 -161 t91.5 -388z" />
<glyph unicode="1" d="M999 1600l-282 -1600h-90l254 1442h-95l151 158h62z" />
<glyph unicode="2" d="M444 433.5q187 123.5 331 219t274 214.5t158 277q28 159 -64.5 271t-251.5 112q-157 0 -289 -112q-113 -96 -151 -229l-85 33q49 150 180 262q165 141 362 141q198 0 313 -140t80 -338q-35 -197 -198 -344q-111 -101 -254.5 -196t-323.5 -214t-251 -300h841l-16 -90h-943 q101 310 288 433.5z" />
<glyph unicode="3" d="M727 893l-75 2l16 90q93 1 156.5 24t146 97t100.5 176q18 103 -41 174.5t-161 71.5q-101 0 -187 -71q-47 -41 -75 -92l-80 34q34 70 99 123q118 100 259 100q143 0 225 -100.5t57 -239.5q-25 -142 -115 -223.5t-161 -108.5q135 -48 212 -150q111 -147 77 -344 q-35 -198 -199.5 -338t-362.5 -140q-197 0 -312 141q-91 112 -88 262l97 33q-9 -133 70 -229q93 -112 250 -112q159 0 291 112t160 271q28 158 -60.5 277t-298.5 160z" />
<glyph unicode="4" d="M1116 1600h90l-184 -1042h153l-16 -90h-153l-83 -468h-90l83 468h-660zM1081 1406l-654 -848h505z" />
<glyph unicode="5" d="M476 1103q53 16 118 30q66 11 126 11q110 0 205 -35q212 -77 285 -284q47 -129 23 -264q-15 -84 -56 -169q-109 -225 -335 -336q-138 -67 -272 -67q-85 0 -168 27q-171 55 -248 194l77 71q62 -126 215 -175q68 -22 138 -22q112 0 228 56q189 92 280 280q35 72 47 142 q20 112 -18 219q-62 172 -238 238q-76 28 -173 28q-127 0 -291 -49l-61 63l273 507l6 32h500l-16 -90h-425z" />
<glyph unicode="6" d="M266 521q-33 -188 76.5 -320.5t297.5 -132.5t344.5 132.5t189.5 320.5t-76.5 321t-297.5 133t-344.5 -133t-189.5 -321zM438 940q174 131 379 131q228 0 360 -161t92 -389q-40 -227 -229 -388t-417 -161q-227 0 -359 161q-128 155 -96 371h-6q72 353 271.5 577t482.5 488 q17 16 32 31h124q-24 -25 -50 -50q-315 -294 -508 -513q-41 -46 -76 -97z" />
<glyph unicode="7" d="M1012 1046q-314 -294 -507 -513t-258 -533h-94q72 353 271.5 577t482 488t353.5 445h-841l16 90h943q-52 -260 -366 -554z" />
<glyph unicode="8" d="M637 75h2q19 -2 39 -2q159 0 291 112t160 271q28 158 -60 277q-86 116 -287 158q-217 -42 -343 -158q-130 -119 -158 -277q-28 -159 64 -271t251 -112q20 0 41 2zM621 -20q-20 -2 -41 -2q-198 0 -313 140t-80 338q35 197 198 344q113 102 265 150q-61 27 -122.5 108.5 t-36.5 223.5q24 139 141.5 239.5t260.5 100.5h36q143 0 224.5 -100.5t57.5 -239.5q-25 -142 -115.5 -223.5t-161.5 -108.5q136 -48 213 -150q111 -147 76 -344q-35 -198 -199 -338t-362 -140q-20 0 -41 2zM893 1527q-8 1 -17 1q-102 0 -186.5 -71.5t-102.5 -174.5 q-18 -102 38 -176t111 -97q28 -11 63 -17q37 6 69 17q63 23 146 97t101 176q18 103 -41.5 174.5t-161.5 71.5q-9 0 -17 -1h-2z" />
<glyph unicode="9" d="M1261 1051q33 188 -76.5 320.5t-297.5 132.5t-344.5 -132.5t-189.5 -320.5t76.5 -321t297.5 -133t344.5 133t189.5 321zM1089 632q-174 -131 -379 -131q-228 0 -360 161t-92 389q40 227 229 388t417 161q227 0 360 -161q127 -155 95 -371h6q-72 -353 -271.5 -577 t-482.5 -488q-16 -16 -32 -31h-124q24 25 51 50q315 294 507 513q41 46 76 97z" />
<glyph unicode=":" horiz-adv-x="430" d="M303 139q22 -26 16 -63q-7 -38 -38 -64t-68 -26t-59 26t-15 64q6 37 37 63t68 26t59 -26zM412 756q22 -26 15 -63q-6 -38 -37 -64t-68 -26t-59 26t-16 64q7 37 38 63t68 26t59 -26z" />
<glyph unicode=";" horiz-adv-x="477" d="M381 166l-253 -385h-84l171 385h166zM411.5 756q21.5 -26 15.5 -63q-7 -38 -38 -64t-68 -26t-59 26t-15 64q6 37 37.5 63t68.5 26t58.5 -26z" />
<glyph unicode="&#x3c;" horiz-adv-x="1349" d="M1249 145l-1149 418l1149 418v-96l-886 -322l886 -322v-96z" />
<glyph unicode="=" horiz-adv-x="1050" d="M125 797h800v-90h-800v90zM125 477h800v-90h-800v90z" />
<glyph unicode="&#x3e;" horiz-adv-x="1349" d="M100 241l886 322l-886 322v96l1149 -418l-1149 -418v96z" />
<glyph unicode="?" horiz-adv-x="956" d="M494 589q-54 -82 -69 -166q-11 -64 0 -129l-88 -29q-14 80 0 158q18 104 85 204q109 167 292 289q111 92 167 178q36 53 45 108q7 41 1 82q-18 98 -103 143q-49 25 -103 25q-41 0 -85 -15q-103 -34 -165 -126q-34 -52 -43 -105l-87 4l1 8q12 65 55 129q84 127 224 173 q62 20 118 20q74 0 140 -34q115 -61 138 -192q10 -57 0 -113q-13 -74 -61 -146q-83 -127 -244 -237q-136 -103 -218 -229zM414 139q22 -26 16 -63q-7 -38 -38 -64t-68 -26t-59 26t-15 64q6 37 37 63t68 26t59 -26z" />
<glyph unicode="@" horiz-adv-x="1626" d="M1174 483l23 132q-4 75 -51 132q-67 83 -183 83t-212 -82.5t-117 -199.5q-20 -115 47 -197t183 -82t212 82q67 57 98 132zM1142 313q-144 -127 -295 -127q-150 0 -238 107t-62 255q27 151 152.5 258t275.5 107q151 0 250 -127l20 114h81l-114 -648q10 -43 47 -43 q44 0 141.5 110.5t118.5 227.5q44 251 -103 429.5t-398 178.5t-460 -178.5t-253 -429.5t102 -428.5t397 -177.5q172 0 260 49l46 -60q-132 -70 -320 -70q-284 0 -451 202t-117 485q50 284 288 486.5t522 202.5q285 0 450.5 -202.5t115.5 -486.5q-22 -127 -140.5 -272 t-230.5 -145q-13 0 -24 2q-83 18 -76 100z" />
<glyph unicode="A" horiz-adv-x="1291" d="M1014 703l-126 671l-362 -671h488zM1031 613h-554l-331 -613h-96l885 1637l306 -1637h-95z" />
<glyph unicode="B" horiz-adv-x="1066" d="M716 1600q123 0 195 -87t51 -210q-22 -124 -168 -231q108 -23 188 -132q131 -161 91 -389q-40 -227 -229 -393q-176 -154 -384 -157v-1h-310l282 1600h284zM417 1005l-161 -915h220v-1q169 11 312 137q157 137 190 325t-76.5 321t-297.5 133h-187zM506 1510l-72 -409h217 q76 7 138 56q71 56 87 146t-35 148.5t-141 58.5h-194z" />
<glyph unicode="C" horiz-adv-x="1595" d="M1472 255l57 -61q-271 -213 -588 -213q-340 0 -537.5 239.5t-137.5 579.5q60 339 341.5 579t621.5 240q317 0 514 -213l-79 -62q-174 183 -451 183q-301 0 -551.5 -213t-303.5 -514q-53 -302 122.5 -515t476.5 -213q277 0 515 183z" />
<glyph unicode="D" horiz-adv-x="1199" d="M506 1506l-250 -1413h7q356 0 581 192q251 213 304 515q53 301 -122 515q-157 191 -513 191h-7zM522 1598h7q395 0 573 -218q198 -241 138 -580q-60 -340 -342 -580q-256 -218 -651 -218h-7v-2h-90l282 1600h90v-2z" />
<glyph unicode="E" horiz-adv-x="1075" d="M1232 1600l-16 -90h-710l-117 -665h710l-16 -90h-710l-117 -665h710l-16 -90h-800l282 1600h800z" />
<glyph unicode="F" horiz-adv-x="975" d="M1132 1600l-16 -90h-610l-117 -665h610l-16 -90h-610l-133 -755h-90l282 1600h700z" />
<glyph unicode="G" horiz-adv-x="1620" d="M1524 199q-266 -218 -583 -218q-340 0 -537.5 239.5t-137.5 579.5q60 339 341.5 579t621.5 240q317 0 514 -213l-79 -62q-174 183 -451 183q-301 0 -551.5 -213t-303.5 -514q-53 -302 122.5 -515t476.5 -213q258 0 483 159l86 488h90z" />
<glyph unicode="H" horiz-adv-x="1150" d="M366 717l-126 -717h-90l282 1600h90l-140 -793h670l140 793h90l-282 -1600h-90l126 717h-670z" />
<glyph unicode="I" horiz-adv-x="430" d="M542 1600l-282 -1600h-90l282 1600h90z" />
<glyph unicode="J" horiz-adv-x="857" d="M756 304q-27 -152 -121 -232q-100 -86 -221 -86t-191 85.5t-52 187.5l63 23q1 -108 56 -162q46 -46 114 -46q12 0 26 2q83 0 153 59q62 53 85 179l226 1286h90z" />
<glyph unicode="K" horiz-adv-x="1097" d="M377 775l-137 -775h-90l282 1600h90l-120 -681l631 681h116l-593 -644l451 -956h-111l-412 884z" />
<glyph unicode="L" horiz-adv-x="950" d="M150 0l282 1600h90l-266 -1510h620l-16 -90h-710z" />
<glyph unicode="M" horiz-adv-x="1707" d="M535 1600l418 -1040l783 1040h103l-5 -7l-281 -1593h-90l253 1437l-794 -1054l-425 1054l-253 -1437h-90l281 1593l-3 7h103z" />
<glyph unicode="N" horiz-adv-x="1311" d="M432 1600h99l571 -1423l251 1423h90l-282 -1600h-90l-578 1437l-253 -1437h-90z" />
<glyph unicode="O" horiz-adv-x="1892" d="M1770 1382.5q198 -240.5 138 -580.5t-343 -580.5t-623 -240.5t-538 240.5t-138 580.5t343 580.5t623 240.5t538 -240.5zM1215 1531q-302 0 -553 -213.5t-304 -515.5t122.5 -516t477.5 -214t553.5 214t304.5 516t-123 515.5t-478 213.5z" />
<glyph unicode="P" horiz-adv-x="1089" d="M338 555l-98 -555h-90l282 1600h420q179 -25 284 -153q126 -153 88 -369q-38 -217 -218 -370t-396 -153h-272zM506 1509l-152 -863h272q178 0 327 126.5t180 305.5q32 179 -72.5 305t-282.5 126h-272z" />
<glyph unicode="Q" horiz-adv-x="1892" d="M1215 1531q-302 0 -553 -213.5t-304 -515.5t122.5 -516t477.5 -214t553.5 214t304.5 516t-123 515.5t-478 213.5zM933 -19q-333 3 -528 241q-199 240 -139 580t343 580.5t623 240.5t538 -240.5t138 -580.5t-342 -580q-205 -174 -438 -222q4 -2 9 -3q69 -20 180 -98 q76 -45 108 -55q20 -6 40 -6q36 0 73 19q59 30 85 88q8 16 11 32h91q-6 -27 -19 -55q-44 -94 -137 -142q-60 -31 -118 -31q-33 0 -65 10q-57 16 -155 86q-92 54 -133 66q-28 8 -56 8q-50 0 -100 -26q-82 -42 -118 -123q-6 -12 -9 -24h-91q6 24 17 49q54 116 170 176z" />
<glyph unicode="R" horiz-adv-x="1089" d="M506 1509l-152 -863h272q178 0 327 126.5t180 305.5q32 179 -72.5 305t-282.5 126h-272zM637 556q-13 -1 -27 -1h-272l-98 -555h-90l282 1600h420q179 -25 284 -153q126 -153 88 -369q-38 -217 -218 -370q-125 -106 -268 -139l269 -569h-111z" />
<glyph unicode="S" horiz-adv-x="1042" d="M704 886q-161 57 -242.5 156t-56.5 240q24 138 141 237.5t258 99.5q140 0 222 -99q46 -53 55 -119l-87 -32q-9 49 -43 90q-60 72 -163 72t-189 -72.5t-104 -176.5q-18 -103 42 -176q56 -67 166 -123q181 -62 289 -193q115 -138 80 -334q-34 -197 -197.5 -336t-359.5 -139 t-311 140q-91 111 -87 258l90 31q-9 -130 71 -227q93 -113 252 -113q160 0 293 113t161 273q29 159 -65 272q-81 99 -215 158z" />
<glyph unicode="T" horiz-adv-x="1000" d="M811 1510l-266 -1510h-90l266 1510h-405l16 90h900l-16 -90h-405z" />
<glyph unicode="U" horiz-adv-x="1345" d="M1386 1600h91l-203 -1150q-57 -183 -208 -311q-180 -153 -396 -153q-217 0 -343 153t-88 369l193 1092h91l-193 -1092q-31 -178 73 -304.5t283 -126.5t327.5 126.5t179.5 304.5z" />
<glyph unicode="V" horiz-adv-x="1291" d="M427 1600l258 -1374l742 1374h96l-885 -1637l-306 1637h95z" />
<glyph unicode="W" horiz-adv-x="1672" d="M834 240l239 1360h90l-239 -1360q15 -43 43 -77q75 -87 199 -87t230 88.5t128 213.5l215 1222h90l-216 -1230q-31 -156 -163 -268q-136 -116 -300 -116q-163 0 -259 115q-17 20 -30 41q-19 -21 -44 -41q-136 -115 -299 -115q-164 0 -259 116q-93 112 -68 268l216 1230h90 l-215 -1222q-22 -125 53 -213.5t199 -88.5t229 87q40 34 71 77z" />
<glyph unicode="X" horiz-adv-x="1218" d="M50 0l662 879l-289 721h103l253 -632l477 632h103l-545 -721l354 -879h-103l-318 790l-595 -790h-102z" />
<glyph unicode="Y" horiz-adv-x="1291" d="M714 647l-382 953h103l342 -853l643 853h103l-719 -953l-114 -647h-90z" />
<glyph unicode="Z" horiz-adv-x="1327" d="M1288 1510h-872l16 90h1027l-1139 -1510h873l-16 -90h-1027z" />
<glyph unicode="[" horiz-adv-x="560" d="M165 -285h220l-16 -90h-310l348 1975h310l-16 -90h-220z" />
<glyph unicode="\" horiz-adv-x="727" d="M777 0h-102l-443 1600h103z" />
<glyph unicode="]" horiz-adv-x="560" d="M611 1510h-220l16 90h310l-348 -1975h-310l16 90h220z" />
<glyph unicode="^" horiz-adv-x="921" d="M513 1600l308 -534h-104l-256 443l-256 -443h-105l309 534h104z" />
<glyph unicode="_" horiz-adv-x="1050" d="M20 -30h1000l-16 -90h-1000z" />
<glyph unicode="`" horiz-adv-x="629" d="M543 1287l130 -187h-84l-212 187h166z" />
<glyph unicode="a" horiz-adv-x="1360" d="M1210 0h-90l35 200q-32 -35 -68 -67q-190 -161 -418 -161q-227 0 -359.5 161t-92.5 388q40 228 229.5 389t416.5 161q228 0 361 -161q25 -32 45 -67l24 139h90zM1196 432l32 178q-2 132 -84 232q-110 133 -298 133t-344.5 -133t-189.5 -321t76.5 -320.5t297.5 -132.5 t345 133q117 100 165 231z" />
<glyph unicode="b" horiz-adv-x="1359" d="M432 1600h90l-133 -756q31 34 68 66q190 161 417 161q228 0 360 -161t92 -389q-40 -227 -229 -388t-417 -161q-227 0 -360 161q-26 32 -45 66l-35 -199h-90zM348 615l-33 -188q4 -128 84 -226q110 -133 298 -133t344.5 132.5t189.5 320.5t-76.5 321t-297.5 133t-345 -133 q-115 -98 -164 -227z" />
<glyph unicode="c" horiz-adv-x="1177" d="M1034 236l89 -34q-33 -36 -71 -69q-190 -161 -418 -161q-227 0 -359.5 161t-92.5 389q40 227 229.5 388t416.5 161q228 0 361 -161q27 -33 47 -68l-102 -35q-11 18 -25 36q-110 132 -298 132q-187 0 -343.5 -132.5t-189.5 -320.5t76.5 -321t296.5 -133q188 0 345 133 q20 17 38 35z" />
<glyph unicode="d" horiz-adv-x="1360" d="M1210 0h-90l35 200q-32 -35 -68 -67q-190 -161 -418 -161q-227 0 -359.5 161t-92.5 388q40 228 229.5 389t416.5 161q228 0 361 -161q25 -32 45 -67l133 757h90zM1196 432l32 178q-2 132 -84 232q-110 133 -298 133t-344.5 -133t-189.5 -321t76.5 -320.5t297.5 -132.5 t345 133q117 100 165 231z" />
<glyph unicode="e" horiz-adv-x="1177" d="M370 184q106 -116 281 -116q188 0 345 133q20 17 38 35l89 -34q-33 -36 -71 -69q-190 -161 -418 -161q-227 0 -359.5 161t-92.5 389q40 227 229.5 388t416.5 161q195 0 320 -117q21 -20 41 -44q7 -9 13 -18l-80 -68zM1067 885q-101 90 -256 90q-187 0 -343.5 -132.5 t-189.5 -320.5q-27 -155 42 -272z" />
<glyph unicode="f" horiz-adv-x="523" d="M437 892l-157 -892h-90l157 892h-100l16 90h100l47 266q26 111 119 191q95 76 202 76q56 0 114 -21l-42 -80q-38 18 -77 18q-71 0 -145 -57q-65 -55 -82 -133l-46 -260h200l-16 -90h-200z" />
<glyph unicode="g" horiz-adv-x="1364" d="M1228 615q-4 129 -84 227q-110 133 -298 133t-344.5 -133t-189.5 -321t76.5 -321t297.5 -133t344 133q115 97 164 225zM1152 195q-31 -32 -65 -62q-190 -161 -418 -161q-227 0 -359.5 161t-92.5 388q40 228 229.5 388.5t416.5 160.5q228 0 361 -160q25 -32 45 -67l24 139 h90l-134 -763q-39 -221 -224 -378q-189 -161 -416 -161q-228 0 -361 161q-27 33 -47 69l101 34q12 -18 26 -35q110 -133 298 -133q187 0 343 133q142 121 183 286z" />
<glyph unicode="h" horiz-adv-x="1059" d="M432 1600h90l-118 -669q134 110 294 110q174 0 263.5 -109t63.5 -275l-116 -657h-90l114 649q22 125 -52.5 213.5t-198.5 88.5t-230 -87q-47 -40 -74 -83l-138 -781h-90z" />
<glyph unicode="i" horiz-adv-x="430" d="M433 982l-173 -982h-90l173 982h90zM508.5 1304q21.5 -26 15.5 -63q-7 -38 -38 -64t-68 -26t-59 26t-15 64q6 37 37.5 63t68.5 26t58.5 -26z" />
<glyph unicode="j" horiz-adv-x="455" d="M25 -138q123 14 145 136l173 984h90l-173 -982q-37 -211 -251 -228zM509 1304q22 -26 15 -63q-7 -38 -38 -64t-68 -26t-59 26t-15 64q7 37 38 63t68 26t59 -26z" />
<glyph unicode="k" horiz-adv-x="823" d="M802 982l-295 -300l266 -682h-112l-225 610l-108 -109l-88 -501h-90l247 1400h90l-133 -755l332 337h116z" />
<glyph unicode="l" horiz-adv-x="390" d="M522 1600l-282 -1600h-90l282 1600h90z" />
<glyph unicode="m" horiz-adv-x="1375" d="M323 982h90l-4 -23q98 81 215 81q121 0 191 -85q19 -23 32 -50q21 26 49 50q100 85 221 85t191 -85q67 -82 51 -197l-134 -758h-90l134 758h1q9 78 -36 133q-49 59 -132 59t-153 -59t-86 -147l-131 -744h-90l134 758h1q9 78 -36 133q-49 59 -132 59t-153 -59 q-61 -51 -81 -125l-135 -766h-90z" />
<glyph unicode="n" horiz-adv-x="1071" d="M375 763l-135 -763h-90l173 982h90l-11 -63q145 122 308 122q174 0 263.5 -109t63.5 -275l-116 -657h-90l114 649q22 125 -52.5 213.5t-198.5 88.5t-230 -87q-57 -49 -89 -101z" />
<glyph unicode="o" horiz-adv-x="1278" d="M828 1071q228 0 360 -161t92 -389q-40 -227 -229 -388t-417 -161q-227 0 -359.5 161t-92.5 388q40 228 229.5 389t416.5 161zM466.5 842q-156.5 -133 -189.5 -321t76.5 -320.5t297.5 -132.5t344.5 132.5t189.5 320.5t-76.5 321t-297.5 133t-344.5 -133z" />
<glyph unicode="p" horiz-adv-x="1334" d="M323 982h90l-24 -138q31 34 69 66q189 160 416 160q228 0 360 -160.5t92 -388.5q-40 -227 -229 -388t-417 -161q-227 0 -359 161q-27 32 -46 66l-101 -574h-90zM349 615l-34 -188q4 -129 84 -227q110 -133 298 -133t344.5 133t189.5 321t-76.5 321t-297.5 133t-344 -133 q-116 -98 -164 -227z" />
<glyph unicode="q" horiz-adv-x="1335" d="M1119 -375h-90l101 575q-32 -35 -68 -67q-190 -161 -418 -161q-227 0 -359.5 161t-92.5 388q40 228 229.5 388.5t416.5 160.5q228 0 361 -160q25 -32 45 -67l24 139h90zM1171 432l32 178q-2 132 -84 232q-110 133 -298 133t-344.5 -133t-189.5 -321t76.5 -321t297.5 -133 t344 133q118 100 166 232z" />
<glyph unicode="r" horiz-adv-x="599" d="M323 982h90l-31 -179q35 40 78 77q140 119 266 125l-17 -98q-86 -4 -193 -95q-150 -127 -187 -305l-89 -507h-90z" />
<glyph unicode="s" horiz-adv-x="802" d="M509 505q-104 62 -140 106q-57 69 -40 166q17 98 98.5 167.5t178.5 69.5q98 0 151 -64q50 -63 36 -143l-1 -5l-83 -31q3 76 -27.5 114t-91.5 38q-60 0 -110.5 -42.5t-61.5 -103.5q-10 -60 25 -103q21 -25 93 -76q115 -70 160 -124q69 -86 49 -205q-22 -122 -122 -207.5 t-221 -85.5t-191 85.5t-52 187.5l93 23q-15 -88 34 -147t132 -59t153 59t85 144q14 83 -34 142q-27 32 -113 94z" />
<glyph unicode="t" horiz-adv-x="670" d="M463 982l74 418h90l-74 -418h200l-16 -90h-200l-157 -892h-90l157 892h-200l16 90h200z" />
<glyph unicode="u" horiz-adv-x="1099" d="M553 -14q-184 0 -274 109t-64 275l109 614h90l-107 -606q-22 -125 53 -213q74 -89 207 -89q124 0 230.5 88.5t128.5 213.5l107 606h90l-109 -614q-32 -166 -160 -275t-301 -109z" />
<glyph unicode="v" horiz-adv-x="1064" d="M561 164l522 818h104l-660 -1009l-304 1009h104z" />
<glyph unicode="w" horiz-adv-x="1375" d="M688 260l127 722h90l-123 -700q-16 -88 33 -147t132 -59t154 59q65 55 82 133h-1l126 714h90l-126 -714q-24 -115 -119 -196q-100 -86 -221 -86t-191 86q-19 23 -32 48q-21 -25 -49 -48q-100 -86 -221 -86t-191 86q-67 81 -51 196l126 714h90l-126 -714h-1 q-9 -78 37 -133q48 -59 131 -59t154 59q60 51 80 125z" />
<glyph unicode="x" horiz-adv-x="871" d="M914 982l-330 -438l-4 -5l2 -5l214 -534h-104l-178 443l-334 -443h-105l403 534l4 5l-2 5l-176 438h104l140 -347l261 347h105z" />
<glyph unicode="y" horiz-adv-x="1005" d="M519 88l-304 -463h-88l363 556l-242 801h102l202 -704l450 704h101l-585 -895z" />
<glyph unicode="z" horiz-adv-x="1000" d="M812 878h-507l16 90h662l-68 -90l-595 -788h546l-16 -90h-700l68 90z" />
<glyph unicode="{" horiz-adv-x="866" d="M240 653q9 -3 20 -3q46 0 131 44q126 66 185 195q32 72 46 152q7 44 10 90q-2 72 9 135q12 67 39 126q49 112 163 170q71 38 142 38q19 0 38 -3l-13 -75q-18 3 -36 3q-52 0 -106 -27q-82 -43 -119 -126q-25 -55 -37 -125q-5 -30 -8 -64q2 -76 -11 -149q-15 -85 -50 -165 q-71 -158 -227 -239q-18 -9 -38 -17q17 -9 32 -18q127 -81 143 -239q7 -80 -8 -165q-13 -73 -42 -149q-9 -34 -15 -64q-12 -70 -7 -125q8 -83 75 -125q46 -28 99 -28q16 0 34 2l-13 -74q-20 -3 -39 -3q-71 0 -129 38q-93 58 -103 171q-6 59 6 126q11 63 38 134q14 46 22 90 q14 80 7 152q-13 129 -116 195q-69 44 -115 44q-11 0 -21 -3z" />
<glyph unicode="|" horiz-adv-x="390" d="M522 1600l-348 -1975h-90l348 1975h90z" />
<glyph unicode="}" horiz-adv-x="866" d="M841 572q-8 3 -19 3q-46 0 -131 -44q-126 -66 -185 -195q-32 -72 -46 -152q-8 -44 -10 -90q2 -71 -9 -134q-12 -67 -39 -126q-50 -113 -163 -171q-72 -38 -143 -38q-19 0 -37 3l13 74q17 -2 33 -2q53 0 109 28q82 42 119 125q24 55 37 125q5 30 8 64q-3 76 10 149 q15 85 50 165q72 158 228 239q18 9 38 18q-17 8 -32 17q-127 81 -143 239q-7 80 8 165q13 73 42 149q9 34 14 64q13 70 8 125q-8 83 -75 126q-45 27 -97 27q-18 0 -36 -3l13 75q20 3 39 3q71 0 129 -38q93 -58 103 -170q6 -59 -6 -126q-11 -63 -38 -135q-14 -46 -22 -90 q-14 -80 -8 -152q14 -129 117 -195q69 -44 115 -44q11 0 21 3z" />
<glyph unicode="~" horiz-adv-x="1277" d="M638 861q188 -109 273 -109q15 0 27 3q77 23 108 100q15 38 15 77l91 -14q-4 -48 -23 -97q-46 -111 -156 -148q-25 -8 -56 -8q-105 0 -278 99q-190 109 -274 109q-14 0 -26 -3q-77 -23 -108 -100q-15 -39 -16 -77l-90 14q2 48 22 97q46 111 157 148q25 8 55 8 q106 0 279 -99z" />
<glyph unicode="&#xa2;" horiz-adv-x="1013" d="M676 705q143 2 264 105q15 13 34 31l81 -32q-32 -35 -63 -62q-152 -129 -332 -131l-27 -154h-90l28 161q-127 23 -209 124q-108 130 -75 315q32 184 186 315q118 100 253 124l28 161h90l-27 -154q180 -2 286 -131q21 -27 41 -61l-92 -33q-12 18 -23 32q-85 102 -227 104z M710 1410q-99 -22 -185 -95q-123 -105 -149 -253t60 -252q60 -74 151 -96z" />
<glyph unicode="&#xa3;" horiz-adv-x="1130" d="M546 555q0 -21 -2 -43t-6 -44q-36 -204 -241 -405q133 45 254 45q72 0 140 -16q95 -23 184 -23q80 0 154 18l1 -89q-84 -20 -171 -20q-89 0 -180 22q-94 21 -169 21q-68 0 -120 -17q-111 -38 -217 -87l-69 103q143 110 182 149q131 128 160 292q4 22 6 44q2 25 2 50h-228 l16 90h209q-9 95 -41 189q-80 180 -65 343q1 19 5 38q24 139 136 249q124 123 290 138q19 1 38 1q139 0 234 -92q105 -105 92 -267q-1 -23 -5 -44q-11 -63 -42 -114l-81 29q23 43 32 95l4 28q9 123 -71 203q-72 70 -178 70q-14 0 -28 -1q-126 -11 -223 -106 q-85 -84 -103 -189q-3 -15 -5 -30q-10 -113 33 -256q62 -138 72 -284h197l-16 -90h-180z" />
<glyph unicode="&#xa5;" horiz-adv-x="1291" d="M783 755l637 845h103l-638 -845h294l-16 -90h-346l-13 -18l-18 -102h356l-16 -90h-356l-80 -455h-90l80 455h-354l16 90h354l18 102l-7 18h-344l16 90h292l-339 845h103l338 -845h10z" />
<glyph unicode="&#xa8;" horiz-adv-x="730" d="M508 1304q22 -26 16 -63q-7 -38 -38 -64t-68 -26t-59 26t-15 64q6 37 37 63t68 26t59 -26zM808 1304q22 -26 16 -63q-7 -38 -38 -64t-68 -26t-59 26t-15 64q6 37 37 63t68 26t59 -26z" />
<glyph unicode="&#xa9;" horiz-adv-x="1405" d="M917 442l68 -25q-20 -28 -40 -48q-97 -97 -234 -97t-234 97t-97 234t97 234t234 97t234 -97q20 -20 40 -48l-68 -25q-11 14 -21 25q-77 76 -185 76t-185 -76.5t-77 -185.5q0 -108 77 -185t185 -77t185 77q10 10 21 24zM1124 1028q176 -176 176 -425t-176 -425t-424 -176 q-249 0 -425 176t-176 425t176 425t425 176q248 0 424 -176zM700 1133q-220 0 -375 -155t-155 -375q0 -219 155 -374.5t375 -155.5q219 0 374 155.5t155 374.5q0 220 -155 375t-374 155z" />
<glyph unicode="&#xab;" horiz-adv-x="980" d="M525 462l517 460l-18 -104l-394 -356l268 -356l-18 -105zM181 462l510 460l-18 -104l-394 -356l268 -356l-18 -105z" />
<glyph unicode="&#xad;" horiz-adv-x="840" d="M237 637h590l-16 -90h-590z" />
<glyph unicode="&#xae;" horiz-adv-x="1161" d="M467 1371v-378h116q78 0 133.5 55.5t55.5 133.5t-55.5 133.5t-133.5 55.5h-116zM730 721l-138 215h-125v-155h-55v644h198q86 -12 146 -72q71 -71 71 -172q0 -102 -71 -174q-50 -49 -104 -62l130 -200q53 30 98 74q124 125 124 300q0 176 -124 300t-299 124 q-176 0 -300 -124t-124 -300q0 -175 124 -300q59 -58 129 -89q28 -13 58 -21q53 -14 113 -14q78 0 149 26zM581 638q-200 0 -340.5 141t-140.5 340t140.5 340t340.5 141q198 0 339 -141t141 -340t-141 -340q-49 -49 -137.5 -95t-201.5 -46z" />
<glyph unicode="&#xb4;" horiz-adv-x="629" d="M688 1187l-278 -187h-84l196 187h166z" />
<glyph unicode="&#xb8;" horiz-adv-x="582" d="M299 0l-19 -35q108 0 126 -42q7 -20 4 -41q-5 -25 -24 -53q-37 -53 -86 -69q-41 -13 -84 -13h-16q-52 3 -78 23l48 37q10 -4 32 -6h9q20 0 44 6q29 8 46 31q8 13 10 23q2 9 -1 16q-20 28 -51 32q-12 1 -29 1q-29 0 -75 -4l74 94h70z" />
<glyph unicode="&#xbb;" horiz-adv-x="980" d="M100 1l19 105l393 356l-268 356l18 104l355 -460zM451 1l19 105l393 356l-268 356l18 104l348 -460z" />
<glyph unicode="&#xd3;" horiz-adv-x="1892" d="M1770 1382.5q198 -240.5 138 -580.5t-343 -580.5t-623 -240.5t-538 240.5t-138 580.5t343 580.5t623 240.5t538 -240.5zM1215 1531q-302 0 -553 -213.5t-304 -515.5t122.5 -516t477.5 -214t553.5 214t304.5 516t-123 515.5t-478 213.5zM1492 1855l-278 -187h-84l196 187 h166z" />
<glyph unicode="&#xf3;" horiz-adv-x="1278" d="M828 1071q228 0 360 -161t92 -389q-40 -227 -229 -388t-417 -161q-227 0 -359.5 161t-92.5 388q40 228 229.5 389t416.5 161zM466.5 842q-156.5 -133 -189.5 -321t76.5 -320.5t297.5 -132.5t344.5 132.5t189.5 320.5t-76.5 321t-297.5 133t-344.5 -133zM1085 1287 l-278 -187h-84l196 187h166z" />
<glyph unicode="&#x104;" horiz-adv-x="1291" d="M1014 703l-126 671l-362 -671h488zM1141 29l-110 584h-554l-331 -613h-96l885 1637l306 -1637h-31q-58 -23 -88 -49q-35 -29 -42 -70v-2q-7 -43 17 -73q25 -29 63 -29q37 0 84 32l15 -53l-5 -3q-45 -39 -105 -39h-3q-63 0 -102 47q-40 48 -28 116l1 1q13 69 69 117 q27 23 55 34z" />
<glyph unicode="&#x105;" horiz-adv-x="1360" d="M1196 432l32 178q-2 132 -84 232q-110 133 -298 133t-344.5 -133t-189.5 -321t76.5 -320.5t297.5 -132.5t345 133q117 100 165 231zM1126 34l29 166q-32 -35 -68 -67q-190 -161 -418 -161q-227 0 -359.5 161t-92.5 388q40 228 229.5 389t416.5 161q228 0 361 -161 q25 -32 45 -67l24 139h90l-173 -982h-31q-58 -23 -87 -49q-36 -29 -43 -70v-2q-7 -43 17 -73q25 -29 63 -29q37 0 84 32l15 -53l-4 -3q-46 -39 -106 -39h-3q-63 0 -102 47q-40 48 -28 116l2 1q12 69 68 117q34 29 71 39z" />
<glyph unicode="&#x106;" horiz-adv-x="1595" d="M1472 255l57 -61q-271 -213 -588 -213q-340 0 -537.5 239.5t-137.5 579.5q60 339 341.5 579t621.5 240q317 0 514 -213l-79 -62q-174 183 -451 183q-301 0 -551.5 -213t-303.5 -514q-53 -302 122.5 -515t476.5 -213q277 0 515 183zM1506 1855l-278 -187h-84l196 187h166z " />
<glyph unicode="&#x107;" horiz-adv-x="1177" d="M1034 236l89 -34q-33 -36 -71 -69q-190 -161 -418 -161q-227 0 -359.5 161t-92.5 389q40 227 229.5 388t416.5 161q228 0 361 -161q27 -33 47 -68l-102 -35q-11 18 -25 36q-110 132 -298 132q-187 0 -343.5 -132.5t-189.5 -320.5t76.5 -321t296.5 -133q188 0 345 133 q20 17 38 35zM1105 1287l-278 -187h-84l196 187h166z" />
<glyph unicode="&#x118;" horiz-adv-x="1075" d="M546 0h-396l282 1600h800l-16 -90h-710l-117 -665h710l-16 -90h-710l-117 -665h710l-16 -90h-344q-20 -40 -25 -68q-8 -43 17 -72.5t67 -29.5q43 0 73.5 26.5t47.5 79.5l51 -21v-2q-10 -57 -61 -101q-53 -46 -122 -46q-68 0 -107.5 49t-27.5 117q7 38 27 68z" />
<glyph unicode="&#x119;" horiz-adv-x="1266" d="M323 663h862q-14 103 -76 179q-110 133 -298 133t-344 -133q-94 -80 -144 -179zM576 -25q-186 18 -301 158q-133 161 -93 388q40 228 229.5 389t416.5 161q228 0 361 -161q116 -143 88 -338l-988 1q-7 -25 -12 -52q-33 -188 76.5 -320.5t297.5 -132.5t345 133 q27 23 51 48l90 -34q-22 -28 -85 -82q-189 -160 -415 -161q-10 -23 -13 -41q-7 -42 17.5 -72t66.5 -30q43 0 73.5 26.5t47.5 80.5l51 -22v-2q-10 -57 -61 -101q-53 -45 -122 -45q-68 0 -107.5 48.5t-27.5 116.5q4 23 14 44z" />
<glyph unicode="&#x141;" horiz-adv-x="986" d="M458 787l520 370l-19 -106l-520 -370l-104 -591h610l-16 -90h-701l107 606l-261 -185l19 106l261 186l156 887h91z" />
<glyph unicode="&#x142;" horiz-adv-x="425" d="M309 805l140 795h91l-127 -721l191 137l-18 -106l-192 -137l-136 -773h-91l124 699l-192 -137l19 107z" />
<glyph unicode="&#x143;" horiz-adv-x="1311" d="M432 1600h99l571 -1423l251 1423h90l-282 -1600h-90l-578 1437l-253 -1437h-90zM1193 1805l-278 -187h-84l196 187h166z" />
<glyph unicode="&#x144;" horiz-adv-x="1071" d="M375 763l-135 -763h-90l173 982h90l-11 -63q145 122 308 122q174 0 263.5 -109t63.5 -275l-116 -657h-90l114 649q22 125 -52.5 213.5t-198.5 88.5t-230 -87q-57 -49 -89 -101zM982 1287l-278 -187h-84l196 187h166z" />
<glyph unicode="&#x15a;" horiz-adv-x="1042" d="M704 886q-161 57 -242.5 156t-56.5 240q24 138 141 237.5t258 99.5q140 0 222 -99q46 -53 55 -119l-87 -32q-9 49 -43 90q-60 72 -163 72t-189 -72.5t-104 -176.5q-18 -103 42 -176q56 -67 166 -123q181 -62 289 -193q115 -138 80 -334q-34 -197 -197.5 -336t-359.5 -139 t-311 140q-91 111 -87 258l90 31q-9 -130 71 -227q93 -113 252 -113q160 0 293 113t161 273q29 159 -65 272q-81 99 -215 158zM1062 1825l-278 -187h-84l196 187h166z" />
<glyph unicode="&#x15b;" horiz-adv-x="802" d="M509 505q-104 62 -140 106q-57 69 -40 166q17 98 98.5 167.5t178.5 69.5q98 0 151 -64q50 -63 36 -143l-1 -5l-83 -31q3 76 -27.5 114t-91.5 38q-60 0 -110.5 -42.5t-61.5 -103.5q-10 -60 25 -103q21 -25 93 -76q115 -70 160 -124q69 -86 49 -205q-22 -122 -122 -207.5 t-221 -85.5t-191 85.5t-52 187.5l93 23q-15 -88 34 -147t132 -59t153 59t85 144q14 83 -34 142q-27 32 -113 94zM838 1207l-278 -187h-84l196 187h166z" />
<glyph unicode="&#x179;" horiz-adv-x="1327" d="M1288 1510h-872l16 90h1027l-1139 -1510h873l-16 -90h-1027zM1201 1805l-278 -187h-84l196 187h166z" />
<glyph unicode="&#x17a;" horiz-adv-x="1000" d="M812 878h-507l16 90h662l-68 -90l-595 -788h546l-16 -90h-700l68 90zM928 1187l-278 -187h-84l196 187h166z" />
<glyph unicode="&#x17b;" horiz-adv-x="1327" d="M1288 1510h-872l16 90h1027l-1139 -1510h873l-16 -90h-1027zM1034.5 1799q18.5 -22 13.5 -54q-6 -32 -32.5 -54t-57.5 -22q-32 0 -50.5 22t-12.5 54q5 32 31.5 54t58.5 22q31 0 49.5 -22z" />
<glyph unicode="&#x17c;" horiz-adv-x="1000" d="M812 878h-507l16 90h662l-68 -90l-595 -788h546l-16 -90h-700l68 90zM762.5 1181q18.5 -22 13.5 -54q-6 -32 -32.5 -54t-57.5 -22q-32 0 -50.5 22t-12.5 54q5 32 31.5 54t58.5 22q31 0 49.5 -22z" />
<glyph unicode="&#x2c6;" horiz-adv-x="811" d="M670 1224l197 -234h-104l-161 143l-201 -143h-105l270 234h104z" />
<glyph unicode="&#x2da;" horiz-adv-x="762" d="M685.5 1226q29.5 -36 20.5 -87q-9 -50 -51.5 -86t-93.5 -36t-80.5 36t-20.5 86q9 51 51.5 87t93.5 36t80.5 -36zM593 1197q-24 0 -44 -17t-24 -41q-4 -23 10 -40t38 -17q23 0 43 17t24 40q4 24 -10 41t-37 17z" />
<glyph unicode="&#x2dc;" horiz-adv-x="825" d="M611 1155q64 -60 113 -60h5q51 3 85 84h69q-44 -129 -126 -152q-22 -6 -43 -6q-57 0 -107 46q-64 59 -113 59h-5q-51 -3 -85 -84h-70q45 129 127 152q22 6 43 6q57 0 107 -45z" />
<glyph unicode="&#x2000;" horiz-adv-x="927" />
<glyph unicode="&#x2001;" horiz-adv-x="1855" />
<glyph unicode="&#x2002;" horiz-adv-x="927" />
<glyph unicode="&#x2003;" horiz-adv-x="1855" />
<glyph unicode="&#x2004;" horiz-adv-x="618" />
<glyph unicode="&#x2005;" horiz-adv-x="463" />
<glyph unicode="&#x2006;" horiz-adv-x="309" />
<glyph unicode="&#x2007;" horiz-adv-x="309" />
<glyph unicode="&#x2008;" horiz-adv-x="231" />
<glyph unicode="&#x2009;" horiz-adv-x="371" />
<glyph unicode="&#x200a;" horiz-adv-x="103" />
<glyph unicode="&#x2010;" horiz-adv-x="840" d="M237 637h590l-16 -90h-590z" />
<glyph unicode="&#x2011;" horiz-adv-x="840" d="M237 637h590l-16 -90h-590z" />
<glyph unicode="&#x2012;" horiz-adv-x="840" d="M237 637h590l-16 -90h-590z" />
<glyph unicode="&#x2013;" horiz-adv-x="871" d="M162 637h771l-16 -90h-771z" />
<glyph unicode="&#x2014;" horiz-adv-x="1507" d="M162 637h1407l-16 -90h-1407z" />
<glyph unicode="&#x2018;" horiz-adv-x="280" d="M421 1461q22 -5 37 -23q21 -26 15 -64q-7 -37 -38 -63t-68 -26t-59 26t-15 63q3 21 13 39l133 198h65z" />
<glyph unicode="&#x2019;" horiz-adv-x="280" d="M370 1435q-22 5 -35 23q-23 26 -16 64q6 37 37 63t68 26t59 -26t16 -63q-4 -21 -14 -39l-133 -198h-65z" />
<glyph unicode="&#x201a;" horiz-adv-x="280" d="M114 -13q-22 5 -35 23q-23 26 -16 64q6 37 37 63t68 26t59 -26t16 -63q-4 -21 -14 -39l-133 -198h-65z" />
<glyph unicode="&#x201c;" horiz-adv-x="532" d="M421 1461q22 -5 37 -23q21 -26 15 -64q-7 -37 -38 -63t-68 -26t-59 26t-15 63q3 21 13 39l133 198h65zM673 1461q22 -5 37 -23q21 -26 15 -64q-7 -37 -38 -63t-68 -26t-59 26t-15 63q3 21 13 39l133 198h65z" />
<glyph unicode="&#x201d;" horiz-adv-x="532" d="M370 1435q-22 5 -35 23q-23 26 -16 64q6 37 37 63t68 26t59 -26t16 -63q-4 -21 -14 -39l-133 -198h-65zM622 1435q-22 5 -35 23q-23 26 -16 64q6 37 37 63t68 26t59 -26t16 -63q-4 -21 -14 -39l-133 -198h-65z" />
<glyph unicode="&#x201e;" horiz-adv-x="532" d="M114 -13q-22 5 -35 23q-23 26 -16 64q6 37 37 63t68 26t59 -26t16 -63q-4 -21 -14 -39l-133 -198h-65zM366 -13q-22 5 -35 23q-23 26 -16 64q6 37 37 63t68 26t59 -26t16 -63q-4 -21 -14 -39l-133 -198h-65z" />
<glyph unicode="&#x2026;" horiz-adv-x="2148" d="M278 139q22 -26 16 -63q-7 -38 -38 -64t-68 -26t-59 26t-15 64q6 37 37 63t68 26t59 -26zM961 139q22 -26 16 -63q-7 -38 -38 -64t-68 -26t-59 26t-15 64q6 37 37 63t68 26t59 -26zM1644 139q22 -26 16 -63q-7 -38 -38 -64t-68 -26t-59 26t-15 64q6 37 37 63t68 26 t59 -26z" />
<glyph unicode="&#x202f;" horiz-adv-x="371" />
<glyph unicode="&#x2039;" horiz-adv-x="629" d="M181 462l510 460l-18 -104l-394 -356l268 -356l-18 -105z" />
<glyph unicode="&#x203a;" horiz-adv-x="629" d="M100 1l19 105l393 356l-268 356l18 104l348 -460z" />
<glyph unicode="&#x205f;" horiz-adv-x="463" />
<glyph unicode="&#x20ac;" horiz-adv-x="1450" d="M424 885l29 166q40 227 229.5 388t416.5 161q228 0 360 -161l-79 -67q-110 132 -298 132t-344.5 -132.5t-189.5 -320.5l-29 -166h657l-34 -90h-639l-21 -120h615l-34 -90h-597l-11 -64q-33 -188 76.5 -320.5t297.5 -132.5t344 133q97 82 147 185h98q-59 -142 -190 -253 q-188 -161 -416 -161q-227 0 -359.5 161t-92.5 388l11 64h-168l34 90h150l21 120h-126l34 90h108z" />
<glyph unicode="&#x2122;" horiz-adv-x="1251" d="M497 1556h-158v-604h-57v604h-182v52h453l267 -409l266 409h65l-9 -13v-643h-56v556l-266 -410l-267 410v-556h-56v604z" />
<glyph unicode="&#xe000;" horiz-adv-x="980" d="M0 980h980v-980h-980v980z" />
<hkern u1="&#x20;" u2="&#x201c;" k="100" />
<hkern u1="&#x20;" u2="&#x2018;" k="100" />
<hkern u1="&#x20;" u2="Y" k="60" />
<hkern u1="&#x20;" u2="W" k="25" />
<hkern u1="&#x20;" u2="V" k="80" />
<hkern u1="&#x20;" u2="T" k="25" />
<hkern u1="&#x20;" u2="A" k="20" />
<hkern u1="&#x2c;" u2="&#x201d;" k="100" />
<hkern u1="&#x2c;" u2="&#x2019;" k="100" />
<hkern u1="&#x2c;" u2="&#x20;" k="70" />
<hkern u1="&#x2d;" u2="x" k="73" />
<hkern u1="&#x2d;" u2="w" k="73" />
<hkern u1="&#x2d;" u2="v" k="73" />
<hkern u1="&#x2d;" u2="t" k="36" />
<hkern u1="&#x2d;" u2="j" k="-38" />
<hkern u1="&#x2d;" u2="Y" k="112" />
<hkern u1="&#x2d;" u2="X" k="73" />
<hkern u1="&#x2d;" u2="W" k="112" />
<hkern u1="&#x2d;" u2="V" k="112" />
<hkern u1="&#x2d;" u2="T" k="112" />
<hkern u1="&#x2d;" u2="S" k="73" />
<hkern u1="&#x2d;" u2="J" k="112" />
<hkern u1="&#x2d;" u2="A" k="36" />
<hkern u1="&#x2e;" u2="&#x201d;" k="100" />
<hkern u1="&#x2e;" u2="&#x2019;" k="100" />
<hkern u1="&#x2e;" u2="&#x20;" k="70" />
<hkern u1="A" u2="&#x2039;" k="73" />
<hkern u1="A" u2="&#x201e;" k="-151" />
<hkern u1="A" u2="&#x201d;" k="159" />
<hkern u1="A" u2="&#x201c;" k="301" />
<hkern u1="A" u2="&#x201a;" k="-151" />
<hkern u1="A" u2="&#x2019;" k="159" />
<hkern u1="A" u2="&#x2018;" k="301" />
<hkern u1="A" u2="&#xab;" k="73" />
<hkern u1="A" u2="y" k="36" />
<hkern u1="A" u2="w" k="55" />
<hkern u1="A" u2="v" k="63" />
<hkern u1="A" u2="u" k="20" />
<hkern u1="A" u2="Y" k="73" />
<hkern u1="A" u2="W" k="60" />
<hkern u1="A" u2="V" k="55" />
<hkern u1="A" u2="U" k="40" />
<hkern u1="A" u2="T" k="73" />
<hkern u1="A" u2="S" k="-57" />
<hkern u1="A" u2="Q" k="40" />
<hkern u1="A" u2="O" k="50" />
<hkern u1="A" u2="G" k="40" />
<hkern u1="A" u2="C" k="40" />
<hkern u1="A" u2="&#x3b;" k="36" />
<hkern u1="A" u2="&#x3a;" k="36" />
<hkern u1="A" u2="&#x2e;" k="36" />
<hkern u1="A" u2="&#x2d;" k="36" />
<hkern u1="A" u2="&#x2c;" k="36" />
<hkern u1="B" u2="&#x201e;" k="36" />
<hkern u1="B" u2="&#x201c;" k="73" />
<hkern u1="B" u2="&#x201a;" k="36" />
<hkern u1="B" u2="&#x2018;" k="73" />
<hkern u1="B" u2="A" k="10" />
<hkern u1="B" u2="&#x3b;" k="73" />
<hkern u1="B" u2="&#x3a;" k="73" />
<hkern u1="B" u2="&#x2e;" k="73" />
<hkern u1="B" u2="&#x2c;" k="73" />
<hkern u1="C" u2="&#x201e;" k="55" />
<hkern u1="C" u2="&#x201d;" k="-114" />
<hkern u1="C" u2="&#x201c;" k="36" />
<hkern u1="C" u2="&#x201a;" k="55" />
<hkern u1="C" u2="&#x2019;" k="-114" />
<hkern u1="C" u2="&#x2018;" k="36" />
<hkern u1="C" u2="A" k="40" />
<hkern u1="C" u2="&#x3b;" k="36" />
<hkern u1="C" u2="&#x3a;" k="36" />
<hkern u1="C" u2="&#x2e;" k="36" />
<hkern u1="C" u2="&#x2c;" k="36" />
<hkern u1="D" u2="&#x201e;" k="112" />
<hkern u1="D" u2="&#x201d;" k="-57" />
<hkern u1="D" u2="&#x201c;" k="36" />
<hkern u1="D" u2="&#x201a;" k="112" />
<hkern u1="D" u2="&#x2019;" k="-57" />
<hkern u1="D" u2="&#x2018;" k="36" />
<hkern u1="D" u2="Y" k="45" />
<hkern u1="D" u2="W" k="30" />
<hkern u1="D" u2="V" k="50" />
<hkern u1="D" u2="A" k="50" />
<hkern u1="D" u2="&#x3b;" k="36" />
<hkern u1="D" u2="&#x3a;" k="36" />
<hkern u1="D" u2="&#x2e;" k="112" />
<hkern u1="D" u2="&#x2d;" k="-38" />
<hkern u1="D" u2="&#x2c;" k="112" />
<hkern u1="E" u2="&#x203a;" k="36" />
<hkern u1="E" u2="&#x2039;" k="36" />
<hkern u1="E" u2="&#xbb;" k="36" />
<hkern u1="E" u2="&#xab;" k="36" />
<hkern u1="E" u2="&#x3b;" k="73" />
<hkern u1="E" u2="&#x3a;" k="73" />
<hkern u1="E" u2="&#x2e;" k="36" />
<hkern u1="E" u2="&#x2d;" k="36" />
<hkern u1="E" u2="&#x2c;" k="36" />
<hkern u1="F" u2="&#x203a;" k="73" />
<hkern u1="F" u2="&#x2039;" k="73" />
<hkern u1="F" u2="&#x201e;" k="243" />
<hkern u1="F" u2="&#x201a;" k="243" />
<hkern u1="F" u2="&#xbb;" k="73" />
<hkern u1="F" u2="&#xab;" k="73" />
<hkern u1="F" u2="y" k="45" />
<hkern u1="F" u2="u" k="36" />
<hkern u1="F" u2="r" k="36" />
<hkern u1="F" u2="o" k="45" />
<hkern u1="F" u2="i" k="36" />
<hkern u1="F" u2="e" k="45" />
<hkern u1="F" u2="a" k="45" />
<hkern u1="F" u2="S" k="73" />
<hkern u1="F" u2="A" k="92" />
<hkern u1="F" u2="&#x3b;" k="112" />
<hkern u1="F" u2="&#x3a;" k="112" />
<hkern u1="F" u2="&#x2e;" k="264" />
<hkern u1="F" u2="&#x2d;" k="55" />
<hkern u1="F" u2="&#x2c;" k="264" />
<hkern u1="G" u2="&#x201e;" k="112" />
<hkern u1="G" u2="&#x201d;" k="-47" />
<hkern u1="G" u2="&#x201c;" k="36" />
<hkern u1="G" u2="&#x201a;" k="112" />
<hkern u1="G" u2="&#x2019;" k="-47" />
<hkern u1="G" u2="&#x2018;" k="36" />
<hkern u1="G" u2="Y" k="15" />
<hkern u1="G" u2="&#x3b;" k="36" />
<hkern u1="G" u2="&#x3a;" k="36" />
<hkern u1="G" u2="&#x2e;" k="73" />
<hkern u1="G" u2="&#x2c;" k="73" />
<hkern u1="H" u2="&#x201d;" k="-38" />
<hkern u1="H" u2="&#x2019;" k="-38" />
<hkern u1="H" u2="&#x3b;" k="36" />
<hkern u1="H" u2="&#x3a;" k="36" />
<hkern u1="H" u2="&#x2e;" k="36" />
<hkern u1="H" u2="&#x2c;" k="36" />
<hkern u1="I" u2="&#x201d;" k="-38" />
<hkern u1="I" u2="&#x2019;" k="-38" />
<hkern u1="I" u2="&#x3b;" k="36" />
<hkern u1="I" u2="&#x3a;" k="36" />
<hkern u1="I" u2="&#x2e;" k="36" />
<hkern u1="I" u2="&#x2c;" k="36" />
<hkern u1="J" u2="&#x201e;" k="55" />
<hkern u1="J" u2="&#x201d;" k="-38" />
<hkern u1="J" u2="&#x201a;" k="55" />
<hkern u1="J" u2="&#x2019;" k="-38" />
<hkern u1="J" u2="a" k="20" />
<hkern u1="J" u2="A" k="30" />
<hkern u1="J" u2="&#x3b;" k="36" />
<hkern u1="J" u2="&#x3a;" k="36" />
<hkern u1="J" u2="&#x2e;" k="73" />
<hkern u1="J" u2="&#x2c;" k="73" />
<hkern u1="K" u2="&#x203a;" k="112" />
<hkern u1="K" u2="&#x2039;" k="188" />
<hkern u1="K" u2="&#x201e;" k="-75" />
<hkern u1="K" u2="&#x201d;" k="-38" />
<hkern u1="K" u2="&#x201c;" k="-38" />
<hkern u1="K" u2="&#x201a;" k="-75" />
<hkern u1="K" u2="&#x2019;" k="-38" />
<hkern u1="K" u2="&#x2018;" k="-38" />
<hkern u1="K" u2="&#xbb;" k="112" />
<hkern u1="K" u2="&#xab;" k="188" />
<hkern u1="K" u2="y" k="73" />
<hkern u1="K" u2="u" k="55" />
<hkern u1="K" u2="o" k="73" />
<hkern u1="K" u2="e" k="73" />
<hkern u1="K" u2="a" k="73" />
<hkern u1="K" u2="Y" k="36" />
<hkern u1="K" u2="W" k="36" />
<hkern u1="K" u2="O" k="92" />
<hkern u1="K" u2="C" k="92" />
<hkern u1="K" u2="&#x3b;" k="36" />
<hkern u1="K" u2="&#x3a;" k="36" />
<hkern u1="K" u2="&#x2e;" k="36" />
<hkern u1="K" u2="&#x2d;" k="112" />
<hkern u1="K" u2="&#x2c;" k="36" />
<hkern u1="L" u2="&#x203a;" k="112" />
<hkern u1="L" u2="&#x2039;" k="188" />
<hkern u1="L" u2="&#x201e;" k="-38" />
<hkern u1="L" u2="&#x201d;" k="225" />
<hkern u1="L" u2="&#x201c;" k="225" />
<hkern u1="L" u2="&#x201a;" k="-38" />
<hkern u1="L" u2="&#x2019;" k="225" />
<hkern u1="L" u2="&#x2018;" k="225" />
<hkern u1="L" u2="&#xbb;" k="112" />
<hkern u1="L" u2="&#xab;" k="188" />
<hkern u1="L" u2="y" k="112" />
<hkern u1="L" u2="u" k="63" />
<hkern u1="L" u2="o" k="63" />
<hkern u1="L" u2="e" k="63" />
<hkern u1="L" u2="a" k="63" />
<hkern u1="L" u2="Y" k="112" />
<hkern u1="L" u2="W" k="120" />
<hkern u1="L" u2="V" k="188" />
<hkern u1="L" u2="U" k="36" />
<hkern u1="L" u2="T" k="83" />
<hkern u1="L" u2="O" k="73" />
<hkern u1="L" u2="&#x3b;" k="36" />
<hkern u1="L" u2="&#x3a;" k="36" />
<hkern u1="L" u2="&#x2e;" k="73" />
<hkern u1="L" u2="&#x2d;" k="149" />
<hkern u1="L" u2="&#x2c;" k="73" />
<hkern u1="M" u2="&#x201d;" k="-38" />
<hkern u1="M" u2="&#x2019;" k="-38" />
<hkern u1="M" u2="&#x3b;" k="36" />
<hkern u1="M" u2="&#x3a;" k="36" />
<hkern u1="M" u2="&#x2e;" k="36" />
<hkern u1="M" u2="&#x2c;" k="36" />
<hkern u1="N" u2="&#x201d;" k="-38" />
<hkern u1="N" u2="&#x2019;" k="-38" />
<hkern u1="N" u2="&#x3b;" k="36" />
<hkern u1="N" u2="&#x3a;" k="36" />
<hkern u1="N" u2="&#x2e;" k="36" />
<hkern u1="N" u2="&#x2c;" k="36" />
<hkern u1="O" u2="&#x201e;" k="112" />
<hkern u1="O" u2="&#x201d;" k="-57" />
<hkern u1="O" u2="&#x201c;" k="36" />
<hkern u1="O" u2="&#x201a;" k="112" />
<hkern u1="O" u2="&#x2019;" k="-57" />
<hkern u1="O" u2="&#x2018;" k="36" />
<hkern u1="O" u2="Y" k="40" />
<hkern u1="O" u2="X" k="55" />
<hkern u1="O" u2="W" k="20" />
<hkern u1="O" u2="V" k="45" />
<hkern u1="O" u2="T" k="73" />
<hkern u1="O" u2="A" k="60" />
<hkern u1="O" u2="&#x3b;" k="36" />
<hkern u1="O" u2="&#x3a;" k="36" />
<hkern u1="O" u2="&#x2e;" k="112" />
<hkern u1="O" u2="&#x2c;" k="112" />
<hkern u1="P" u2="&#x203a;" k="112" />
<hkern u1="P" u2="&#x2039;" k="149" />
<hkern u1="P" u2="&#x201e;" k="301" />
<hkern u1="P" u2="&#x201d;" k="-57" />
<hkern u1="P" u2="&#x201a;" k="301" />
<hkern u1="P" u2="&#x2019;" k="-57" />
<hkern u1="P" u2="&#xbb;" k="112" />
<hkern u1="P" u2="&#xab;" k="149" />
<hkern u1="P" u2="u" k="36" />
<hkern u1="P" u2="s" k="55" />
<hkern u1="P" u2="r" k="36" />
<hkern u1="P" u2="o" k="92" />
<hkern u1="P" u2="n" k="36" />
<hkern u1="P" u2="i" k="36" />
<hkern u1="P" u2="e" k="92" />
<hkern u1="P" u2="a" k="92" />
<hkern u1="P" u2="A" k="131" />
<hkern u1="P" u2="&#x3b;" k="73" />
<hkern u1="P" u2="&#x3a;" k="73" />
<hkern u1="P" u2="&#x2e;" k="452" />
<hkern u1="P" u2="&#x2d;" k="149" />
<hkern u1="P" u2="&#x2c;" k="452" />
<hkern u1="Q" u2="&#x201e;" k="-38" />
<hkern u1="Q" u2="&#x201d;" k="-57" />
<hkern u1="Q" u2="&#x201c;" k="36" />
<hkern u1="Q" u2="&#x201a;" k="-38" />
<hkern u1="Q" u2="&#x2019;" k="-57" />
<hkern u1="Q" u2="&#x2018;" k="36" />
<hkern u1="Q" u2="&#x2e;" k="36" />
<hkern u1="Q" u2="&#x2c;" k="36" />
<hkern u1="R" u2="&#x203a;" k="73" />
<hkern u1="R" u2="&#x2039;" k="112" />
<hkern u1="R" u2="&#x201d;" k="-47" />
<hkern u1="R" u2="&#x201c;" k="73" />
<hkern u1="R" u2="&#x2019;" k="-47" />
<hkern u1="R" u2="&#x2018;" k="73" />
<hkern u1="R" u2="&#xbb;" k="73" />
<hkern u1="R" u2="&#xab;" k="112" />
<hkern u1="R" u2="o" k="36" />
<hkern u1="R" u2="e" k="36" />
<hkern u1="R" u2="a" k="36" />
<hkern u1="R" u2="Y" k="10" />
<hkern u1="R" u2="W" k="-10" />
<hkern u1="R" u2="V" k="10" />
<hkern u1="R" u2="T" k="-15" />
<hkern u1="R" u2="&#x3b;" k="36" />
<hkern u1="R" u2="&#x3a;" k="36" />
<hkern u1="R" u2="&#x2e;" k="112" />
<hkern u1="R" u2="&#x2d;" k="73" />
<hkern u1="R" u2="&#x2c;" k="112" />
<hkern u1="S" u2="&#x201e;" k="36" />
<hkern u1="S" u2="&#x201d;" k="-57" />
<hkern u1="S" u2="&#x201c;" k="36" />
<hkern u1="S" u2="&#x201a;" k="36" />
<hkern u1="S" u2="&#x2019;" k="-57" />
<hkern u1="S" u2="&#x2018;" k="36" />
<hkern u1="S" u2="&#x3b;" k="36" />
<hkern u1="S" u2="&#x3a;" k="36" />
<hkern u1="S" u2="&#x2e;" k="73" />
<hkern u1="S" u2="&#x2d;" k="-38" />
<hkern u1="S" u2="&#x2c;" k="73" />
<hkern u1="T" u2="&#x203a;" k="112" />
<hkern u1="T" u2="&#x2039;" k="149" />
<hkern u1="T" u2="&#x201e;" k="73" />
<hkern u1="T" u2="&#x201d;" k="-38" />
<hkern u1="T" u2="&#x201c;" k="-75" />
<hkern u1="T" u2="&#x201a;" k="73" />
<hkern u1="T" u2="&#x2019;" k="-38" />
<hkern u1="T" u2="&#x2018;" k="-75" />
<hkern u1="T" u2="&#xbb;" k="112" />
<hkern u1="T" u2="&#xab;" k="149" />
<hkern u1="T" u2="y" k="36" />
<hkern u1="T" u2="w" k="45" />
<hkern u1="T" u2="u" k="45" />
<hkern u1="T" u2="s" k="63" />
<hkern u1="T" u2="r" k="45" />
<hkern u1="T" u2="o" k="83" />
<hkern u1="T" u2="e" k="83" />
<hkern u1="T" u2="c" k="83" />
<hkern u1="T" u2="a" k="83" />
<hkern u1="T" u2="O" k="73" />
<hkern u1="T" u2="C" k="73" />
<hkern u1="T" u2="A" k="73" />
<hkern u1="T" u2="&#x3b;" k="73" />
<hkern u1="T" u2="&#x3a;" k="73" />
<hkern u1="T" u2="&#x2e;" k="149" />
<hkern u1="T" u2="&#x2d;" k="112" />
<hkern u1="T" u2="&#x2c;" k="149" />
<hkern u1="U" u2="&#x203a;" k="55" />
<hkern u1="U" u2="&#x2039;" k="36" />
<hkern u1="U" u2="&#x201e;" k="36" />
<hkern u1="U" u2="&#x201d;" k="-38" />
<hkern u1="U" u2="&#x201a;" k="36" />
<hkern u1="U" u2="&#x2019;" k="-38" />
<hkern u1="U" u2="&#xbb;" k="55" />
<hkern u1="U" u2="&#xab;" k="36" />
<hkern u1="U" u2="A" k="40" />
<hkern u1="U" u2="&#x2e;" k="73" />
<hkern u1="U" u2="&#x2c;" k="73" />
<hkern u1="V" u2="&#x203a;" k="149" />
<hkern u1="V" u2="&#x2039;" k="188" />
<hkern u1="V" u2="&#x201e;" k="188" />
<hkern u1="V" u2="&#x201d;" k="-114" />
<hkern u1="V" u2="&#x201c;" k="-114" />
<hkern u1="V" u2="&#x201a;" k="188" />
<hkern u1="V" u2="&#x2019;" k="-114" />
<hkern u1="V" u2="&#x2018;" k="-114" />
<hkern u1="V" u2="&#xbb;" k="149" />
<hkern u1="V" u2="&#xab;" k="188" />
<hkern u1="V" u2="y" k="36" />
<hkern u1="V" u2="u" k="63" />
<hkern u1="V" u2="o" k="112" />
<hkern u1="V" u2="i" k="35" />
<hkern u1="V" u2="e" k="112" />
<hkern u1="V" u2="a" k="112" />
<hkern u1="V" u2="O" k="45" />
<hkern u1="V" u2="G" k="20" />
<hkern u1="V" u2="A" k="55" />
<hkern u1="V" u2="&#x3b;" k="73" />
<hkern u1="V" u2="&#x3a;" k="73" />
<hkern u1="V" u2="&#x2e;" k="225" />
<hkern u1="V" u2="&#x2d;" k="112" />
<hkern u1="V" u2="&#x2c;" k="225" />
<hkern u1="W" u2="&#x203a;" k="112" />
<hkern u1="W" u2="&#x2039;" k="149" />
<hkern u1="W" u2="&#x201e;" k="149" />
<hkern u1="W" u2="&#x201d;" k="-114" />
<hkern u1="W" u2="&#x201c;" k="-114" />
<hkern u1="W" u2="&#x201a;" k="149" />
<hkern u1="W" u2="&#x2019;" k="-114" />
<hkern u1="W" u2="&#x2018;" k="-114" />
<hkern u1="W" u2="&#xbb;" k="112" />
<hkern u1="W" u2="&#xab;" k="149" />
<hkern u1="W" u2="y" k="20" />
<hkern u1="W" u2="u" k="55" />
<hkern u1="W" u2="r" k="36" />
<hkern u1="W" u2="o" k="73" />
<hkern u1="W" u2="i" k="10" />
<hkern u1="W" u2="e" k="73" />
<hkern u1="W" u2="a" k="73" />
<hkern u1="W" u2="O" k="20" />
<hkern u1="W" u2="A" k="58" />
<hkern u1="W" u2="&#x3b;" k="36" />
<hkern u1="W" u2="&#x3a;" k="36" />
<hkern u1="W" u2="&#x2e;" k="149" />
<hkern u1="W" u2="&#x2d;" k="112" />
<hkern u1="W" u2="&#x2c;" k="149" />
<hkern u1="X" u2="&#x203a;" k="73" />
<hkern u1="X" u2="&#x2039;" k="188" />
<hkern u1="X" u2="&#x201e;" k="-94" />
<hkern u1="X" u2="&#x201d;" k="-38" />
<hkern u1="X" u2="&#x201c;" k="-38" />
<hkern u1="X" u2="&#x201a;" k="-94" />
<hkern u1="X" u2="&#x2019;" k="-38" />
<hkern u1="X" u2="&#x2018;" k="-38" />
<hkern u1="X" u2="&#xbb;" k="73" />
<hkern u1="X" u2="&#xab;" k="188" />
<hkern u1="X" u2="e" k="36" />
<hkern u1="X" u2="O" k="55" />
<hkern u1="X" u2="C" k="55" />
<hkern u1="X" u2="&#x3b;" k="36" />
<hkern u1="X" u2="&#x3a;" k="36" />
<hkern u1="X" u2="&#x2e;" k="36" />
<hkern u1="X" u2="&#x2d;" k="73" />
<hkern u1="X" u2="&#x2c;" k="36" />
<hkern u1="Y" u2="&#x203a;" k="149" />
<hkern u1="Y" u2="&#x2039;" k="225" />
<hkern u1="Y" u2="&#x201e;" k="149" />
<hkern u1="Y" u2="&#x201d;" k="-94" />
<hkern u1="Y" u2="&#x201c;" k="-114" />
<hkern u1="Y" u2="&#x201a;" k="149" />
<hkern u1="Y" u2="&#x2019;" k="-94" />
<hkern u1="Y" u2="&#x2018;" k="-114" />
<hkern u1="Y" u2="&#xbb;" k="149" />
<hkern u1="Y" u2="&#xab;" k="225" />
<hkern u1="Y" u2="u" k="102" />
<hkern u1="Y" u2="o" k="139" />
<hkern u1="Y" u2="i" k="15" />
<hkern u1="Y" u2="e" k="139" />
<hkern u1="Y" u2="a" k="139" />
<hkern u1="Y" u2="O" k="40" />
<hkern u1="Y" u2="A" k="73" />
<hkern u1="Y" u2="&#x3b;" k="73" />
<hkern u1="Y" u2="&#x3a;" k="73" />
<hkern u1="Y" u2="&#x2e;" k="225" />
<hkern u1="Y" u2="&#x2d;" k="112" />
<hkern u1="Y" u2="&#x2c;" k="225" />
<hkern u1="Z" u2="&#x203a;" k="73" />
<hkern u1="Z" u2="&#x2039;" k="188" />
<hkern u1="Z" u2="&#x201e;" k="-75" />
<hkern u1="Z" u2="&#x201d;" k="-57" />
<hkern u1="Z" u2="&#x201a;" k="-75" />
<hkern u1="Z" u2="&#x2019;" k="-57" />
<hkern u1="Z" u2="&#xbb;" k="73" />
<hkern u1="Z" u2="&#xab;" k="188" />
<hkern u1="Z" u2="&#x2e;" k="73" />
<hkern u1="Z" u2="&#x2d;" k="149" />
<hkern u1="Z" u2="&#x2c;" k="73" />
<hkern u1="a" u2="&#x2039;" k="36" />
<hkern u1="a" u2="&#x201d;" k="-38" />
<hkern u1="a" u2="&#x201c;" k="36" />
<hkern u1="a" u2="&#x2019;" k="-38" />
<hkern u1="a" u2="&#x2018;" k="36" />
<hkern u1="a" u2="&#xab;" k="36" />
<hkern u1="a" u2="t" k="-5" />
<hkern u1="a" u2="p" k="-20" />
<hkern u1="a" u2="b" k="-5" />
<hkern u1="a" u2="&#x2e;" k="36" />
<hkern u1="a" u2="&#x2c;" k="36" />
<hkern u1="b" u2="&#x203a;" k="36" />
<hkern u1="b" u2="&#x201c;" k="149" />
<hkern u1="b" u2="&#x2018;" k="149" />
<hkern u1="b" u2="&#xbb;" k="36" />
<hkern u1="b" u2="y" k="20" />
<hkern u1="b" u2="v" k="20" />
<hkern u1="b" u2="u" k="10" />
<hkern u1="b" u2="&#x3b;" k="36" />
<hkern u1="b" u2="&#x3a;" k="36" />
<hkern u1="b" u2="&#x2e;" k="73" />
<hkern u1="b" u2="&#x2c;" k="73" />
<hkern u1="c" u2="&#x203a;" k="36" />
<hkern u1="c" u2="&#x2039;" k="36" />
<hkern u1="c" u2="&#x201c;" k="149" />
<hkern u1="c" u2="&#x2018;" k="149" />
<hkern u1="c" u2="&#xbb;" k="36" />
<hkern u1="c" u2="&#xab;" k="36" />
<hkern u1="c" u2="y" k="20" />
<hkern u1="c" u2="k" k="15" />
<hkern u1="c" u2="&#x3b;" k="36" />
<hkern u1="c" u2="&#x3a;" k="36" />
<hkern u1="c" u2="&#x2e;" k="73" />
<hkern u1="c" u2="&#x2c;" k="73" />
<hkern u1="d" u2="&#x2039;" k="36" />
<hkern u1="d" u2="&#x201d;" k="-75" />
<hkern u1="d" u2="&#x2019;" k="-75" />
<hkern u1="d" u2="&#xab;" k="36" />
<hkern u1="d" u2="&#x2e;" k="36" />
<hkern u1="d" u2="&#x2c;" k="36" />
<hkern u1="e" u2="&#x203a;" k="36" />
<hkern u1="e" u2="&#x201c;" k="149" />
<hkern u1="e" u2="&#x2018;" k="149" />
<hkern u1="e" u2="&#xbb;" k="36" />
<hkern u1="e" u2="y" k="20" />
<hkern u1="e" u2="w" k="20" />
<hkern u1="e" u2="v" k="20" />
<hkern u1="e" u2="&#x3b;" k="36" />
<hkern u1="e" u2="&#x3a;" k="36" />
<hkern u1="e" u2="&#x2e;" k="73" />
<hkern u1="e" u2="&#x2c;" k="73" />
<hkern u1="f" u2="&#x203a;" k="73" />
<hkern u1="f" u2="&#x2039;" k="112" />
<hkern u1="f" u2="&#x201d;" k="-151" />
<hkern u1="f" u2="&#x201c;" k="-75" />
<hkern u1="f" u2="&#x2019;" k="-151" />
<hkern u1="f" u2="&#x2018;" k="-75" />
<hkern u1="f" u2="&#xbb;" k="73" />
<hkern u1="f" u2="&#xab;" k="112" />
<hkern u1="f" u2="o" k="20" />
<hkern u1="f" u2="l" k="30" />
<hkern u1="f" u2="i" k="30" />
<hkern u1="f" u2="f" k="15" />
<hkern u1="f" u2="a" k="20" />
<hkern u1="f" u2="&#x2e;" k="149" />
<hkern u1="f" u2="&#x2d;" k="36" />
<hkern u1="f" u2="&#x2c;" k="149" />
<hkern u1="g" u2="&#x2039;" k="36" />
<hkern u1="g" u2="&#x201d;" k="-38" />
<hkern u1="g" u2="&#x201c;" k="36" />
<hkern u1="g" u2="&#x2019;" k="-38" />
<hkern u1="g" u2="&#x2018;" k="36" />
<hkern u1="g" u2="&#xab;" k="36" />
<hkern u1="g" u2="a" k="15" />
<hkern u1="g" u2="&#x2e;" k="36" />
<hkern u1="g" u2="&#x2c;" k="36" />
<hkern u1="h" u2="&#x2039;" k="36" />
<hkern u1="h" u2="&#x201c;" k="112" />
<hkern u1="h" u2="&#x2018;" k="112" />
<hkern u1="h" u2="&#xab;" k="36" />
<hkern u1="h" u2="y" k="30" />
<hkern u1="h" u2="&#x2e;" k="36" />
<hkern u1="h" u2="&#x2c;" k="36" />
<hkern u1="i" u2="&#x2039;" k="36" />
<hkern u1="i" u2="&#x201d;" k="-75" />
<hkern u1="i" u2="&#x2019;" k="-75" />
<hkern u1="i" u2="&#xab;" k="36" />
<hkern u1="i" u2="&#x2e;" k="36" />
<hkern u1="i" u2="&#x2c;" k="36" />
<hkern u1="j" u2="&#x2039;" k="36" />
<hkern u1="j" u2="&#x201d;" k="-75" />
<hkern u1="j" u2="&#x2019;" k="-75" />
<hkern u1="j" u2="&#xab;" k="36" />
<hkern u1="j" u2="&#x2e;" k="36" />
<hkern u1="j" u2="&#x2c;" k="36" />
<hkern u1="k" u2="&#x203a;" k="36" />
<hkern u1="k" u2="&#x2039;" k="112" />
<hkern u1="k" u2="&#x201d;" k="-75" />
<hkern u1="k" u2="&#x201c;" k="36" />
<hkern u1="k" u2="&#x2019;" k="-75" />
<hkern u1="k" u2="&#x2018;" k="36" />
<hkern u1="k" u2="&#xbb;" k="36" />
<hkern u1="k" u2="&#xab;" k="112" />
<hkern u1="k" u2="y" k="25" />
<hkern u1="k" u2="o" k="36" />
<hkern u1="k" u2="e" k="36" />
<hkern u1="k" u2="a" k="36" />
<hkern u1="k" u2="&#x2e;" k="36" />
<hkern u1="k" u2="&#x2d;" k="73" />
<hkern u1="k" u2="&#x2c;" k="36" />
<hkern u1="l" u2="&#x2039;" k="36" />
<hkern u1="l" u2="&#x201d;" k="-75" />
<hkern u1="l" u2="&#x2019;" k="-75" />
<hkern u1="l" u2="&#xab;" k="36" />
<hkern u1="l" u2="w" k="20" />
<hkern u1="l" u2="&#x2e;" k="36" />
<hkern u1="l" u2="&#x2c;" k="36" />
<hkern u1="m" u2="&#x2039;" k="36" />
<hkern u1="m" u2="&#x201c;" k="112" />
<hkern u1="m" u2="&#x2018;" k="112" />
<hkern u1="m" u2="&#xab;" k="36" />
<hkern u1="m" u2="y" k="20" />
<hkern u1="m" u2="u" k="20" />
<hkern u1="m" u2="&#x2e;" k="36" />
<hkern u1="m" u2="&#x2c;" k="36" />
<hkern u1="n" u2="&#x2039;" k="36" />
<hkern u1="n" u2="&#x201c;" k="112" />
<hkern u1="n" u2="&#x2018;" k="112" />
<hkern u1="n" u2="&#xab;" k="36" />
<hkern u1="n" u2="y" k="15" />
<hkern u1="n" u2="v" k="30" />
<hkern u1="n" u2="u" k="15" />
<hkern u1="n" u2="&#x2e;" k="36" />
<hkern u1="n" u2="&#x2c;" k="36" />
<hkern u1="o" u2="&#x203a;" k="36" />
<hkern u1="o" u2="&#x201c;" k="149" />
<hkern u1="o" u2="&#x2018;" k="149" />
<hkern u1="o" u2="&#xbb;" k="36" />
<hkern u1="o" u2="y" k="20" />
<hkern u1="o" u2="x" k="15" />
<hkern u1="o" u2="w" k="20" />
<hkern u1="o" u2="v" k="30" />
<hkern u1="o" u2="&#x3b;" k="36" />
<hkern u1="o" u2="&#x3a;" k="36" />
<hkern u1="o" u2="&#x2e;" k="73" />
<hkern u1="o" u2="&#x2c;" k="73" />
<hkern u1="p" u2="&#x203a;" k="36" />
<hkern u1="p" u2="&#x201c;" k="149" />
<hkern u1="p" u2="&#x2018;" k="149" />
<hkern u1="p" u2="&#xbb;" k="36" />
<hkern u1="p" u2="y" k="20" />
<hkern u1="p" u2="&#x3b;" k="36" />
<hkern u1="p" u2="&#x3a;" k="36" />
<hkern u1="p" u2="&#x2e;" k="73" />
<hkern u1="p" u2="&#x2c;" k="73" />
<hkern u1="q" u2="&#x2039;" k="36" />
<hkern u1="q" u2="&#x201d;" k="-75" />
<hkern u1="q" u2="&#x201c;" k="36" />
<hkern u1="q" u2="&#x2019;" k="-75" />
<hkern u1="q" u2="&#x2018;" k="36" />
<hkern u1="q" u2="&#xab;" k="36" />
<hkern u1="q" u2="&#x2e;" k="36" />
<hkern u1="q" u2="&#x2c;" k="36" />
<hkern u1="r" u2="&#x203a;" k="36" />
<hkern u1="r" u2="&#x2039;" k="112" />
<hkern u1="r" u2="&#x201d;" k="-151" />
<hkern u1="r" u2="&#x2019;" k="-151" />
<hkern u1="r" u2="&#xbb;" k="36" />
<hkern u1="r" u2="&#xab;" k="112" />
<hkern u1="r" u2="z" k="-38" />
<hkern u1="r" u2="y" k="-114" />
<hkern u1="r" u2="x" k="-75" />
<hkern u1="r" u2="w" k="-75" />
<hkern u1="r" u2="v" k="-75" />
<hkern u1="r" u2="u" k="-20" />
<hkern u1="r" u2="t" k="-40" />
<hkern u1="r" u2="s" k="-20" />
<hkern u1="r" u2="q" k="8" />
<hkern u1="r" u2="p" k="-20" />
<hkern u1="r" u2="o" k="20" />
<hkern u1="r" u2="n" k="-21" />
<hkern u1="r" u2="m" k="-28" />
<hkern u1="r" u2="l" k="-20" />
<hkern u1="r" u2="k" k="-20" />
<hkern u1="r" u2="i" k="-20" />
<hkern u1="r" u2="g" k="-1" />
<hkern u1="r" u2="f" k="-75" />
<hkern u1="r" u2="e" k="4" />
<hkern u1="r" u2="d" k="6" />
<hkern u1="r" u2="c" k="7" />
<hkern u1="r" u2="&#x2e;" k="149" />
<hkern u1="r" u2="&#x2d;" k="36" />
<hkern u1="r" u2="&#x2c;" k="149" />
<hkern u1="s" u2="&#x201d;" k="-38" />
<hkern u1="s" u2="&#x201c;" k="112" />
<hkern u1="s" u2="&#x2019;" k="-38" />
<hkern u1="s" u2="&#x2018;" k="112" />
<hkern u1="s" u2="t" k="-15" />
<hkern u1="s" u2="&#x2e;" k="73" />
<hkern u1="s" u2="&#x2c;" k="73" />
<hkern u1="t" u2="&#x203a;" k="55" />
<hkern u1="t" u2="&#x2039;" k="73" />
<hkern u1="t" u2="&#x201d;" k="-114" />
<hkern u1="t" u2="&#x201c;" k="-38" />
<hkern u1="t" u2="&#x2019;" k="-114" />
<hkern u1="t" u2="&#x2018;" k="-38" />
<hkern u1="t" u2="&#xbb;" k="55" />
<hkern u1="t" u2="&#xab;" k="73" />
<hkern u1="t" u2="&#x2e;" k="112" />
<hkern u1="t" u2="&#x2d;" k="36" />
<hkern u1="t" u2="&#x2c;" k="112" />
<hkern u1="u" u2="&#x2039;" k="36" />
<hkern u1="u" u2="&#x201d;" k="-75" />
<hkern u1="u" u2="&#x201c;" k="73" />
<hkern u1="u" u2="&#x2019;" k="-75" />
<hkern u1="u" u2="&#x2018;" k="73" />
<hkern u1="u" u2="&#xab;" k="36" />
<hkern u1="u" u2="z" k="-15" />
<hkern u1="u" u2="&#x2e;" k="36" />
<hkern u1="u" u2="&#x2c;" k="36" />
<hkern u1="v" u2="&#x203a;" k="73" />
<hkern u1="v" u2="&#x2039;" k="112" />
<hkern u1="v" u2="&#x201d;" k="-114" />
<hkern u1="v" u2="&#x2019;" k="-114" />
<hkern u1="v" u2="&#xbb;" k="73" />
<hkern u1="v" u2="&#xab;" k="112" />
<hkern u1="v" u2="o" k="20" />
<hkern u1="v" u2="e" k="20" />
<hkern u1="v" u2="a" k="30" />
<hkern u1="v" u2="&#x3b;" k="36" />
<hkern u1="v" u2="&#x3a;" k="36" />
<hkern u1="v" u2="&#x2e;" k="225" />
<hkern u1="v" u2="&#x2d;" k="73" />
<hkern u1="v" u2="&#x2c;" k="225" />
<hkern u1="w" u2="&#x203a;" k="73" />
<hkern u1="w" u2="&#x2039;" k="112" />
<hkern u1="w" u2="&#x201d;" k="-114" />
<hkern u1="w" u2="&#x2019;" k="-114" />
<hkern u1="w" u2="&#xbb;" k="73" />
<hkern u1="w" u2="&#xab;" k="112" />
<hkern u1="w" u2="o" k="30" />
<hkern u1="w" u2="h" k="-15" />
<hkern u1="w" u2="e" k="20" />
<hkern u1="w" u2="a" k="30" />
<hkern u1="w" u2="&#x3b;" k="36" />
<hkern u1="w" u2="&#x3a;" k="36" />
<hkern u1="w" u2="&#x2e;" k="149" />
<hkern u1="w" u2="&#x2d;" k="73" />
<hkern u1="w" u2="&#x2c;" k="149" />
<hkern u1="x" u2="&#x203a;" k="73" />
<hkern u1="x" u2="&#x2039;" k="112" />
<hkern u1="x" u2="&#x201d;" k="-114" />
<hkern u1="x" u2="&#x2019;" k="-114" />
<hkern u1="x" u2="&#xbb;" k="73" />
<hkern u1="x" u2="&#xab;" k="112" />
<hkern u1="x" u2="i" k="-15" />
<hkern u1="x" u2="&#x3b;" k="36" />
<hkern u1="x" u2="&#x3a;" k="36" />
<hkern u1="x" u2="&#x2e;" k="36" />
<hkern u1="x" u2="&#x2d;" k="73" />
<hkern u1="x" u2="&#x2c;" k="36" />
<hkern u1="y" u2="&#x203a;" k="36" />
<hkern u1="y" u2="&#x2039;" k="73" />
<hkern u1="y" u2="&#x201d;" k="-151" />
<hkern u1="y" u2="&#x201c;" k="-38" />
<hkern u1="y" u2="&#x2019;" k="-151" />
<hkern u1="y" u2="&#x2018;" k="-38" />
<hkern u1="y" u2="&#xbb;" k="36" />
<hkern u1="y" u2="&#xab;" k="73" />
<hkern u1="y" u2="o" k="30" />
<hkern u1="y" u2="e" k="20" />
<hkern u1="y" u2="a" k="30" />
<hkern u1="y" u2="&#x2e;" k="188" />
<hkern u1="y" u2="&#x2d;" k="36" />
<hkern u1="y" u2="&#x2c;" k="188" />
<hkern u1="z" u2="&#x203a;" k="36" />
<hkern u1="z" u2="&#x2039;" k="149" />
<hkern u1="z" u2="&#x201d;" k="-75" />
<hkern u1="z" u2="&#x201c;" k="36" />
<hkern u1="z" u2="&#x2019;" k="-75" />
<hkern u1="z" u2="&#x2018;" k="36" />
<hkern u1="z" u2="&#xbb;" k="36" />
<hkern u1="z" u2="&#xab;" k="149" />
<hkern u1="z" u2="&#x3b;" k="36" />
<hkern u1="z" u2="&#x3a;" k="36" />
<hkern u1="z" u2="&#x2e;" k="73" />
<hkern u1="z" u2="&#x2d;" k="36" />
<hkern u1="z" u2="&#x2c;" k="73" />
<hkern u1="&#xab;" u2="x" k="73" />
<hkern u1="&#xab;" u2="w" k="73" />
<hkern u1="&#xab;" u2="v" k="73" />
<hkern u1="&#xab;" u2="t" k="55" />
<hkern u1="&#xab;" u2="o" k="36" />
<hkern u1="&#xab;" u2="j" k="-38" />
<hkern u1="&#xab;" u2="g" k="36" />
<hkern u1="&#xab;" u2="f" k="36" />
<hkern u1="&#xab;" u2="e" k="36" />
<hkern u1="&#xab;" u2="d" k="36" />
<hkern u1="&#xab;" u2="c" k="36" />
<hkern u1="&#xab;" u2="a" k="36" />
<hkern u1="&#xab;" u2="Z" k="36" />
<hkern u1="&#xab;" u2="Y" k="149" />
<hkern u1="&#xab;" u2="X" k="73" />
<hkern u1="&#xab;" u2="W" k="112" />
<hkern u1="&#xab;" u2="V" k="149" />
<hkern u1="&#xab;" u2="U" k="55" />
<hkern u1="&#xab;" u2="T" k="112" />
<hkern u1="&#xab;" u2="J" k="36" />
<hkern u1="&#xbb;" u2="z" k="73" />
<hkern u1="&#xbb;" u2="y" k="55" />
<hkern u1="&#xbb;" u2="x" k="112" />
<hkern u1="&#xbb;" u2="w" k="112" />
<hkern u1="&#xbb;" u2="v" k="112" />
<hkern u1="&#xbb;" u2="u" k="36" />
<hkern u1="&#xbb;" u2="t" k="73" />
<hkern u1="&#xbb;" u2="r" k="36" />
<hkern u1="&#xbb;" u2="p" k="36" />
<hkern u1="&#xbb;" u2="n" k="36" />
<hkern u1="&#xbb;" u2="m" k="36" />
<hkern u1="&#xbb;" u2="l" k="36" />
<hkern u1="&#xbb;" u2="k" k="36" />
<hkern u1="&#xbb;" u2="i" k="36" />
<hkern u1="&#xbb;" u2="h" k="36" />
<hkern u1="&#xbb;" u2="f" k="36" />
<hkern u1="&#xbb;" u2="b" k="36" />
<hkern u1="&#xbb;" u2="Z" k="73" />
<hkern u1="&#xbb;" u2="Y" k="225" />
<hkern u1="&#xbb;" u2="X" k="188" />
<hkern u1="&#xbb;" u2="W" k="149" />
<hkern u1="&#xbb;" u2="V" k="188" />
<hkern u1="&#xbb;" u2="U" k="36" />
<hkern u1="&#xbb;" u2="T" k="149" />
<hkern u1="&#xbb;" u2="S" k="73" />
<hkern u1="&#xbb;" u2="J" k="73" />
<hkern u1="&#xbb;" u2="A" k="73" />
<hkern u1="&#x2018;" u2="&#x2018;" k="121" />
<hkern u1="&#x2018;" u2="z" k="-75" />
<hkern u1="&#x2018;" u2="y" k="-151" />
<hkern u1="&#x2018;" u2="x" k="-75" />
<hkern u1="&#x2018;" u2="w" k="-114" />
<hkern u1="&#x2018;" u2="v" k="-114" />
<hkern u1="&#x2018;" u2="u" k="-75" />
<hkern u1="&#x2018;" u2="t" k="-114" />
<hkern u1="&#x2018;" u2="s" k="-38" />
<hkern u1="&#x2018;" u2="r" k="-75" />
<hkern u1="&#x2018;" u2="p" k="-75" />
<hkern u1="&#x2018;" u2="n" k="-75" />
<hkern u1="&#x2018;" u2="m" k="-75" />
<hkern u1="&#x2018;" u2="l" k="-75" />
<hkern u1="&#x2018;" u2="k" k="-75" />
<hkern u1="&#x2018;" u2="j" k="-75" />
<hkern u1="&#x2018;" u2="i" k="-75" />
<hkern u1="&#x2018;" u2="h" k="-75" />
<hkern u1="&#x2018;" u2="f" k="-114" />
<hkern u1="&#x2018;" u2="b" k="-75" />
<hkern u1="&#x2018;" u2="Z" k="-38" />
<hkern u1="&#x2018;" u2="Y" k="-94" />
<hkern u1="&#x2018;" u2="X" k="-38" />
<hkern u1="&#x2018;" u2="W" k="-114" />
<hkern u1="&#x2018;" u2="V" k="-114" />
<hkern u1="&#x2018;" u2="U" k="-38" />
<hkern u1="&#x2018;" u2="T" k="-38" />
<hkern u1="&#x2018;" u2="S" k="-57" />
<hkern u1="&#x2018;" u2="R" k="-38" />
<hkern u1="&#x2018;" u2="Q" k="-94" />
<hkern u1="&#x2018;" u2="P" k="-38" />
<hkern u1="&#x2018;" u2="O" k="-57" />
<hkern u1="&#x2018;" u2="N" k="-38" />
<hkern u1="&#x2018;" u2="M" k="-38" />
<hkern u1="&#x2018;" u2="L" k="-38" />
<hkern u1="&#x2018;" u2="K" k="-38" />
<hkern u1="&#x2018;" u2="J" k="264" />
<hkern u1="&#x2018;" u2="I" k="-38" />
<hkern u1="&#x2018;" u2="H" k="-38" />
<hkern u1="&#x2018;" u2="G" k="-57" />
<hkern u1="&#x2018;" u2="F" k="-38" />
<hkern u1="&#x2018;" u2="E" k="-38" />
<hkern u1="&#x2018;" u2="D" k="-38" />
<hkern u1="&#x2018;" u2="C" k="-57" />
<hkern u1="&#x2018;" u2="B" k="-38" />
<hkern u1="&#x2018;" u2="A" k="112" />
<hkern u1="&#x2019;" u2="&#x2019;" k="121" />
<hkern u1="&#x2019;" u2="v" k="20" />
<hkern u1="&#x2019;" u2="t" k="-10" />
<hkern u1="&#x2019;" u2="s" k="15" />
<hkern u1="&#x2019;" u2="r" k="20" />
<hkern u1="&#x2019;" u2="d" k="70" />
<hkern u1="&#x2019;" u2="&#x20;" k="100" />
<hkern u1="&#x201a;" u2="z" k="-57" />
<hkern u1="&#x201a;" u2="y" k="36" />
<hkern u1="&#x201a;" u2="x" k="-38" />
<hkern u1="&#x201a;" u2="w" k="73" />
<hkern u1="&#x201a;" u2="v" k="112" />
<hkern u1="&#x201a;" u2="t" k="36" />
<hkern u1="&#x201a;" u2="s" k="-57" />
<hkern u1="&#x201a;" u2="r" k="-38" />
<hkern u1="&#x201a;" u2="p" k="-75" />
<hkern u1="&#x201a;" u2="j" k="-114" />
<hkern u1="&#x201a;" u2="g" k="-38" />
<hkern u1="&#x201a;" u2="e" k="-38" />
<hkern u1="&#x201a;" u2="b" k="-38" />
<hkern u1="&#x201a;" u2="Y" k="188" />
<hkern u1="&#x201a;" u2="W" k="149" />
<hkern u1="&#x201a;" u2="V" k="149" />
<hkern u1="&#x201a;" u2="T" k="73" />
<hkern u1="&#x201a;" u2="J" k="-75" />
<hkern u1="&#x201a;" u2="A" k="-75" />
<hkern u1="&#x201c;" u2="z" k="-75" />
<hkern u1="&#x201c;" u2="y" k="-151" />
<hkern u1="&#x201c;" u2="x" k="-75" />
<hkern u1="&#x201c;" u2="w" k="-114" />
<hkern u1="&#x201c;" u2="v" k="-114" />
<hkern u1="&#x201c;" u2="u" k="-75" />
<hkern u1="&#x201c;" u2="t" k="-114" />
<hkern u1="&#x201c;" u2="s" k="-38" />
<hkern u1="&#x201c;" u2="r" k="-75" />
<hkern u1="&#x201c;" u2="p" k="-75" />
<hkern u1="&#x201c;" u2="n" k="-75" />
<hkern u1="&#x201c;" u2="m" k="-75" />
<hkern u1="&#x201c;" u2="l" k="-75" />
<hkern u1="&#x201c;" u2="k" k="-75" />
<hkern u1="&#x201c;" u2="j" k="-75" />
<hkern u1="&#x201c;" u2="i" k="-75" />
<hkern u1="&#x201c;" u2="h" k="-75" />
<hkern u1="&#x201c;" u2="f" k="-114" />
<hkern u1="&#x201c;" u2="b" k="-75" />
<hkern u1="&#x201c;" u2="Z" k="-38" />
<hkern u1="&#x201c;" u2="Y" k="-94" />
<hkern u1="&#x201c;" u2="X" k="-38" />
<hkern u1="&#x201c;" u2="W" k="-114" />
<hkern u1="&#x201c;" u2="V" k="-114" />
<hkern u1="&#x201c;" u2="U" k="-38" />
<hkern u1="&#x201c;" u2="T" k="-38" />
<hkern u1="&#x201c;" u2="S" k="-57" />
<hkern u1="&#x201c;" u2="R" k="-38" />
<hkern u1="&#x201c;" u2="Q" k="-94" />
<hkern u1="&#x201c;" u2="P" k="-38" />
<hkern u1="&#x201c;" u2="O" k="-57" />
<hkern u1="&#x201c;" u2="N" k="-38" />
<hkern u1="&#x201c;" u2="M" k="-38" />
<hkern u1="&#x201c;" u2="L" k="-38" />
<hkern u1="&#x201c;" u2="K" k="-38" />
<hkern u1="&#x201c;" u2="J" k="264" />
<hkern u1="&#x201c;" u2="I" k="-38" />
<hkern u1="&#x201c;" u2="H" k="-38" />
<hkern u1="&#x201c;" u2="G" k="-57" />
<hkern u1="&#x201c;" u2="F" k="-38" />
<hkern u1="&#x201c;" u2="E" k="-38" />
<hkern u1="&#x201c;" u2="D" k="-38" />
<hkern u1="&#x201c;" u2="C" k="-57" />
<hkern u1="&#x201c;" u2="B" k="-38" />
<hkern u1="&#x201c;" u2="A" k="112" />
<hkern u1="&#x201d;" u2="&#x20;" k="100" />
<hkern u1="&#x201e;" u2="z" k="-57" />
<hkern u1="&#x201e;" u2="y" k="36" />
<hkern u1="&#x201e;" u2="x" k="-38" />
<hkern u1="&#x201e;" u2="w" k="73" />
<hkern u1="&#x201e;" u2="v" k="112" />
<hkern u1="&#x201e;" u2="t" k="36" />
<hkern u1="&#x201e;" u2="s" k="-57" />
<hkern u1="&#x201e;" u2="r" k="-38" />
<hkern u1="&#x201e;" u2="p" k="-75" />
<hkern u1="&#x201e;" u2="j" k="-114" />
<hkern u1="&#x201e;" u2="g" k="-38" />
<hkern u1="&#x201e;" u2="e" k="-38" />
<hkern u1="&#x201e;" u2="b" k="-38" />
<hkern u1="&#x201e;" u2="Y" k="188" />
<hkern u1="&#x201e;" u2="W" k="149" />
<hkern u1="&#x201e;" u2="V" k="149" />
<hkern u1="&#x201e;" u2="T" k="73" />
<hkern u1="&#x201e;" u2="J" k="-75" />
<hkern u1="&#x201e;" u2="A" k="-75" />
<hkern u1="&#x2039;" u2="x" k="73" />
<hkern u1="&#x2039;" u2="w" k="73" />
<hkern u1="&#x2039;" u2="v" k="73" />
<hkern u1="&#x2039;" u2="t" k="55" />
<hkern u1="&#x2039;" u2="o" k="36" />
<hkern u1="&#x2039;" u2="j" k="-38" />
<hkern u1="&#x2039;" u2="g" k="36" />
<hkern u1="&#x2039;" u2="f" k="36" />
<hkern u1="&#x2039;" u2="e" k="36" />
<hkern u1="&#x2039;" u2="d" k="36" />
<hkern u1="&#x2039;" u2="c" k="36" />
<hkern u1="&#x2039;" u2="a" k="36" />
<hkern u1="&#x2039;" u2="Z" k="36" />
<hkern u1="&#x2039;" u2="Y" k="149" />
<hkern u1="&#x2039;" u2="X" k="73" />
<hkern u1="&#x2039;" u2="W" k="112" />
<hkern u1="&#x2039;" u2="V" k="149" />
<hkern u1="&#x2039;" u2="U" k="55" />
<hkern u1="&#x2039;" u2="T" k="112" />
<hkern u1="&#x2039;" u2="J" k="36" />
<hkern u1="&#x203a;" u2="z" k="73" />
<hkern u1="&#x203a;" u2="y" k="55" />
<hkern u1="&#x203a;" u2="x" k="112" />
<hkern u1="&#x203a;" u2="w" k="112" />
<hkern u1="&#x203a;" u2="v" k="112" />
<hkern u1="&#x203a;" u2="u" k="36" />
<hkern u1="&#x203a;" u2="t" k="73" />
<hkern u1="&#x203a;" u2="r" k="36" />
<hkern u1="&#x203a;" u2="p" k="36" />
<hkern u1="&#x203a;" u2="n" k="36" />
<hkern u1="&#x203a;" u2="m" k="36" />
<hkern u1="&#x203a;" u2="l" k="36" />
<hkern u1="&#x203a;" u2="k" k="36" />
<hkern u1="&#x203a;" u2="i" k="36" />
<hkern u1="&#x203a;" u2="h" k="36" />
<hkern u1="&#x203a;" u2="f" k="36" />
<hkern u1="&#x203a;" u2="b" k="36" />
<hkern u1="&#x203a;" u2="Z" k="73" />
<hkern u1="&#x203a;" u2="Y" k="225" />
<hkern u1="&#x203a;" u2="X" k="188" />
<hkern u1="&#x203a;" u2="W" k="149" />
<hkern u1="&#x203a;" u2="V" k="188" />
<hkern u1="&#x203a;" u2="U" k="36" />
<hkern u1="&#x203a;" u2="T" k="149" />
<hkern u1="&#x203a;" u2="S" k="73" />
<hkern u1="&#x203a;" u2="J" k="73" />
<hkern u1="&#x203a;" u2="A" k="73" />
</font>
</defs></svg> 